{"matchingPoints" : [{"point":[1895,1381]},
{"point":[1902.99,1562.13]},
{"point":[1875,1381]},
{"point":[1965,1381]},
{"point":[1875,1703]},
{"point":[1965,1703]},
{"point":[1911.7,1559.35]},
{"point":[1856,1410]},
{"point":[1969,1410]},
{"point":[1856,1709]},
{"point":[1969,1709]},
{"point":[1898.63,1545.55]},
{"point":[1832,1378]},
{"point":[1966,1378]},
{"point":[1832,1714]},
{"point":[1966,1714]},
{"point":[1924,1541.5]}
],
"matchingPointsDescriptions" : [{"point":[0.774101,0.4231]},
{"point":[0.777366,0.478594]},
{"point":[0.765931,0.4231]},
{"point":[0.802696,0.4231]},
{"point":[0.765931,0.521752]},
{"point":[0.802696,0.521752]},
{"point":[0.780923,0.477743]},
{"point":[0.75817,0.431985]},
{"point":[0.80433,0.431985]},
{"point":[0.75817,0.523591]},
{"point":[0.80433,0.523591]},
{"point":[0.775585,0.473516]},
{"point":[0.748366,0.422181]},
{"point":[0.803105,0.422181]},
{"point":[0.748366,0.525123]},
{"point":[0.803105,0.525123]},
{"point":[0.785948,0.472273]}
],
"contour": [{"point":[1895,1381]},
{"point":[1891,1385]},
{"point":[1891,1389]},
{"point":[1890,1390]},
{"point":[1890,1393]},
{"point":[1896,1399]},
{"point":[1896,1402]},
{"point":[1893,1405]},
{"point":[1893,1407]},
{"point":[1894,1408]},
{"point":[1893,1409]},
{"point":[1893,1411]},
{"point":[1894,1412]},
{"point":[1894,1418]},
{"point":[1893,1419]},
{"point":[1893,1430]},
{"point":[1894,1431]},
{"point":[1894,1434]},
{"point":[1893,1435]},
{"point":[1893,1441]},
{"point":[1892,1442]},
{"point":[1892,1444]},
{"point":[1893,1444]},
{"point":[1894,1445]},
{"point":[1894,1448]},
{"point":[1893,1449]},
{"point":[1893,1450]},
{"point":[1892,1451]},
{"point":[1892,1456]},
{"point":[1890,1458]},
{"point":[1889,1458]},
{"point":[1888,1459]},
{"point":[1886,1459]},
{"point":[1885,1458]},
{"point":[1885,1453]},
{"point":[1884,1452]},
{"point":[1878,1452]},
{"point":[1876,1454]},
{"point":[1876,1458]},
{"point":[1875,1459]},
{"point":[1875,1461]},
{"point":[1876,1462]},
{"point":[1876,1478]},
{"point":[1877,1479]},
{"point":[1876,1480]},
{"point":[1876,1491]},
{"point":[1875,1492]},
{"point":[1875,1494]},
{"point":[1877,1496]},
{"point":[1877,1515]},
{"point":[1876,1516]},
{"point":[1876,1518]},
{"point":[1875,1519]},
{"point":[1875,1521]},
{"point":[1876,1521]},
{"point":[1877,1522]},
{"point":[1877,1581]},
{"point":[1876,1582]},
{"point":[1876,1585]},
{"point":[1877,1586]},
{"point":[1877,1604]},
{"point":[1876,1605]},
{"point":[1876,1607]},
{"point":[1877,1608]},
{"point":[1877,1646]},
{"point":[1878,1647]},
{"point":[1878,1648]},
{"point":[1877,1649]},
{"point":[1877,1652]},
{"point":[1878,1653]},
{"point":[1878,1656]},
{"point":[1877,1657]},
{"point":[1877,1661]},
{"point":[1878,1662]},
{"point":[1877,1663]},
{"point":[1877,1665]},
{"point":[1878,1666]},
{"point":[1878,1674]},
{"point":[1879,1675]},
{"point":[1882,1675]},
{"point":[1883,1676]},
{"point":[1885,1676]},
{"point":[1886,1675]},
{"point":[1886,1673]},
{"point":[1887,1672]},
{"point":[1887,1671]},
{"point":[1888,1670]},
{"point":[1889,1670]},
{"point":[1889,1669]},
{"point":[1890,1668]},
{"point":[1894,1672]},
{"point":[1894,1673]},
{"point":[1895,1674]},
{"point":[1895,1675]},
{"point":[1894,1676]},
{"point":[1894,1678]},
{"point":[1895,1679]},
{"point":[1894,1680]},
{"point":[1894,1684]},
{"point":[1895,1685]},
{"point":[1895,1689]},
{"point":[1894,1690]},
{"point":[1892,1690]},
{"point":[1892,1694]},
{"point":[1891,1695]},
{"point":[1888,1695]},
{"point":[1887,1694]},
{"point":[1886,1694]},
{"point":[1884,1692]},
{"point":[1882,1692]},
{"point":[1882,1695]},
{"point":[1883,1695]},
{"point":[1885,1697]},
{"point":[1891,1697]},
{"point":[1892,1698]},
{"point":[1894,1698]},
{"point":[1896,1696]},
{"point":[1896,1695]},
{"point":[1897,1694]},
{"point":[1897,1688]},
{"point":[1898,1687]},
{"point":[1898,1685]},
{"point":[1897,1684]},
{"point":[1898,1683]},
{"point":[1898,1674]},
{"point":[1897,1673]},
{"point":[1897,1672]},
{"point":[1896,1671]},
{"point":[1897,1670]},
{"point":[1897,1666]},
{"point":[1894,1663]},
{"point":[1894,1661]},
{"point":[1895,1660]},
{"point":[1895,1656]},
{"point":[1896,1655]},
{"point":[1896,1650]},
{"point":[1895,1649]},
{"point":[1896,1648]},
{"point":[1896,1645]},
{"point":[1895,1644]},
{"point":[1895,1641]},
{"point":[1896,1640]},
{"point":[1896,1638]},
{"point":[1895,1637]},
{"point":[1895,1565]},
{"point":[1894,1564]},
{"point":[1895,1563]},
{"point":[1895,1561]},
{"point":[1894,1560]},
{"point":[1895,1559]},
{"point":[1895,1548]},
{"point":[1894,1547]},
{"point":[1894,1519]},
{"point":[1895,1518]},
{"point":[1895,1515]},
{"point":[1894,1514]},
{"point":[1894,1512]},
{"point":[1893,1511]},
{"point":[1893,1510]},
{"point":[1894,1509]},
{"point":[1894,1504]},
{"point":[1893,1503]},
{"point":[1894,1502]},
{"point":[1894,1498]},
{"point":[1893,1497]},
{"point":[1893,1495]},
{"point":[1894,1494]},
{"point":[1894,1482]},
{"point":[1893,1481]},
{"point":[1893,1468]},
{"point":[1892,1467]},
{"point":[1892,1463]},
{"point":[1893,1462]},
{"point":[1893,1459]},
{"point":[1895,1457]},
{"point":[1895,1456]},
{"point":[1896,1455]},
{"point":[1896,1440]},
{"point":[1895,1439]},
{"point":[1895,1437]},
{"point":[1896,1436]},
{"point":[1896,1423]},
{"point":[1895,1422]},
{"point":[1895,1421]},
{"point":[1896,1420]},
{"point":[1896,1407]},
{"point":[1898,1405]},
{"point":[1898,1396]},
{"point":[1893,1391]},
{"point":[1893,1388]},
{"point":[1897,1384]},
{"point":[1898,1384]},
{"point":[1899,1383]},
{"point":[1900,1383]},
{"point":[1901,1384]},
{"point":[1903,1384]},
{"point":[1904,1385]},
{"point":[1904,1387]},
{"point":[1905,1388]},
{"point":[1905,1390]},
{"point":[1903,1392]},
{"point":[1903,1393]},
{"point":[1901,1395]},
{"point":[1901,1396]},
{"point":[1900,1397]},
{"point":[1900,1402]},
{"point":[1902,1404]},
{"point":[1902,1407]},
{"point":[1903,1408]},
{"point":[1903,1409]},
{"point":[1904,1410]},
{"point":[1904,1443]},
{"point":[1905,1444]},
{"point":[1905,1449]},
{"point":[1904,1450]},
{"point":[1904,1453]},
{"point":[1905,1454]},
{"point":[1905,1457]},
{"point":[1906,1458]},
{"point":[1905,1459]},
{"point":[1905,1461]},
{"point":[1906,1462]},
{"point":[1907,1462]},
{"point":[1909,1464]},
{"point":[1908,1465]},
{"point":[1907,1465]},
{"point":[1906,1466]},
{"point":[1906,1469]},
{"point":[1905,1470]},
{"point":[1905,1473]},
{"point":[1906,1474]},
{"point":[1905,1475]},
{"point":[1905,1485]},
{"point":[1906,1486]},
{"point":[1906,1529]},
{"point":[1907,1530]},
{"point":[1907,1531]},
{"point":[1906,1532]},
{"point":[1906,1534]},
{"point":[1907,1535]},
{"point":[1907,1538]},
{"point":[1906,1539]},
{"point":[1906,1542]},
{"point":[1907,1543]},
{"point":[1907,1557]},
{"point":[1908,1558]},
{"point":[1908,1590]},
{"point":[1909,1591]},
{"point":[1909,1597]},
{"point":[1908,1598]},
{"point":[1908,1601]},
{"point":[1909,1602]},
{"point":[1908,1603]},
{"point":[1908,1605]},
{"point":[1909,1606]},
{"point":[1909,1622]},
{"point":[1910,1623]},
{"point":[1910,1626]},
{"point":[1909,1627]},
{"point":[1909,1631]},
{"point":[1910,1632]},
{"point":[1910,1638]},
{"point":[1909,1639]},
{"point":[1909,1641]},
{"point":[1910,1642]},
{"point":[1910,1643]},
{"point":[1909,1644]},
{"point":[1909,1647]},
{"point":[1910,1648]},
{"point":[1910,1659]},
{"point":[1912,1661]},
{"point":[1913,1661]},
{"point":[1914,1662]},
{"point":[1914,1663]},
{"point":[1912,1665]},
{"point":[1912,1667]},
{"point":[1911,1668]},
{"point":[1911,1669]},
{"point":[1910,1670]},
{"point":[1910,1680]},
{"point":[1913,1683]},
{"point":[1920,1683]},
{"point":[1921,1682]},
{"point":[1922,1683]},
{"point":[1925,1683]},
{"point":[1927,1685]},
{"point":[1927,1690]},
{"point":[1928,1690]},
{"point":[1929,1691]},
{"point":[1940,1691]},
{"point":[1941,1690]},
{"point":[1944,1693]},
{"point":[1944,1694]},
{"point":[1945,1695]},
{"point":[1947,1695]},
{"point":[1950,1698]},
{"point":[1950,1699]},
{"point":[1951,1700]},
{"point":[1951,1702]},
{"point":[1953,1702]},
{"point":[1953,1701]},
{"point":[1954,1700]},
{"point":[1955,1700]},
{"point":[1956,1701]},
{"point":[1958,1701]},
{"point":[1960,1699]},
{"point":[1964,1699]},
{"point":[1964,1697]},
{"point":[1955,1697]},
{"point":[1954,1698]},
{"point":[1952,1696]},
{"point":[1952,1695]},
{"point":[1950,1693]},
{"point":[1950,1692]},
{"point":[1947,1692]},
{"point":[1945,1690]},
{"point":[1945,1689]},
{"point":[1943,1687]},
{"point":[1941,1687]},
{"point":[1940,1688]},
{"point":[1938,1688]},
{"point":[1937,1689]},
{"point":[1933,1689]},
{"point":[1932,1688]},
{"point":[1932,1686]},
{"point":[1929,1683]},
{"point":[1929,1682]},
{"point":[1928,1681]},
{"point":[1924,1681]},
{"point":[1923,1680]},
{"point":[1919,1680]},
{"point":[1918,1679]},
{"point":[1917,1679]},
{"point":[1914,1676]},
{"point":[1914,1675]},
{"point":[1913,1674]},
{"point":[1913,1673]},
{"point":[1912,1672]},
{"point":[1914,1670]},
{"point":[1916,1670]},
{"point":[1917,1669]},
{"point":[1918,1669]},
{"point":[1919,1670]},
{"point":[1919,1674]},
{"point":[1920,1674]},
{"point":[1921,1675]},
{"point":[1925,1675]},
{"point":[1926,1676]},
{"point":[1926,1677]},
{"point":[1928,1677]},
{"point":[1929,1676]},
{"point":[1930,1676]},
{"point":[1930,1674]},
{"point":[1931,1673]},
{"point":[1932,1673]},
{"point":[1932,1669]},
{"point":[1930,1667]},
{"point":[1930,1652]},
{"point":[1929,1651]},
{"point":[1929,1643]},
{"point":[1930,1642]},
{"point":[1930,1639]},
{"point":[1929,1638]},
{"point":[1929,1616]},
{"point":[1928,1615]},
{"point":[1928,1604]},
{"point":[1929,1603]},
{"point":[1929,1597]},
{"point":[1928,1596]},
{"point":[1928,1572]},
{"point":[1927,1571]},
{"point":[1927,1549]},
{"point":[1926,1548]},
{"point":[1927,1547]},
{"point":[1927,1539]},
{"point":[1926,1538]},
{"point":[1926,1537]},
{"point":[1927,1536]},
{"point":[1927,1531]},
{"point":[1926,1530]},
{"point":[1926,1494]},
{"point":[1925,1493]},
{"point":[1925,1468]},
{"point":[1926,1467]},
{"point":[1926,1465]},
{"point":[1925,1464]},
{"point":[1925,1460]},
{"point":[1924,1459]},
{"point":[1924,1456]},
{"point":[1925,1455]},
{"point":[1925,1453]},
{"point":[1923,1451]},
{"point":[1923,1450]},
{"point":[1920,1450]},
{"point":[1920,1452]},
{"point":[1919,1453]},
{"point":[1916,1453]},
{"point":[1916,1454]},
{"point":[1915,1455]},
{"point":[1915,1457]},
{"point":[1916,1458]},
{"point":[1915,1459]},
{"point":[1915,1460]},
{"point":[1914,1461]},
{"point":[1911,1461]},
{"point":[1910,1460]},
{"point":[1910,1458]},
{"point":[1907,1455]},
{"point":[1907,1442]},
{"point":[1906,1441]},
{"point":[1907,1440]},
{"point":[1907,1437]},
{"point":[1906,1436]},
{"point":[1906,1408]},
{"point":[1905,1407]},
{"point":[1905,1405]},
{"point":[1904,1404]},
{"point":[1904,1401]},
{"point":[1903,1401]},
{"point":[1902,1400]},
{"point":[1903,1399]},
{"point":[1903,1398]},
{"point":[1904,1397]},
{"point":[1907,1397]},
{"point":[1908,1396]},
{"point":[1908,1394]},
{"point":[1907,1393]},
{"point":[1907,1391]},
{"point":[1908,1390]},
{"point":[1908,1387]},
{"point":[1907,1386]},
{"point":[1907,1385]},
{"point":[1906,1384]},
{"point":[1906,1382]},
{"point":[1903,1382]},
{"point":[1902,1381]}
],
"xScale" : 2448,"yScale" : 3264}