{"matchingPoints" : [{"point":[1188,1069]},
{"point":[1180.49,1700.15]},
{"point":[455,1069]},
{"point":[1902,1069]},
{"point":[455,2204]},
{"point":[1902,2204]},
{"point":[1181.77,1713.69]},
{"point":[461,1171]},
{"point":[1903,1171]},
{"point":[461,2257]},
{"point":[1903,2257]},
{"point":[1179.73,1633.98]},
{"point":[449,1060]},
{"point":[1912,1060]},
{"point":[449,2209]},
{"point":[1912,2209]},
{"point":[1188.14,1810.92]}
],
"matchingPointsDescriptions" : [{"point":[0.485294,0.327512]},
{"point":[0.482227,0.520878]},
{"point":[0.185866,0.327512]},
{"point":[0.776961,0.327512]},
{"point":[0.185866,0.675245]},
{"point":[0.776961,0.675245]},
{"point":[0.482748,0.525028]},
{"point":[0.188317,0.358762]},
{"point":[0.777369,0.358762]},
{"point":[0.188317,0.691483]},
{"point":[0.777369,0.691483]},
{"point":[0.481916,0.500608]},
{"point":[0.183415,0.324755]},
{"point":[0.781046,0.324755]},
{"point":[0.183415,0.676777]},
{"point":[0.781046,0.676777]},
{"point":[0.485353,0.554817]}
],
"contour": [{"point":[1188,1069]},
{"point":[1186,1071]},
{"point":[1185,1071]},
{"point":[1180,1076]},
{"point":[1179,1076]},
{"point":[1178,1077]},
{"point":[1177,1077]},
{"point":[1175,1079]},
{"point":[1174,1079]},
{"point":[1172,1081]},
{"point":[1171,1081]},
{"point":[1170,1082]},
{"point":[1170,1086]},
{"point":[1171,1087]},
{"point":[1171,1089]},
{"point":[1170,1090]},
{"point":[1168,1090]},
{"point":[1167,1089]},
{"point":[1167,1088]},
{"point":[1166,1087]},
{"point":[1166,1083]},
{"point":[1165,1082]},
{"point":[1165,1079]},
{"point":[1164,1078]},
{"point":[1160,1078]},
{"point":[1160,1081]},
{"point":[1159,1082]},
{"point":[1159,1087]},
{"point":[1161,1089]},
{"point":[1161,1090]},
{"point":[1159,1092]},
{"point":[1157,1092]},
{"point":[1156,1091]},
{"point":[1156,1086]},
{"point":[1155,1085]},
{"point":[1155,1084]},
{"point":[1154,1084]},
{"point":[1153,1083]},
{"point":[1152,1083]},
{"point":[1150,1081]},
{"point":[1149,1081]},
{"point":[1148,1080]},
{"point":[1146,1080]},
{"point":[1145,1079]},
{"point":[1144,1079]},
{"point":[1143,1078]},
{"point":[1142,1078]},
{"point":[1141,1077]},
{"point":[1140,1077]},
{"point":[1137,1074]},
{"point":[1135,1074]},
{"point":[1134,1073]},
{"point":[1133,1073]},
{"point":[1132,1072]},
{"point":[1130,1072]},
{"point":[1130,1080]},
{"point":[1131,1081]},
{"point":[1131,1082]},
{"point":[1132,1083]},
{"point":[1132,1085]},
{"point":[1134,1087]},
{"point":[1134,1088]},
{"point":[1136,1090]},
{"point":[1136,1091]},
{"point":[1137,1092]},
{"point":[1137,1093]},
{"point":[1138,1093]},
{"point":[1139,1094]},
{"point":[1139,1095]},
{"point":[1143,1099]},
{"point":[1144,1099]},
{"point":[1145,1100]},
{"point":[1146,1100]},
{"point":[1149,1103]},
{"point":[1149,1106]},
{"point":[1151,1108]},
{"point":[1155,1108]},
{"point":[1157,1110]},
{"point":[1157,1112]},
{"point":[1152,1117]},
{"point":[1152,1118]},
{"point":[1150,1120]},
{"point":[1150,1121]},
{"point":[1149,1122]},
{"point":[1149,1124]},
{"point":[1148,1125]},
{"point":[1148,1136]},
{"point":[1149,1137]},
{"point":[1149,1139]},
{"point":[1150,1140]},
{"point":[1150,1143]},
{"point":[1151,1144]},
{"point":[1152,1144]},
{"point":[1156,1148]},
{"point":[1157,1148]},
{"point":[1159,1150]},
{"point":[1162,1150]},
{"point":[1164,1152]},
{"point":[1164,1155]},
{"point":[1165,1156]},
{"point":[1165,1158]},
{"point":[1166,1159]},
{"point":[1166,1167]},
{"point":[1167,1168]},
{"point":[1167,1179]},
{"point":[1164,1182]},
{"point":[1164,1183]},
{"point":[1158,1189]},
{"point":[1158,1190]},
{"point":[1151,1197]},
{"point":[1150,1197]},
{"point":[1148,1199]},
{"point":[1148,1200]},
{"point":[1147,1201]},
{"point":[1147,1203]},
{"point":[1146,1204]},
{"point":[1146,1209]},
{"point":[1145,1210]},
{"point":[1145,1218]},
{"point":[1146,1219]},
{"point":[1146,1220]},
{"point":[1148,1220]},
{"point":[1149,1221]},
{"point":[1151,1221]},
{"point":[1152,1222]},
{"point":[1155,1222]},
{"point":[1157,1224]},
{"point":[1158,1224]},
{"point":[1159,1225]},
{"point":[1160,1225]},
{"point":[1161,1226]},
{"point":[1162,1226]},
{"point":[1163,1227]},
{"point":[1163,1228]},
{"point":[1164,1228]},
{"point":[1165,1229]},
{"point":[1165,1230]},
{"point":[1167,1232]},
{"point":[1168,1232]},
{"point":[1170,1234]},
{"point":[1170,1235]},
{"point":[1171,1236]},
{"point":[1171,1237]},
{"point":[1173,1239]},
{"point":[1173,1240]},
{"point":[1174,1241]},
{"point":[1174,1242]},
{"point":[1175,1243]},
{"point":[1175,1245]},
{"point":[1176,1246]},
{"point":[1176,1249]},
{"point":[1177,1250]},
{"point":[1177,1252]},
{"point":[1178,1253]},
{"point":[1178,1256]},
{"point":[1177,1257]},
{"point":[1177,1261]},
{"point":[1176,1262]},
{"point":[1176,1265]},
{"point":[1175,1266]},
{"point":[1175,1267]},
{"point":[1173,1269]},
{"point":[1173,1271]},
{"point":[1169,1275]},
{"point":[1169,1276]},
{"point":[1166,1279]},
{"point":[1166,1280]},
{"point":[1165,1281]},
{"point":[1164,1281]},
{"point":[1162,1283]},
{"point":[1161,1283]},
{"point":[1160,1284]},
{"point":[1159,1284]},
{"point":[1158,1285]},
{"point":[1157,1285]},
{"point":[1155,1287]},
{"point":[1153,1285]},
{"point":[1153,1284]},
{"point":[1149,1284]},
{"point":[1148,1283]},
{"point":[1140,1283]},
{"point":[1139,1284]},
{"point":[1135,1284]},
{"point":[1134,1285]},
{"point":[1133,1285]},
{"point":[1131,1287]},
{"point":[1130,1287]},
{"point":[1128,1285]},
{"point":[1127,1285]},
{"point":[1126,1284]},
{"point":[1125,1284]},
{"point":[1123,1282]},
{"point":[1122,1282]},
{"point":[1116,1276]},
{"point":[1116,1275]},
{"point":[1114,1273]},
{"point":[1114,1272]},
{"point":[1112,1270]},
{"point":[1112,1268]},
{"point":[1111,1267]},
{"point":[1111,1265]},
{"point":[1110,1264]},
{"point":[1107,1264]},
{"point":[1106,1265]},
{"point":[1106,1267]},
{"point":[1107,1268]},
{"point":[1107,1269]},
{"point":[1106,1270]},
{"point":[1106,1271]},
{"point":[1105,1272]},
{"point":[1105,1274]},
{"point":[1104,1275]},
{"point":[1104,1299]},
{"point":[1105,1300]},
{"point":[1105,1303]},
{"point":[1106,1304]},
{"point":[1106,1306]},
{"point":[1107,1307]},
{"point":[1107,1310]},
{"point":[1106,1311]},
{"point":[1105,1310]},
{"point":[1103,1310]},
{"point":[1099,1306]},
{"point":[1098,1306]},
{"point":[1097,1305]},
{"point":[1097,1304]},
{"point":[1096,1303]},
{"point":[1096,1292]},
{"point":[1095,1291]},
{"point":[1095,1289]},
{"point":[1093,1287]},
{"point":[1093,1286]},
{"point":[1092,1285]},
{"point":[1092,1284]},
{"point":[1091,1283]},
{"point":[1091,1282]},
{"point":[1090,1281]},
{"point":[1089,1281]},
{"point":[1087,1279]},
{"point":[1085,1279]},
{"point":[1084,1278]},
{"point":[1081,1278]},
{"point":[1080,1277]},
{"point":[1079,1277]},
{"point":[1077,1275]},
{"point":[1075,1275]},
{"point":[1074,1274]},
{"point":[1072,1274]},
{"point":[1067,1269]},
{"point":[1067,1268]},
{"point":[1063,1264]},
{"point":[1063,1263]},
{"point":[1062,1262]},
{"point":[1062,1261]},
{"point":[1060,1259]},
{"point":[1060,1255]},
{"point":[1059,1254]},
{"point":[1059,1253]},
{"point":[1058,1252]},
{"point":[1058,1251]},
{"point":[1057,1250]},
{"point":[1057,1247]},
{"point":[1056,1246]},
{"point":[1056,1245]},
{"point":[1055,1244]},
{"point":[1055,1243]},
{"point":[1054,1242]},
{"point":[1054,1234]},
{"point":[1052,1234]},
{"point":[1051,1235]},
{"point":[1050,1235]},
{"point":[1049,1236]},
{"point":[1049,1237]},
{"point":[1048,1238]},
{"point":[1048,1239]},
{"point":[1042,1245]},
{"point":[1041,1245]},
{"point":[1037,1249]},
{"point":[1035,1249]},
{"point":[1033,1251]},
{"point":[1032,1251]},
{"point":[1031,1250]},
{"point":[1031,1249]},
{"point":[1030,1248]},
{"point":[1025,1248]},
{"point":[1024,1247]},
{"point":[1023,1247]},
{"point":[1022,1246]},
{"point":[1021,1246]},
{"point":[1020,1245]},
{"point":[1018,1245]},
{"point":[1018,1247]},
{"point":[1019,1248]},
{"point":[1019,1253]},
{"point":[1020,1254]},
{"point":[1020,1256]},
{"point":[1021,1257]},
{"point":[1021,1260]},
{"point":[1022,1261]},
{"point":[1022,1264]},
{"point":[1023,1265]},
{"point":[1023,1268]},
{"point":[1024,1269]},
{"point":[1024,1272]},
{"point":[1025,1273]},
{"point":[1025,1276]},
{"point":[1026,1277]},
{"point":[1026,1280]},
{"point":[1027,1281]},
{"point":[1027,1283]},
{"point":[1028,1284]},
{"point":[1028,1287]},
{"point":[1029,1288]},
{"point":[1029,1291]},
{"point":[1030,1292]},
{"point":[1030,1305]},
{"point":[1031,1306]},
{"point":[1031,1322]},
{"point":[1032,1323]},
{"point":[1032,1336]},
{"point":[1033,1337]},
{"point":[1033,1346]},
{"point":[1034,1347]},
{"point":[1034,1355]},
{"point":[1033,1356]},
{"point":[1011,1356]},
{"point":[1010,1357]},
{"point":[1003,1357]},
{"point":[1001,1359]},
{"point":[995,1359]},
{"point":[994,1358]},
{"point":[987,1358]},
{"point":[986,1359]},
{"point":[986,1362]},
{"point":[987,1363]},
{"point":[987,1366]},
{"point":[988,1367]},
{"point":[988,1372]},
{"point":[985,1375]},
{"point":[966,1375]},
{"point":[966,1381]},
{"point":[967,1382]},
{"point":[967,1384]},
{"point":[968,1385]},
{"point":[968,1391]},
{"point":[967,1392]},
{"point":[962,1392]},
{"point":[961,1393]},
{"point":[918,1393]},
{"point":[917,1394]},
{"point":[884,1394]},
{"point":[883,1395]},
{"point":[824,1395]},
{"point":[823,1396]},
{"point":[788,1396]},
{"point":[787,1397]},
{"point":[753,1397]},
{"point":[752,1396]},
{"point":[746,1396]},
{"point":[745,1397]},
{"point":[728,1397]},
{"point":[727,1398]},
{"point":[695,1398]},
{"point":[694,1399]},
{"point":[674,1399]},
{"point":[673,1400]},
{"point":[667,1400]},
{"point":[666,1399]},
{"point":[658,1399]},
{"point":[657,1400]},
{"point":[599,1400]},
{"point":[598,1401]},
{"point":[596,1401]},
{"point":[595,1400]},
{"point":[590,1400]},
{"point":[589,1401]},
{"point":[570,1401]},
{"point":[569,1402]},
{"point":[560,1402]},
{"point":[559,1401]},
{"point":[555,1401]},
{"point":[554,1402]},
{"point":[536,1402]},
{"point":[535,1403]},
{"point":[534,1403]},
{"point":[533,1402]},
{"point":[529,1402]},
{"point":[528,1403]},
{"point":[519,1403]},
{"point":[518,1402]},
{"point":[516,1402]},
{"point":[515,1403]},
{"point":[515,1410]},
{"point":[516,1411]},
{"point":[515,1412]},
{"point":[515,1414]},
{"point":[516,1415]},
{"point":[516,1416]},
{"point":[517,1417]},
{"point":[517,1418]},
{"point":[522,1423]},
{"point":[522,1424]},
{"point":[524,1426]},
{"point":[524,1428]},
{"point":[531,1435]},
{"point":[531,1436]},
{"point":[535,1436]},
{"point":[538,1439]},
{"point":[538,1441]},
{"point":[539,1442]},
{"point":[539,1454]},
{"point":[538,1455]},
{"point":[538,1457]},
{"point":[539,1458]},
{"point":[539,1484]},
{"point":[538,1485]},
{"point":[538,1490]},
{"point":[536,1492]},
{"point":[522,1492]},
{"point":[521,1491]},
{"point":[519,1491]},
{"point":[518,1492]},
{"point":[518,1506]},
{"point":[517,1507]},
{"point":[515,1507]},
{"point":[514,1508]},
{"point":[498,1508]},
{"point":[497,1509]},
{"point":[490,1509]},
{"point":[489,1508]},
{"point":[484,1508]},
{"point":[482,1510]},
{"point":[475,1510]},
{"point":[475,1511]},
{"point":[472,1514]},
{"point":[465,1514]},
{"point":[463,1512]},
{"point":[459,1512]},
{"point":[457,1514]},
{"point":[456,1514]},
{"point":[455,1515]},
{"point":[455,1520]},
{"point":[456,1520]},
{"point":[459,1523]},
{"point":[459,1526]},
{"point":[461,1528]},
{"point":[461,1529]},
{"point":[462,1529]},
{"point":[463,1530]},
{"point":[465,1530]},
{"point":[466,1531]},
{"point":[466,1532]},
{"point":[467,1533]},
{"point":[468,1533]},
{"point":[471,1536]},
{"point":[471,1538]},
{"point":[472,1538]},
{"point":[474,1540]},
{"point":[475,1540]},
{"point":[477,1542]},
{"point":[477,1551]},
{"point":[482,1556]},
{"point":[483,1556]},
{"point":[485,1558]},
{"point":[485,1559]},
{"point":[486,1560]},
{"point":[487,1560]},
{"point":[488,1561]},
{"point":[489,1561]},
{"point":[494,1566]},
{"point":[494,1569]},
{"point":[495,1569]},
{"point":[498,1572]},
{"point":[499,1572]},
{"point":[500,1573]},
{"point":[501,1573]},
{"point":[502,1574]},
{"point":[506,1574]},
{"point":[507,1575]},
{"point":[508,1575]},
{"point":[509,1576]},
{"point":[509,1581]},
{"point":[511,1583]},
{"point":[511,1591]},
{"point":[512,1591]},
{"point":[513,1592]},
{"point":[513,1594]},
{"point":[512,1595]},
{"point":[512,1596]},
{"point":[510,1598]},
{"point":[510,1601]},
{"point":[511,1602]},
{"point":[511,1603]},
{"point":[510,1604]},
{"point":[510,1607]},
{"point":[509,1608]},
{"point":[509,1610]},
{"point":[508,1611]},
{"point":[508,1623]},
{"point":[506,1625]},
{"point":[506,1635]},
{"point":[505,1636]},
{"point":[505,1637]},
{"point":[504,1638]},
{"point":[503,1638]},
{"point":[503,1641]},
{"point":[504,1642]},
{"point":[504,1643]},
{"point":[502,1645]},
{"point":[502,1659]},
{"point":[503,1660]},
{"point":[505,1660]},
{"point":[509,1664]},
{"point":[510,1664]},
{"point":[512,1666]},
{"point":[512,1667]},
{"point":[513,1668]},
{"point":[513,1669]},
{"point":[514,1670]},
{"point":[514,1672]},
{"point":[516,1674]},
{"point":[517,1674]},
{"point":[520,1677]},
{"point":[520,1678]},
{"point":[522,1680]},
{"point":[522,1687]},
{"point":[521,1688]},
{"point":[521,1712]},
{"point":[520,1713]},
{"point":[520,1742]},
{"point":[519,1743]},
{"point":[519,1772]},
{"point":[518,1773]},
{"point":[518,1803]},
{"point":[517,1804]},
{"point":[517,1835]},
{"point":[516,1836]},
{"point":[516,1869]},
{"point":[515,1870]},
{"point":[515,1902]},
{"point":[514,1903]},
{"point":[514,1934]},
{"point":[513,1935]},
{"point":[513,1967]},
{"point":[512,1968]},
{"point":[512,2000]},
{"point":[511,2001]},
{"point":[511,2032]},
{"point":[510,2033]},
{"point":[510,2066]},
{"point":[509,2067]},
{"point":[509,2098]},
{"point":[508,2099]},
{"point":[508,2131]},
{"point":[507,2132]},
{"point":[507,2163]},
{"point":[506,2164]},
{"point":[506,2199]},
{"point":[513,2199]},
{"point":[514,2200]},
{"point":[529,2200]},
{"point":[530,2201]},
{"point":[545,2201]},
{"point":[546,2202]},
{"point":[574,2202]},
{"point":[575,2201]},
{"point":[581,2201]},
{"point":[582,2200]},
{"point":[588,2200]},
{"point":[589,2199]},
{"point":[596,2199]},
{"point":[597,2198]},
{"point":[602,2198]},
{"point":[603,2197]},
{"point":[609,2197]},
{"point":[610,2196]},
{"point":[616,2196]},
{"point":[617,2195]},
{"point":[623,2195]},
{"point":[624,2194]},
{"point":[631,2194]},
{"point":[632,2193]},
{"point":[637,2193]},
{"point":[638,2192]},
{"point":[644,2192]},
{"point":[645,2191]},
{"point":[651,2191]},
{"point":[652,2190]},
{"point":[656,2190]},
{"point":[657,2189]},
{"point":[657,2157]},
{"point":[658,2156]},
{"point":[658,2115]},
{"point":[659,2114]},
{"point":[659,2072]},
{"point":[660,2071]},
{"point":[660,2029]},
{"point":[661,2028]},
{"point":[661,1985]},
{"point":[662,1984]},
{"point":[662,1942]},
{"point":[663,1941]},
{"point":[663,1899]},
{"point":[664,1898]},
{"point":[664,1858]},
{"point":[665,1857]},
{"point":[665,1817]},
{"point":[666,1816]},
{"point":[666,1771]},
{"point":[667,1770]},
{"point":[667,1728]},
{"point":[668,1727]},
{"point":[668,1718]},
{"point":[669,1717]},
{"point":[672,1717]},
{"point":[673,1716]},
{"point":[687,1716]},
{"point":[688,1715]},
{"point":[706,1715]},
{"point":[707,1714]},
{"point":[727,1714]},
{"point":[728,1713]},
{"point":[750,1713]},
{"point":[751,1712]},
{"point":[755,1712]},
{"point":[757,1714]},
{"point":[757,1715]},
{"point":[756,1716]},
{"point":[756,1780]},
{"point":[755,1781]},
{"point":[755,1831]},
{"point":[754,1832]},
{"point":[754,1896]},
{"point":[753,1897]},
{"point":[753,1962]},
{"point":[752,1963]},
{"point":[752,2029]},
{"point":[751,2030]},
{"point":[751,2096]},
{"point":[750,2097]},
{"point":[750,2165]},
{"point":[749,2166]},
{"point":[749,2199]},
{"point":[750,2199]},
{"point":[751,2200]},
{"point":[760,2200]},
{"point":[761,2201]},
{"point":[771,2201]},
{"point":[772,2202]},
{"point":[783,2202]},
{"point":[784,2203]},
{"point":[789,2203]},
{"point":[790,2202]},
{"point":[802,2202]},
{"point":[803,2203]},
{"point":[806,2203]},
{"point":[807,2202]},
{"point":[810,2202]},
{"point":[811,2203]},
{"point":[815,2203]},
{"point":[816,2202]},
{"point":[829,2202]},
{"point":[830,2203]},
{"point":[840,2203]},
{"point":[841,2202]},
{"point":[847,2202]},
{"point":[848,2203]},
{"point":[851,2203]},
{"point":[852,2202]},
{"point":[854,2202]},
{"point":[856,2200]},
{"point":[857,2200]},
{"point":[859,2198]},
{"point":[860,2198]},
{"point":[861,2197]},
{"point":[862,2197]},
{"point":[864,2195]},
{"point":[865,2195]},
{"point":[867,2193]},
{"point":[868,2193]},
{"point":[870,2191]},
{"point":[871,2191]},
{"point":[873,2189]},
{"point":[874,2189]},
{"point":[876,2187]},
{"point":[877,2187]},
{"point":[877,2185]},
{"point":[878,2184]},
{"point":[878,2181]},
{"point":[877,2180]},
{"point":[877,1802]},
{"point":[876,1801]},
{"point":[876,1799]},
{"point":[877,1798]},
{"point":[877,1794]},
{"point":[876,1793]},
{"point":[877,1792]},
{"point":[877,1786]},
{"point":[876,1785]},
{"point":[876,1723]},
{"point":[877,1722]},
{"point":[877,1710]},
{"point":[878,1709]},
{"point":[896,1709]},
{"point":[897,1708]},
{"point":[977,1708]},
{"point":[978,1707]},
{"point":[979,1707]},
{"point":[980,1708]},
{"point":[987,1708]},
{"point":[988,1707]},
{"point":[989,1707]},
{"point":[991,1709]},
{"point":[991,1956]},
{"point":[990,1957]},
{"point":[990,2144]},
{"point":[991,2145]},
{"point":[991,2156]},
{"point":[990,2157]},
{"point":[990,2161]},
{"point":[991,2162]},
{"point":[990,2163]},
{"point":[990,2165]},
{"point":[991,2166]},
{"point":[991,2173]},
{"point":[990,2174]},
{"point":[990,2176]},
{"point":[991,2177]},
{"point":[990,2178]},
{"point":[990,2181]},
{"point":[991,2182]},
{"point":[991,2186]},
{"point":[993,2188]},
{"point":[993,2189]},
{"point":[995,2191]},
{"point":[995,2192]},
{"point":[997,2194]},
{"point":[997,2195]},
{"point":[999,2197]},
{"point":[999,2198]},
{"point":[1000,2199]},
{"point":[1009,2199]},
{"point":[1010,2198]},
{"point":[1016,2198]},
{"point":[1017,2197]},
{"point":[1023,2197]},
{"point":[1024,2196]},
{"point":[1030,2196]},
{"point":[1031,2195]},
{"point":[1037,2195]},
{"point":[1038,2194]},
{"point":[1043,2194]},
{"point":[1044,2193]},
{"point":[1050,2193]},
{"point":[1051,2192]},
{"point":[1057,2192]},
{"point":[1058,2191]},
{"point":[1064,2191]},
{"point":[1065,2190]},
{"point":[1071,2190]},
{"point":[1072,2189]},
{"point":[1078,2189]},
{"point":[1079,2188]},
{"point":[1085,2188]},
{"point":[1086,2187]},
{"point":[1090,2187]},
{"point":[1091,2186]},
{"point":[1092,2186]},
{"point":[1092,2126]},
{"point":[1091,2125]},
{"point":[1091,2122]},
{"point":[1092,2121]},
{"point":[1092,2109]},
{"point":[1091,2108]},
{"point":[1091,1997]},
{"point":[1090,1996]},
{"point":[1090,1887]},
{"point":[1089,1886]},
{"point":[1089,1717]},
{"point":[1088,1716]},
{"point":[1088,1714]},
{"point":[1089,1713]},
{"point":[1089,1706]},
{"point":[1088,1705]},
{"point":[1088,1698]},
{"point":[1090,1696]},
{"point":[1206,1696]},
{"point":[1207,1695]},
{"point":[1214,1695]},
{"point":[1215,1696]},
{"point":[1218,1696]},
{"point":[1219,1695]},
{"point":[1220,1696]},
{"point":[1222,1696]},
{"point":[1223,1695]},
{"point":[1227,1695]},
{"point":[1228,1696]},
{"point":[1230,1696]},
{"point":[1231,1695]},
{"point":[1232,1696]},
{"point":[1241,1696]},
{"point":[1242,1695]},
{"point":[1246,1695]},
{"point":[1247,1696]},
{"point":[1250,1696]},
{"point":[1251,1695]},
{"point":[1292,1695]},
{"point":[1294,1697]},
{"point":[1294,1725]},
{"point":[1295,1726]},
{"point":[1295,1757]},
{"point":[1296,1758]},
{"point":[1296,1790]},
{"point":[1297,1791]},
{"point":[1297,1805]},
{"point":[1298,1806]},
{"point":[1298,1835]},
{"point":[1299,1836]},
{"point":[1299,1838]},
{"point":[1298,1839]},
{"point":[1298,1850]},
{"point":[1299,1851]},
{"point":[1299,1884]},
{"point":[1300,1885]},
{"point":[1300,1908]},
{"point":[1301,1909]},
{"point":[1301,1939]},
{"point":[1302,1940]},
{"point":[1302,1971]},
{"point":[1303,1972]},
{"point":[1303,2005]},
{"point":[1304,2006]},
{"point":[1304,2035]},
{"point":[1305,2036]},
{"point":[1305,2066]},
{"point":[1306,2067]},
{"point":[1306,2097]},
{"point":[1307,2098]},
{"point":[1307,2129]},
{"point":[1308,2130]},
{"point":[1308,2162]},
{"point":[1309,2163]},
{"point":[1309,2177]},
{"point":[1310,2178]},
{"point":[1310,2179]},
{"point":[1311,2180]},
{"point":[1311,2181]},
{"point":[1312,2182]},
{"point":[1312,2183]},
{"point":[1314,2185]},
{"point":[1314,2186]},
{"point":[1315,2187]},
{"point":[1315,2188]},
{"point":[1316,2189]},
{"point":[1316,2190]},
{"point":[1318,2192]},
{"point":[1318,2193]},
{"point":[1319,2194]},
{"point":[1319,2195]},
{"point":[1320,2196]},
{"point":[1320,2197]},
{"point":[1328,2197]},
{"point":[1329,2196]},
{"point":[1333,2196]},
{"point":[1334,2195]},
{"point":[1338,2195]},
{"point":[1339,2194]},
{"point":[1343,2194]},
{"point":[1344,2193]},
{"point":[1348,2193]},
{"point":[1349,2192]},
{"point":[1353,2192]},
{"point":[1354,2191]},
{"point":[1358,2191]},
{"point":[1359,2190]},
{"point":[1363,2190]},
{"point":[1364,2189]},
{"point":[1368,2189]},
{"point":[1369,2188]},
{"point":[1373,2188]},
{"point":[1374,2187]},
{"point":[1378,2187]},
{"point":[1379,2186]},
{"point":[1383,2186]},
{"point":[1384,2185]},
{"point":[1388,2185]},
{"point":[1389,2184]},
{"point":[1393,2184]},
{"point":[1394,2183]},
{"point":[1394,2171]},
{"point":[1393,2170]},
{"point":[1393,2135]},
{"point":[1392,2134]},
{"point":[1392,2103]},
{"point":[1391,2102]},
{"point":[1391,2072]},
{"point":[1390,2071]},
{"point":[1390,2050]},
{"point":[1389,2049]},
{"point":[1389,2017]},
{"point":[1388,2016]},
{"point":[1388,1988]},
{"point":[1387,1987]},
{"point":[1387,1959]},
{"point":[1386,1958]},
{"point":[1386,1920]},
{"point":[1385,1919]},
{"point":[1385,1894]},
{"point":[1384,1893]},
{"point":[1384,1861]},
{"point":[1383,1860]},
{"point":[1383,1831]},
{"point":[1381,1831]},
{"point":[1380,1830]},
{"point":[1380,1828]},
{"point":[1381,1827]},
{"point":[1382,1827]},
{"point":[1382,1812]},
{"point":[1381,1812]},
{"point":[1380,1811]},
{"point":[1380,1810]},
{"point":[1381,1809]},
{"point":[1382,1809]},
{"point":[1382,1799]},
{"point":[1381,1798]},
{"point":[1381,1771]},
{"point":[1379,1771]},
{"point":[1378,1770]},
{"point":[1379,1769]},
{"point":[1380,1769]},
{"point":[1380,1738]},
{"point":[1379,1737]},
{"point":[1379,1700]},
{"point":[1378,1699]},
{"point":[1378,1698]},
{"point":[1380,1696]},
{"point":[1406,1696]},
{"point":[1407,1695]},
{"point":[1448,1695]},
{"point":[1449,1694]},
{"point":[1486,1694]},
{"point":[1489,1697]},
{"point":[1490,1697]},
{"point":[1492,1699]},
{"point":[1493,1699]},
{"point":[1495,1701]},
{"point":[1496,1701]},
{"point":[1499,1704]},
{"point":[1500,1704]},
{"point":[1501,1705]},
{"point":[1502,1705]},
{"point":[1506,1709]},
{"point":[1506,1755]},
{"point":[1507,1756]},
{"point":[1507,1798]},
{"point":[1508,1799]},
{"point":[1508,1837]},
{"point":[1509,1838]},
{"point":[1509,1877]},
{"point":[1510,1878]},
{"point":[1510,1913]},
{"point":[1511,1914]},
{"point":[1511,1952]},
{"point":[1512,1953]},
{"point":[1512,1981]},
{"point":[1513,1982]},
{"point":[1513,2021]},
{"point":[1514,2022]},
{"point":[1514,2059]},
{"point":[1515,2060]},
{"point":[1515,2096]},
{"point":[1516,2097]},
{"point":[1516,2133]},
{"point":[1517,2134]},
{"point":[1517,2168]},
{"point":[1518,2169]},
{"point":[1518,2170]},
{"point":[1519,2171]},
{"point":[1520,2171]},
{"point":[1521,2172]},
{"point":[1522,2172]},
{"point":[1523,2173]},
{"point":[1524,2173]},
{"point":[1525,2174]},
{"point":[1526,2174]},
{"point":[1527,2175]},
{"point":[1528,2175]},
{"point":[1529,2176]},
{"point":[1530,2176]},
{"point":[1531,2177]},
{"point":[1532,2177]},
{"point":[1533,2178]},
{"point":[1534,2178]},
{"point":[1535,2179]},
{"point":[1537,2179]},
{"point":[1539,2181]},
{"point":[1540,2181]},
{"point":[1541,2182]},
{"point":[1542,2182]},
{"point":[1543,2183]},
{"point":[1544,2183]},
{"point":[1545,2184]},
{"point":[1546,2184]},
{"point":[1547,2185]},
{"point":[1548,2185]},
{"point":[1549,2186]},
{"point":[1550,2186]},
{"point":[1551,2187]},
{"point":[1557,2187]},
{"point":[1558,2186]},
{"point":[1563,2186]},
{"point":[1564,2185]},
{"point":[1568,2185]},
{"point":[1569,2184]},
{"point":[1574,2184]},
{"point":[1575,2183]},
{"point":[1580,2183]},
{"point":[1581,2182]},
{"point":[1586,2182]},
{"point":[1587,2181]},
{"point":[1591,2181]},
{"point":[1592,2180]},
{"point":[1597,2180]},
{"point":[1598,2179]},
{"point":[1603,2179]},
{"point":[1604,2178]},
{"point":[1608,2178]},
{"point":[1609,2177]},
{"point":[1614,2177]},
{"point":[1615,2176]},
{"point":[1620,2176]},
{"point":[1621,2175]},
{"point":[1626,2175]},
{"point":[1627,2174]},
{"point":[1631,2174]},
{"point":[1632,2173]},
{"point":[1637,2173]},
{"point":[1637,2155]},
{"point":[1636,2154]},
{"point":[1636,2139]},
{"point":[1635,2138]},
{"point":[1635,2124]},
{"point":[1634,2123]},
{"point":[1634,2107]},
{"point":[1633,2106]},
{"point":[1633,2091]},
{"point":[1632,2090]},
{"point":[1632,2076]},
{"point":[1631,2075]},
{"point":[1631,2060]},
{"point":[1630,2059]},
{"point":[1630,2044]},
{"point":[1629,2043]},
{"point":[1629,2028]},
{"point":[1628,2027]},
{"point":[1628,2012]},
{"point":[1627,2011]},
{"point":[1627,1997]},
{"point":[1626,1996]},
{"point":[1626,1980]},
{"point":[1625,1979]},
{"point":[1625,1965]},
{"point":[1624,1964]},
{"point":[1624,1949]},
{"point":[1623,1948]},
{"point":[1623,1933]},
{"point":[1622,1932]},
{"point":[1622,1918]},
{"point":[1621,1917]},
{"point":[1621,1902]},
{"point":[1620,1901]},
{"point":[1620,1888]},
{"point":[1619,1887]},
{"point":[1619,1872]},
{"point":[1618,1871]},
{"point":[1618,1856]},
{"point":[1617,1855]},
{"point":[1617,1841]},
{"point":[1616,1840]},
{"point":[1616,1824]},
{"point":[1615,1823]},
{"point":[1615,1810]},
{"point":[1614,1809]},
{"point":[1614,1794]},
{"point":[1613,1793]},
{"point":[1613,1778]},
{"point":[1612,1777]},
{"point":[1612,1761]},
{"point":[1611,1760]},
{"point":[1611,1747]},
{"point":[1610,1746]},
{"point":[1610,1729]},
{"point":[1609,1728]},
{"point":[1609,1717]},
{"point":[1608,1716]},
{"point":[1608,1701]},
{"point":[1607,1700]},
{"point":[1607,1691]},
{"point":[1609,1689]},
{"point":[1628,1689]},
{"point":[1629,1688]},
{"point":[1653,1688]},
{"point":[1654,1687]},
{"point":[1678,1687]},
{"point":[1679,1686]},
{"point":[1704,1686]},
{"point":[1705,1685]},
{"point":[1714,1685]},
{"point":[1715,1686]},
{"point":[1715,1694]},
{"point":[1716,1695]},
{"point":[1716,1701]},
{"point":[1717,1702]},
{"point":[1717,1704]},
{"point":[1718,1704]},
{"point":[1719,1705]},
{"point":[1718,1706]},
{"point":[1717,1706]},
{"point":[1717,1725]},
{"point":[1719,1725]},
{"point":[1719,1724]},
{"point":[1720,1723]},
{"point":[1721,1724]},
{"point":[1721,1741]},
{"point":[1722,1742]},
{"point":[1721,1743]},
{"point":[1721,1745]},
{"point":[1722,1746]},
{"point":[1722,1761]},
{"point":[1721,1762]},
{"point":[1720,1762]},
{"point":[1720,1772]},
{"point":[1721,1772]},
{"point":[1722,1773]},
{"point":[1722,1774]},
{"point":[1723,1775]},
{"point":[1723,1776]},
{"point":[1721,1778]},
{"point":[1721,1786]},
{"point":[1722,1786]},
{"point":[1723,1787]},
{"point":[1722,1788]},
{"point":[1722,1806]},
{"point":[1723,1807]},
{"point":[1723,1823]},
{"point":[1724,1824]},
{"point":[1724,1843]},
{"point":[1725,1844]},
{"point":[1725,1873]},
{"point":[1726,1874]},
{"point":[1726,1891]},
{"point":[1727,1892]},
{"point":[1727,1909]},
{"point":[1728,1910]},
{"point":[1728,1927]},
{"point":[1729,1928]},
{"point":[1729,1945]},
{"point":[1730,1946]},
{"point":[1730,1948]},
{"point":[1731,1948]},
{"point":[1733,1950]},
{"point":[1733,1951]},
{"point":[1734,1952]},
{"point":[1731,1955]},
{"point":[1731,1957]},
{"point":[1730,1958]},
{"point":[1730,1963]},
{"point":[1731,1964]},
{"point":[1731,1981]},
{"point":[1732,1982]},
{"point":[1732,1999]},
{"point":[1733,2000]},
{"point":[1733,2017]},
{"point":[1734,2018]},
{"point":[1734,2034]},
{"point":[1735,2035]},
{"point":[1735,2053]},
{"point":[1736,2054]},
{"point":[1736,2071]},
{"point":[1737,2072]},
{"point":[1737,2088]},
{"point":[1738,2089]},
{"point":[1738,2106]},
{"point":[1739,2107]},
{"point":[1739,2124]},
{"point":[1740,2125]},
{"point":[1740,2142]},
{"point":[1741,2143]},
{"point":[1741,2159]},
{"point":[1742,2160]},
{"point":[1742,2161]},
{"point":[1744,2163]},
{"point":[1745,2163]},
{"point":[1748,2166]},
{"point":[1749,2166]},
{"point":[1751,2168]},
{"point":[1752,2168]},
{"point":[1755,2171]},
{"point":[1756,2171]},
{"point":[1758,2173]},
{"point":[1759,2173]},
{"point":[1762,2176]},
{"point":[1763,2176]},
{"point":[1766,2179]},
{"point":[1767,2179]},
{"point":[1769,2181]},
{"point":[1770,2181]},
{"point":[1771,2182]},
{"point":[1784,2182]},
{"point":[1785,2181]},
{"point":[1794,2181]},
{"point":[1795,2180]},
{"point":[1804,2180]},
{"point":[1805,2179]},
{"point":[1814,2179]},
{"point":[1815,2178]},
{"point":[1824,2178]},
{"point":[1825,2177]},
{"point":[1834,2177]},
{"point":[1835,2176]},
{"point":[1844,2176]},
{"point":[1845,2175]},
{"point":[1854,2175]},
{"point":[1855,2174]},
{"point":[1864,2174]},
{"point":[1865,2173]},
{"point":[1874,2173]},
{"point":[1875,2172]},
{"point":[1884,2172]},
{"point":[1885,2171]},
{"point":[1892,2171]},
{"point":[1892,2158]},
{"point":[1891,2157]},
{"point":[1891,2146]},
{"point":[1890,2145]},
{"point":[1890,2135]},
{"point":[1889,2134]},
{"point":[1889,2124]},
{"point":[1888,2123]},
{"point":[1888,2112]},
{"point":[1887,2111]},
{"point":[1887,2101]},
{"point":[1886,2100]},
{"point":[1886,2089]},
{"point":[1885,2088]},
{"point":[1885,2078]},
{"point":[1884,2077]},
{"point":[1884,2067]},
{"point":[1883,2066]},
{"point":[1883,2055]},
{"point":[1882,2054]},
{"point":[1882,2044]},
{"point":[1881,2043]},
{"point":[1881,2032]},
{"point":[1880,2031]},
{"point":[1880,2021]},
{"point":[1879,2020]},
{"point":[1879,2010]},
{"point":[1878,2009]},
{"point":[1878,1998]},
{"point":[1877,1997]},
{"point":[1877,1987]},
{"point":[1876,1986]},
{"point":[1876,1975]},
{"point":[1875,1974]},
{"point":[1875,1964]},
{"point":[1874,1963]},
{"point":[1874,1953]},
{"point":[1873,1952]},
{"point":[1873,1941]},
{"point":[1872,1940]},
{"point":[1872,1930]},
{"point":[1871,1929]},
{"point":[1871,1919]},
{"point":[1870,1918]},
{"point":[1870,1907]},
{"point":[1869,1906]},
{"point":[1869,1896]},
{"point":[1868,1895]},
{"point":[1868,1885]},
{"point":[1867,1884]},
{"point":[1867,1873]},
{"point":[1866,1872]},
{"point":[1866,1862]},
{"point":[1865,1861]},
{"point":[1865,1850]},
{"point":[1864,1849]},
{"point":[1864,1839]},
{"point":[1863,1838]},
{"point":[1863,1828]},
{"point":[1862,1827]},
{"point":[1862,1816]},
{"point":[1861,1815]},
{"point":[1861,1805]},
{"point":[1860,1804]},
{"point":[1860,1793]},
{"point":[1859,1792]},
{"point":[1859,1782]},
{"point":[1858,1781]},
{"point":[1858,1771]},
{"point":[1857,1770]},
{"point":[1857,1759]},
{"point":[1856,1758]},
{"point":[1856,1748]},
{"point":[1855,1747]},
{"point":[1855,1737]},
{"point":[1854,1736]},
{"point":[1854,1725]},
{"point":[1853,1724]},
{"point":[1853,1714]},
{"point":[1852,1713]},
{"point":[1852,1708]},
{"point":[1851,1707]},
{"point":[1851,1694]},
{"point":[1850,1693]},
{"point":[1850,1688]},
{"point":[1849,1687]},
{"point":[1849,1681]},
{"point":[1848,1680]},
{"point":[1848,1675]},
{"point":[1847,1674]},
{"point":[1847,1664]},
{"point":[1846,1663]},
{"point":[1847,1662]},
{"point":[1847,1651]},
{"point":[1846,1650]},
{"point":[1846,1642]},
{"point":[1847,1641]},
{"point":[1847,1640]},
{"point":[1848,1639]},
{"point":[1849,1639]},
{"point":[1849,1637]},
{"point":[1848,1636]},
{"point":[1849,1635]},
{"point":[1851,1635]},
{"point":[1852,1634]},
{"point":[1852,1633]},
{"point":[1854,1631]},
{"point":[1855,1631]},
{"point":[1855,1628]},
{"point":[1859,1624]},
{"point":[1860,1624]},
{"point":[1860,1623]},
{"point":[1861,1622]},
{"point":[1862,1622]},
{"point":[1863,1621]},
{"point":[1863,1611]},
{"point":[1862,1610]},
{"point":[1862,1607]},
{"point":[1861,1606]},
{"point":[1854,1606]},
{"point":[1852,1604]},
{"point":[1850,1604]},
{"point":[1849,1603]},
{"point":[1849,1596]},
{"point":[1850,1595]},
{"point":[1850,1591]},
{"point":[1849,1590]},
{"point":[1849,1589]},
{"point":[1848,1589]},
{"point":[1847,1588]},
{"point":[1847,1581]},
{"point":[1846,1580]},
{"point":[1847,1579]},
{"point":[1849,1579]},
{"point":[1851,1577]},
{"point":[1851,1576]},
{"point":[1852,1575]},
{"point":[1852,1573]},
{"point":[1851,1572]},
{"point":[1851,1569]},
{"point":[1848,1569]},
{"point":[1847,1568]},
{"point":[1847,1564]},
{"point":[1846,1563]},
{"point":[1846,1556]},
{"point":[1845,1555]},
{"point":[1845,1553]},
{"point":[1848,1550]},
{"point":[1848,1549]},
{"point":[1850,1547]},
{"point":[1850,1546]},
{"point":[1852,1544]},
{"point":[1852,1542]},
{"point":[1856,1538]},
{"point":[1857,1538]},
{"point":[1861,1534]},
{"point":[1862,1534]},
{"point":[1864,1532]},
{"point":[1864,1531]},
{"point":[1867,1528]},
{"point":[1867,1527]},
{"point":[1869,1525]},
{"point":[1869,1524]},
{"point":[1881,1512]},
{"point":[1881,1507]},
{"point":[1882,1506]},
{"point":[1882,1504]},
{"point":[1881,1503]},
{"point":[1881,1501]},
{"point":[1882,1500]},
{"point":[1882,1499]},
{"point":[1883,1498]},
{"point":[1883,1497]},
{"point":[1884,1496]},
{"point":[1885,1496]},
{"point":[1886,1495]},
{"point":[1886,1494]},
{"point":[1892,1488]},
{"point":[1893,1488]},
{"point":[1893,1487]},
{"point":[1895,1485]},
{"point":[1895,1484]},
{"point":[1897,1482]},
{"point":[1897,1481]},
{"point":[1901,1477]},
{"point":[1901,1473]},
{"point":[1900,1472]},
{"point":[1892,1472]},
{"point":[1890,1474]},
{"point":[1886,1474]},
{"point":[1885,1473]},
{"point":[1883,1473]},
{"point":[1880,1470]},
{"point":[1877,1470]},
{"point":[1876,1469]},
{"point":[1875,1469]},
{"point":[1874,1468]},
{"point":[1871,1468]},
{"point":[1870,1469]},
{"point":[1859,1469]},
{"point":[1858,1470]},
{"point":[1842,1470]},
{"point":[1841,1469]},
{"point":[1840,1469]},
{"point":[1838,1467]},
{"point":[1838,1454]},
{"point":[1834,1454]},
{"point":[1833,1455]},
{"point":[1827,1455]},
{"point":[1826,1454]},
{"point":[1823,1454]},
{"point":[1822,1453]},
{"point":[1822,1445]},
{"point":[1821,1444]},
{"point":[1821,1428]},
{"point":[1820,1427]},
{"point":[1820,1408]},
{"point":[1821,1407]},
{"point":[1821,1406]},
{"point":[1823,1404]},
{"point":[1823,1402]},
{"point":[1824,1401]},
{"point":[1824,1399]},
{"point":[1825,1398]},
{"point":[1827,1398]},
{"point":[1828,1397]},
{"point":[1828,1396]},
{"point":[1832,1392]},
{"point":[1832,1391]},
{"point":[1834,1389]},
{"point":[1834,1385]},
{"point":[1836,1383]},
{"point":[1836,1382]},
{"point":[1840,1378]},
{"point":[1840,1370]},
{"point":[1841,1369]},
{"point":[1841,1365]},
{"point":[1813,1365]},
{"point":[1812,1366]},
{"point":[1780,1366]},
{"point":[1779,1367]},
{"point":[1759,1367]},
{"point":[1758,1368]},
{"point":[1739,1368]},
{"point":[1738,1369]},
{"point":[1736,1369]},
{"point":[1735,1368]},
{"point":[1727,1368]},
{"point":[1726,1369]},
{"point":[1707,1369]},
{"point":[1706,1370]},
{"point":[1671,1370]},
{"point":[1670,1371]},
{"point":[1637,1371]},
{"point":[1636,1372]},
{"point":[1616,1372]},
{"point":[1615,1373]},
{"point":[1614,1373]},
{"point":[1613,1372]},
{"point":[1602,1372]},
{"point":[1601,1373]},
{"point":[1566,1373]},
{"point":[1564,1371]},
{"point":[1555,1371]},
{"point":[1554,1372]},
{"point":[1544,1372]},
{"point":[1542,1374]},
{"point":[1534,1374]},
{"point":[1533,1375]},
{"point":[1512,1375]},
{"point":[1511,1376]},
{"point":[1509,1376]},
{"point":[1508,1375]},
{"point":[1506,1375]},
{"point":[1505,1376]},
{"point":[1470,1376]},
{"point":[1468,1374]},
{"point":[1448,1374]},
{"point":[1445,1377]},
{"point":[1441,1377]},
{"point":[1440,1378]},
{"point":[1434,1378]},
{"point":[1433,1377]},
{"point":[1419,1377]},
{"point":[1418,1378]},
{"point":[1410,1378]},
{"point":[1409,1379]},
{"point":[1381,1379]},
{"point":[1379,1377]},
{"point":[1379,1375]},
{"point":[1380,1374]},
{"point":[1380,1363]},
{"point":[1376,1363]},
{"point":[1374,1361]},
{"point":[1374,1357]},
{"point":[1373,1356]},
{"point":[1373,1355]},
{"point":[1371,1353]},
{"point":[1369,1353]},
{"point":[1367,1351]},
{"point":[1366,1351]},
{"point":[1365,1350]},
{"point":[1364,1350]},
{"point":[1363,1349]},
{"point":[1362,1349]},
{"point":[1361,1348]},
{"point":[1359,1348]},
{"point":[1357,1346]},
{"point":[1355,1346]},
{"point":[1354,1345]},
{"point":[1353,1345]},
{"point":[1352,1344]},
{"point":[1344,1344]},
{"point":[1343,1343]},
{"point":[1335,1343]},
{"point":[1334,1342]},
{"point":[1327,1342]},
{"point":[1325,1340]},
{"point":[1325,1335]},
{"point":[1326,1334]},
{"point":[1326,1328]},
{"point":[1327,1327]},
{"point":[1327,1321]},
{"point":[1328,1320]},
{"point":[1328,1313]},
{"point":[1329,1312]},
{"point":[1329,1306]},
{"point":[1330,1305]},
{"point":[1330,1299]},
{"point":[1331,1298]},
{"point":[1331,1291]},
{"point":[1332,1290]},
{"point":[1332,1283]},
{"point":[1333,1282]},
{"point":[1333,1275]},
{"point":[1334,1274]},
{"point":[1334,1267]},
{"point":[1335,1266]},
{"point":[1335,1250]},
{"point":[1334,1249]},
{"point":[1334,1243]},
{"point":[1333,1242]},
{"point":[1333,1240]},
{"point":[1332,1239]},
{"point":[1332,1230]},
{"point":[1331,1229]},
{"point":[1331,1225]},
{"point":[1328,1222]},
{"point":[1328,1220]},
{"point":[1327,1219]},
{"point":[1327,1217]},
{"point":[1326,1216]},
{"point":[1326,1213]},
{"point":[1325,1212]},
{"point":[1325,1208]},
{"point":[1324,1207]},
{"point":[1319,1207]},
{"point":[1316,1210]},
{"point":[1315,1210]},
{"point":[1314,1211]},
{"point":[1313,1211]},
{"point":[1308,1216]},
{"point":[1308,1217]},
{"point":[1303,1222]},
{"point":[1300,1222]},
{"point":[1299,1223]},
{"point":[1299,1224]},
{"point":[1298,1225]},
{"point":[1298,1226]},
{"point":[1297,1227]},
{"point":[1297,1228]},
{"point":[1296,1229]},
{"point":[1296,1230]},
{"point":[1294,1232]},
{"point":[1294,1233]},
{"point":[1286,1241]},
{"point":[1284,1241]},
{"point":[1282,1243]},
{"point":[1280,1243]},
{"point":[1277,1240]},
{"point":[1274,1240]},
{"point":[1273,1239]},
{"point":[1270,1239]},
{"point":[1269,1240]},
{"point":[1268,1239]},
{"point":[1264,1239]},
{"point":[1263,1240]},
{"point":[1259,1240]},
{"point":[1257,1242]},
{"point":[1257,1243]},
{"point":[1256,1244]},
{"point":[1255,1244]},
{"point":[1253,1242]},
{"point":[1251,1242]},
{"point":[1250,1241]},
{"point":[1249,1241]},
{"point":[1240,1232]},
{"point":[1240,1231]},
{"point":[1234,1225]},
{"point":[1234,1218]},
{"point":[1233,1217]},
{"point":[1233,1212]},
{"point":[1232,1211]},
{"point":[1232,1206]},
{"point":[1233,1205]},
{"point":[1233,1203]},
{"point":[1229,1203]},
{"point":[1228,1204]},
{"point":[1217,1204]},
{"point":[1217,1205]},
{"point":[1216,1206]},
{"point":[1216,1208]},
{"point":[1217,1209]},
{"point":[1216,1210]},
{"point":[1215,1210]},
{"point":[1214,1209]},
{"point":[1214,1206]},
{"point":[1212,1204]},
{"point":[1212,1200]},
{"point":[1209,1197]},
{"point":[1209,1196]},
{"point":[1208,1196]},
{"point":[1207,1195]},
{"point":[1199,1195]},
{"point":[1197,1197]},
{"point":[1197,1205]},
{"point":[1194,1208]},
{"point":[1193,1207]},
{"point":[1192,1207]},
{"point":[1186,1201]},
{"point":[1186,1200]},
{"point":[1187,1199]},
{"point":[1187,1197]},
{"point":[1189,1195]},
{"point":[1189,1194]},
{"point":[1190,1193]},
{"point":[1190,1182]},
{"point":[1189,1181]},
{"point":[1188,1181]},
{"point":[1187,1180]},
{"point":[1186,1180]},
{"point":[1185,1179]},
{"point":[1180,1179]},
{"point":[1179,1180]},
{"point":[1175,1180]},
{"point":[1174,1181]},
{"point":[1172,1179]},
{"point":[1172,1176]},
{"point":[1171,1175]},
{"point":[1171,1162]},
{"point":[1170,1161]},
{"point":[1170,1158]},
{"point":[1171,1157]},
{"point":[1171,1152]},
{"point":[1174,1149]},
{"point":[1176,1149]},
{"point":[1180,1145]},
{"point":[1181,1145]},
{"point":[1181,1144]},
{"point":[1184,1141]},
{"point":[1184,1138]},
{"point":[1185,1137]},
{"point":[1185,1124]},
{"point":[1183,1122]},
{"point":[1183,1121]},
{"point":[1181,1119]},
{"point":[1181,1118]},
{"point":[1180,1117]},
{"point":[1180,1116]},
{"point":[1179,1115]},
{"point":[1178,1115]},
{"point":[1175,1112]},
{"point":[1175,1111]},
{"point":[1172,1108]},
{"point":[1175,1105]},
{"point":[1178,1105]},
{"point":[1179,1104]},
{"point":[1181,1104]},
{"point":[1181,1103]},
{"point":[1182,1102]},
{"point":[1182,1100]},
{"point":[1183,1099]},
{"point":[1183,1097]},
{"point":[1187,1093]},
{"point":[1187,1092]},
{"point":[1188,1091]},
{"point":[1188,1088]},
{"point":[1189,1087]},
{"point":[1189,1085]},
{"point":[1190,1084]},
{"point":[1190,1081]},
{"point":[1191,1080]},
{"point":[1191,1077]},
{"point":[1192,1076]},
{"point":[1192,1069]}
],
"xScale" : 2448,"yScale" : 3264}