{"matchingPoints" : [{"point":[1209,852]},
{"point":[1216.28,1612.97]},
{"point":[482,852]},
{"point":[1998,852]},
{"point":[482,2120]},
{"point":[1998,2120]},
{"point":[1212.9,1545.82]},
{"point":[387,913]},
{"point":[2039,913]},
{"point":[387,2179]},
{"point":[2039,2179]},
{"point":[1243.15,1477.4]},
{"point":[464,824]},
{"point":[2024,824]},
{"point":[464,2132]},
{"point":[2024,2132]},
{"point":[1234.75,1661.27]}
],
"matchingPointsDescriptions" : [{"point":[0.493873,0.261029]},
{"point":[0.496848,0.49417]},
{"point":[0.196895,0.261029]},
{"point":[0.816176,0.261029]},
{"point":[0.196895,0.64951]},
{"point":[0.816176,0.64951]},
{"point":[0.495467,0.473596]},
{"point":[0.158088,0.279718]},
{"point":[0.832925,0.279718]},
{"point":[0.158088,0.667586]},
{"point":[0.832925,0.667586]},
{"point":[0.507823,0.452635]},
{"point":[0.189542,0.252451]},
{"point":[0.826797,0.252451]},
{"point":[0.189542,0.653186]},
{"point":[0.826797,0.653186]},
{"point":[0.504393,0.508966]}
],
"contour": [{"point":[1209,852]},
{"point":[1209,856]},
{"point":[1210,857]},
{"point":[1210,861]},
{"point":[1211,862]},
{"point":[1211,865]},
{"point":[1212,866]},
{"point":[1212,867]},
{"point":[1211,868]},
{"point":[1211,872]},
{"point":[1212,873]},
{"point":[1212,876]},
{"point":[1213,876]},
{"point":[1214,877]},
{"point":[1215,877]},
{"point":[1216,878]},
{"point":[1216,881]},
{"point":[1223,888]},
{"point":[1223,890]},
{"point":[1224,890]},
{"point":[1225,891]},
{"point":[1225,896]},
{"point":[1226,896]},
{"point":[1228,898]},
{"point":[1233,898]},
{"point":[1235,900]},
{"point":[1233,902]},
{"point":[1233,904]},
{"point":[1231,906]},
{"point":[1230,906]},
{"point":[1225,911]},
{"point":[1225,912]},
{"point":[1224,913]},
{"point":[1224,914]},
{"point":[1223,915]},
{"point":[1223,922]},
{"point":[1222,923]},
{"point":[1222,930]},
{"point":[1223,931]},
{"point":[1223,935]},
{"point":[1225,937]},
{"point":[1225,938]},
{"point":[1227,940]},
{"point":[1227,941]},
{"point":[1228,941]},
{"point":[1230,943]},
{"point":[1230,944]},
{"point":[1231,945]},
{"point":[1233,945]},
{"point":[1235,947]},
{"point":[1235,953]},
{"point":[1236,954]},
{"point":[1236,959]},
{"point":[1235,960]},
{"point":[1235,971]},
{"point":[1234,972]},
{"point":[1234,979]},
{"point":[1232,981]},
{"point":[1230,981]},
{"point":[1229,982]},
{"point":[1227,982]},
{"point":[1226,983]},
{"point":[1223,983]},
{"point":[1219,987]},
{"point":[1218,987]},
{"point":[1216,989]},
{"point":[1216,991]},
{"point":[1215,992]},
{"point":[1215,994]},
{"point":[1211,998]},
{"point":[1211,999]},
{"point":[1208,1002]},
{"point":[1208,1004]},
{"point":[1207,1005]},
{"point":[1207,1014]},
{"point":[1206,1015]},
{"point":[1200,1015]},
{"point":[1199,1014]},
{"point":[1198,1014]},
{"point":[1196,1012]},
{"point":[1197,1011]},
{"point":[1197,1008]},
{"point":[1196,1007]},
{"point":[1196,1006]},
{"point":[1197,1005]},
{"point":[1197,1001]},
{"point":[1194,998]},
{"point":[1194,997]},
{"point":[1193,997]},
{"point":[1192,996]},
{"point":[1184,996]},
{"point":[1183,997]},
{"point":[1182,997]},
{"point":[1181,998]},
{"point":[1179,998]},
{"point":[1177,1000]},
{"point":[1175,1000]},
{"point":[1174,1001]},
{"point":[1173,1001]},
{"point":[1173,1006]},
{"point":[1174,1007]},
{"point":[1174,1010]},
{"point":[1173,1011]},
{"point":[1173,1012]},
{"point":[1172,1013]},
{"point":[1172,1014]},
{"point":[1171,1015]},
{"point":[1171,1017]},
{"point":[1172,1018]},
{"point":[1172,1020]},
{"point":[1173,1021]},
{"point":[1173,1024]},
{"point":[1174,1025]},
{"point":[1174,1032]},
{"point":[1175,1033]},
{"point":[1175,1038]},
{"point":[1174,1039]},
{"point":[1174,1045]},
{"point":[1175,1046]},
{"point":[1175,1047]},
{"point":[1174,1048]},
{"point":[1174,1052]},
{"point":[1173,1053]},
{"point":[1173,1055]},
{"point":[1174,1056]},
{"point":[1173,1057]},
{"point":[1173,1058]},
{"point":[1165,1066]},
{"point":[1159,1066]},
{"point":[1159,1068]},
{"point":[1158,1069]},
{"point":[1158,1071]},
{"point":[1154,1075]},
{"point":[1154,1077]},
{"point":[1153,1078]},
{"point":[1153,1086]},
{"point":[1152,1087]},
{"point":[1152,1098]},
{"point":[1151,1099]},
{"point":[1151,1102]},
{"point":[1150,1103]},
{"point":[1150,1104]},
{"point":[1149,1105]},
{"point":[1149,1107]},
{"point":[1147,1109]},
{"point":[1146,1109]},
{"point":[1146,1111]},
{"point":[1145,1112]},
{"point":[1145,1113]},
{"point":[1144,1114]},
{"point":[1144,1116]},
{"point":[1143,1117]},
{"point":[1143,1118]},
{"point":[1142,1119]},
{"point":[1142,1122]},
{"point":[1140,1124]},
{"point":[1140,1128]},
{"point":[1138,1130]},
{"point":[1138,1132]},
{"point":[1137,1133]},
{"point":[1137,1137]},
{"point":[1136,1138]},
{"point":[1136,1146]},
{"point":[1135,1147]},
{"point":[1135,1152]},
{"point":[1134,1153]},
{"point":[1134,1157]},
{"point":[1133,1158]},
{"point":[1133,1162]},
{"point":[1134,1163]},
{"point":[1133,1164]},
{"point":[1132,1164]},
{"point":[1130,1166]},
{"point":[1129,1166]},
{"point":[1126,1169]},
{"point":[1124,1169]},
{"point":[1123,1170]},
{"point":[1122,1170]},
{"point":[1121,1171]},
{"point":[1120,1171]},
{"point":[1119,1172]},
{"point":[1117,1172]},
{"point":[1115,1174]},
{"point":[1115,1175]},
{"point":[1110,1180]},
{"point":[1109,1180]},
{"point":[1105,1176]},
{"point":[1101,1176]},
{"point":[1098,1179]},
{"point":[1097,1179]},
{"point":[1096,1180]},
{"point":[1093,1180]},
{"point":[1092,1181]},
{"point":[1091,1180]},
{"point":[1083,1180]},
{"point":[1082,1179]},
{"point":[1075,1179]},
{"point":[1074,1178]},
{"point":[1063,1178]},
{"point":[1062,1177]},
{"point":[1061,1177]},
{"point":[1060,1176]},
{"point":[1053,1176]},
{"point":[1052,1175]},
{"point":[1043,1175]},
{"point":[1042,1174]},
{"point":[1034,1174]},
{"point":[1033,1173]},
{"point":[1027,1173]},
{"point":[1026,1172]},
{"point":[1014,1172]},
{"point":[1013,1171]},
{"point":[1007,1171]},
{"point":[1006,1170]},
{"point":[998,1170]},
{"point":[997,1169]},
{"point":[992,1169]},
{"point":[991,1168]},
{"point":[987,1168]},
{"point":[986,1167]},
{"point":[970,1167]},
{"point":[969,1166]},
{"point":[968,1166]},
{"point":[967,1165]},
{"point":[956,1165]},
{"point":[955,1164]},
{"point":[951,1164]},
{"point":[950,1163]},
{"point":[943,1163]},
{"point":[942,1162]},
{"point":[933,1162]},
{"point":[932,1161]},
{"point":[928,1161]},
{"point":[927,1160]},
{"point":[917,1160]},
{"point":[916,1159]},
{"point":[913,1159]},
{"point":[912,1160]},
{"point":[911,1160]},
{"point":[909,1158]},
{"point":[898,1158]},
{"point":[897,1157]},
{"point":[893,1157]},
{"point":[892,1156]},
{"point":[882,1156]},
{"point":[881,1155]},
{"point":[875,1155]},
{"point":[874,1154]},
{"point":[865,1154]},
{"point":[864,1153]},
{"point":[861,1153]},
{"point":[860,1152]},
{"point":[852,1152]},
{"point":[851,1151]},
{"point":[846,1151]},
{"point":[845,1150]},
{"point":[843,1150]},
{"point":[842,1151]},
{"point":[841,1151]},
{"point":[840,1150]},
{"point":[836,1150]},
{"point":[835,1149]},
{"point":[831,1149]},
{"point":[830,1148]},
{"point":[826,1148]},
{"point":[825,1149]},
{"point":[824,1149]},
{"point":[823,1148]},
{"point":[812,1148]},
{"point":[811,1147]},
{"point":[804,1147]},
{"point":[803,1146]},
{"point":[796,1146]},
{"point":[795,1145]},
{"point":[789,1145]},
{"point":[788,1144]},
{"point":[781,1144]},
{"point":[780,1145]},
{"point":[778,1143]},
{"point":[774,1143]},
{"point":[773,1142]},
{"point":[763,1142]},
{"point":[762,1141]},
{"point":[757,1141]},
{"point":[756,1140]},
{"point":[748,1140]},
{"point":[747,1139]},
{"point":[739,1139]},
{"point":[738,1138]},
{"point":[732,1138]},
{"point":[731,1137]},
{"point":[725,1137]},
{"point":[724,1136]},
{"point":[714,1136]},
{"point":[713,1135]},
{"point":[712,1135]},
{"point":[711,1134]},
{"point":[708,1134]},
{"point":[707,1135]},
{"point":[706,1134]},
{"point":[699,1134]},
{"point":[698,1133]},
{"point":[694,1133]},
{"point":[693,1132]},
{"point":[684,1132]},
{"point":[683,1131]},
{"point":[672,1131]},
{"point":[671,1130]},
{"point":[667,1130]},
{"point":[666,1129]},
{"point":[660,1129]},
{"point":[659,1128]},
{"point":[657,1128]},
{"point":[656,1129]},
{"point":[654,1129]},
{"point":[653,1128]},
{"point":[647,1128]},
{"point":[646,1127]},
{"point":[641,1127]},
{"point":[640,1126]},
{"point":[631,1126]},
{"point":[630,1125]},
{"point":[621,1125]},
{"point":[620,1124]},
{"point":[611,1124]},
{"point":[610,1123]},
{"point":[605,1123]},
{"point":[604,1122]},
{"point":[596,1122]},
{"point":[595,1123]},
{"point":[595,1124]},
{"point":[592,1127]},
{"point":[592,1128]},
{"point":[591,1129]},
{"point":[590,1129]},
{"point":[590,1130]},
{"point":[588,1132]},
{"point":[588,1133]},
{"point":[584,1137]},
{"point":[584,1138]},
{"point":[581,1141]},
{"point":[581,1142]},
{"point":[578,1145]},
{"point":[578,1146]},
{"point":[577,1147]},
{"point":[576,1147]},
{"point":[576,1148]},
{"point":[574,1150]},
{"point":[574,1151]},
{"point":[571,1154]},
{"point":[571,1155]},
{"point":[566,1160]},
{"point":[566,1161]},
{"point":[563,1164]},
{"point":[563,1165]},
{"point":[561,1167]},
{"point":[561,1168]},
{"point":[557,1172]},
{"point":[557,1173]},
{"point":[554,1176]},
{"point":[554,1177]},
{"point":[551,1180]},
{"point":[551,1181]},
{"point":[549,1183]},
{"point":[548,1183]},
{"point":[548,1184]},
{"point":[546,1186]},
{"point":[546,1187]},
{"point":[544,1189]},
{"point":[544,1190]},
{"point":[540,1194]},
{"point":[540,1195]},
{"point":[536,1199]},
{"point":[536,1200]},
{"point":[533,1203]},
{"point":[533,1204]},
{"point":[530,1207]},
{"point":[530,1208]},
{"point":[526,1212]},
{"point":[526,1213]},
{"point":[524,1215]},
{"point":[524,1216]},
{"point":[520,1220]},
{"point":[520,1221]},
{"point":[518,1223]},
{"point":[518,1224]},
{"point":[515,1227]},
{"point":[515,1228]},
{"point":[510,1233]},
{"point":[510,1234]},
{"point":[508,1236]},
{"point":[508,1241]},
{"point":[509,1242]},
{"point":[509,1249]},
{"point":[512,1252]},
{"point":[515,1252]},
{"point":[516,1253]},
{"point":[517,1253]},
{"point":[519,1255]},
{"point":[523,1255]},
{"point":[524,1254]},
{"point":[525,1255]},
{"point":[527,1255]},
{"point":[531,1259]},
{"point":[531,1260]},
{"point":[532,1261]},
{"point":[532,1262]},
{"point":[534,1264]},
{"point":[534,1265]},
{"point":[535,1266]},
{"point":[535,1297]},
{"point":[534,1298]},
{"point":[534,1300]},
{"point":[535,1301]},
{"point":[535,1304]},
{"point":[536,1305]},
{"point":[526,1315]},
{"point":[526,1316]},
{"point":[525,1317]},
{"point":[524,1317]},
{"point":[524,1318]},
{"point":[520,1322]},
{"point":[520,1323]},
{"point":[512,1331]},
{"point":[512,1332]},
{"point":[508,1336]},
{"point":[508,1337]},
{"point":[502,1343]},
{"point":[502,1344]},
{"point":[494,1352]},
{"point":[494,1353]},
{"point":[490,1357]},
{"point":[490,1358]},
{"point":[485,1363]},
{"point":[482,1363]},
{"point":[482,1374]},
{"point":[483,1375]},
{"point":[483,1391]},
{"point":[484,1392]},
{"point":[484,1407]},
{"point":[485,1408]},
{"point":[485,1424]},
{"point":[486,1425]},
{"point":[486,1439]},
{"point":[487,1440]},
{"point":[487,1456]},
{"point":[488,1457]},
{"point":[488,1472]},
{"point":[489,1473]},
{"point":[489,1488]},
{"point":[490,1489]},
{"point":[490,1505]},
{"point":[491,1506]},
{"point":[491,1520]},
{"point":[492,1521]},
{"point":[492,1537]},
{"point":[493,1538]},
{"point":[493,1553]},
{"point":[494,1554]},
{"point":[494,1569]},
{"point":[495,1570]},
{"point":[495,1585]},
{"point":[496,1586]},
{"point":[496,1602]},
{"point":[497,1603]},
{"point":[497,1617]},
{"point":[498,1618]},
{"point":[498,1634]},
{"point":[499,1635]},
{"point":[499,1650]},
{"point":[500,1651]},
{"point":[500,1666]},
{"point":[501,1667]},
{"point":[501,1682]},
{"point":[502,1683]},
{"point":[502,1698]},
{"point":[503,1699]},
{"point":[503,1715]},
{"point":[504,1716]},
{"point":[504,1730]},
{"point":[505,1731]},
{"point":[505,1747]},
{"point":[506,1748]},
{"point":[506,1763]},
{"point":[507,1764]},
{"point":[507,1779]},
{"point":[508,1780]},
{"point":[508,1795]},
{"point":[509,1796]},
{"point":[509,1812]},
{"point":[510,1813]},
{"point":[510,1828]},
{"point":[511,1829]},
{"point":[511,1844]},
{"point":[512,1845]},
{"point":[512,1860]},
{"point":[513,1861]},
{"point":[513,1876]},
{"point":[514,1877]},
{"point":[514,1893]},
{"point":[515,1894]},
{"point":[515,1908]},
{"point":[516,1909]},
{"point":[516,1925]},
{"point":[517,1926]},
{"point":[517,1941]},
{"point":[518,1942]},
{"point":[518,1957]},
{"point":[519,1958]},
{"point":[519,1973]},
{"point":[520,1974]},
{"point":[520,1990]},
{"point":[521,1991]},
{"point":[521,2006]},
{"point":[522,2007]},
{"point":[522,2022]},
{"point":[523,2023]},
{"point":[523,2038]},
{"point":[524,2039]},
{"point":[524,2054]},
{"point":[525,2055]},
{"point":[525,2071]},
{"point":[526,2072]},
{"point":[526,2087]},
{"point":[527,2088]},
{"point":[527,2103]},
{"point":[528,2104]},
{"point":[528,2119]},
{"point":[539,2119]},
{"point":[540,2118]},
{"point":[548,2118]},
{"point":[549,2117]},
{"point":[556,2117]},
{"point":[557,2116]},
{"point":[565,2116]},
{"point":[566,2115]},
{"point":[574,2115]},
{"point":[575,2114]},
{"point":[582,2114]},
{"point":[583,2113]},
{"point":[591,2113]},
{"point":[592,2112]},
{"point":[600,2112]},
{"point":[601,2111]},
{"point":[608,2111]},
{"point":[609,2110]},
{"point":[617,2110]},
{"point":[618,2109]},
{"point":[626,2109]},
{"point":[627,2108]},
{"point":[634,2108]},
{"point":[635,2107]},
{"point":[643,2107]},
{"point":[644,2106]},
{"point":[652,2106]},
{"point":[653,2105]},
{"point":[661,2105]},
{"point":[662,2104]},
{"point":[669,2104]},
{"point":[670,2103]},
{"point":[678,2103]},
{"point":[679,2102]},
{"point":[686,2102]},
{"point":[687,2101]},
{"point":[695,2101]},
{"point":[696,2100]},
{"point":[704,2100]},
{"point":[705,2099]},
{"point":[712,2099]},
{"point":[713,2098]},
{"point":[720,2098]},
{"point":[721,2097]},
{"point":[722,2097]},
{"point":[726,2093]},
{"point":[726,2067]},
{"point":[725,2066]},
{"point":[725,2047]},
{"point":[724,2046]},
{"point":[724,2026]},
{"point":[723,2025]},
{"point":[723,2005]},
{"point":[722,2004]},
{"point":[722,1984]},
{"point":[721,1983]},
{"point":[721,1964]},
{"point":[720,1963]},
{"point":[720,1943]},
{"point":[719,1942]},
{"point":[719,1922]},
{"point":[718,1921]},
{"point":[718,1902]},
{"point":[717,1901]},
{"point":[717,1882]},
{"point":[716,1881]},
{"point":[716,1862]},
{"point":[715,1861]},
{"point":[715,1839]},
{"point":[714,1838]},
{"point":[714,1831]},
{"point":[712,1829]},
{"point":[712,1825]},
{"point":[711,1824]},
{"point":[711,1809]},
{"point":[710,1808]},
{"point":[710,1803]},
{"point":[711,1802]},
{"point":[711,1796]},
{"point":[710,1795]},
{"point":[710,1756]},
{"point":[709,1755]},
{"point":[709,1717]},
{"point":[708,1716]},
{"point":[708,1713]},
{"point":[709,1712]},
{"point":[709,1709]},
{"point":[708,1708]},
{"point":[708,1691]},
{"point":[707,1690]},
{"point":[707,1650]},
{"point":[706,1649]},
{"point":[706,1617]},
{"point":[705,1616]},
{"point":[705,1565]},
{"point":[704,1564]},
{"point":[704,1544]},
{"point":[703,1543]},
{"point":[703,1535]},
{"point":[704,1534]},
{"point":[704,1533]},
{"point":[705,1532]},
{"point":[709,1532]},
{"point":[710,1533]},
{"point":[713,1533]},
{"point":[714,1532]},
{"point":[715,1532]},
{"point":[716,1533]},
{"point":[719,1533]},
{"point":[720,1532]},
{"point":[721,1532]},
{"point":[722,1533]},
{"point":[727,1533]},
{"point":[728,1532]},
{"point":[730,1532]},
{"point":[731,1533]},
{"point":[732,1533]},
{"point":[733,1534]},
{"point":[745,1534]},
{"point":[746,1535]},
{"point":[747,1535]},
{"point":[748,1536]},
{"point":[748,1545]},
{"point":[749,1546]},
{"point":[755,1546]},
{"point":[756,1547]},
{"point":[760,1547]},
{"point":[764,1551]},
{"point":[765,1551]},
{"point":[768,1554]},
{"point":[768,1555]},
{"point":[769,1556]},
{"point":[769,1558]},
{"point":[770,1559]},
{"point":[770,1584]},
{"point":[769,1585]},
{"point":[769,1587]},
{"point":[770,1588]},
{"point":[770,1593]},
{"point":[769,1594]},
{"point":[769,1598]},
{"point":[770,1599]},
{"point":[770,1629]},
{"point":[769,1630]},
{"point":[769,1636]},
{"point":[770,1637]},
{"point":[770,1640]},
{"point":[769,1641]},
{"point":[769,1655]},
{"point":[770,1656]},
{"point":[770,1660]},
{"point":[769,1661]},
{"point":[769,1722]},
{"point":[768,1723]},
{"point":[768,1758]},
{"point":[767,1759]},
{"point":[767,1762]},
{"point":[768,1763]},
{"point":[768,1802]},
{"point":[767,1803]},
{"point":[767,1817]},
{"point":[766,1818]},
{"point":[764,1818]},
{"point":[764,1819]},
{"point":[763,1820]},
{"point":[763,1873]},
{"point":[762,1874]},
{"point":[762,1916]},
{"point":[761,1917]},
{"point":[761,1963]},
{"point":[760,1964]},
{"point":[760,2009]},
{"point":[759,2010]},
{"point":[759,2057]},
{"point":[758,2058]},
{"point":[758,2105]},
{"point":[759,2106]},
{"point":[814,2106]},
{"point":[815,2107]},
{"point":[869,2107]},
{"point":[870,2108]},
{"point":[927,2108]},
{"point":[928,2109]},
{"point":[986,2109]},
{"point":[987,2108]},
{"point":[987,2106]},
{"point":[988,2105]},
{"point":[988,2102]},
{"point":[987,2102]},
{"point":[985,2100]},
{"point":[985,2011]},
{"point":[984,2010]},
{"point":[984,1923]},
{"point":[983,1922]},
{"point":[983,1825]},
{"point":[982,1824]},
{"point":[982,1758]},
{"point":[981,1757]},
{"point":[981,1738]},
{"point":[982,1737]},
{"point":[982,1717]},
{"point":[981,1716]},
{"point":[981,1686]},
{"point":[980,1685]},
{"point":[980,1675]},
{"point":[979,1674]},
{"point":[979,1641]},
{"point":[978,1640]},
{"point":[978,1620]},
{"point":[977,1619]},
{"point":[977,1582]},
{"point":[976,1581]},
{"point":[976,1560]},
{"point":[978,1558]},
{"point":[984,1558]},
{"point":[986,1560]},
{"point":[986,1561]},
{"point":[987,1562]},
{"point":[989,1562]},
{"point":[990,1563]},
{"point":[990,1564]},
{"point":[992,1564]},
{"point":[993,1565]},
{"point":[993,1566]},
{"point":[994,1567]},
{"point":[994,1568]},
{"point":[995,1569]},
{"point":[995,1595]},
{"point":[996,1596]},
{"point":[996,1597]},
{"point":[995,1598]},
{"point":[995,1669]},
{"point":[994,1670]},
{"point":[994,1718]},
{"point":[993,1719]},
{"point":[993,1721]},
{"point":[994,1722]},
{"point":[996,1722]},
{"point":[999,1719]},
{"point":[999,1718]},
{"point":[1002,1715]},
{"point":[1003,1716]},
{"point":[1003,1724]},
{"point":[1004,1725]},
{"point":[1004,1738]},
{"point":[1005,1739]},
{"point":[1005,1751]},
{"point":[1006,1752]},
{"point":[1006,1765]},
{"point":[1007,1766]},
{"point":[1007,1778]},
{"point":[1008,1779]},
{"point":[1008,1791]},
{"point":[1009,1792]},
{"point":[1009,1805]},
{"point":[1010,1806]},
{"point":[1010,1818]},
{"point":[1011,1819]},
{"point":[1011,1832]},
{"point":[1012,1833]},
{"point":[1012,1846]},
{"point":[1013,1847]},
{"point":[1013,1859]},
{"point":[1014,1860]},
{"point":[1014,1873]},
{"point":[1015,1874]},
{"point":[1015,1886]},
{"point":[1016,1887]},
{"point":[1016,1899]},
{"point":[1017,1900]},
{"point":[1017,1912]},
{"point":[1018,1913]},
{"point":[1018,1926]},
{"point":[1019,1927]},
{"point":[1019,1939]},
{"point":[1020,1940]},
{"point":[1020,1952]},
{"point":[1021,1953]},
{"point":[1021,1966]},
{"point":[1022,1967]},
{"point":[1022,1979]},
{"point":[1023,1980]},
{"point":[1023,1993]},
{"point":[1024,1994]},
{"point":[1024,2006]},
{"point":[1025,2007]},
{"point":[1025,2019]},
{"point":[1026,2020]},
{"point":[1026,2033]},
{"point":[1027,2034]},
{"point":[1027,2046]},
{"point":[1028,2047]},
{"point":[1028,2060]},
{"point":[1029,2061]},
{"point":[1029,2073]},
{"point":[1030,2074]},
{"point":[1030,2087]},
{"point":[1031,2088]},
{"point":[1031,2099]},
{"point":[1033,2101]},
{"point":[1102,2101]},
{"point":[1103,2102]},
{"point":[1173,2102]},
{"point":[1174,2103]},
{"point":[1241,2103]},
{"point":[1242,2104]},
{"point":[1244,2104]},
{"point":[1245,2103]},
{"point":[1245,2063]},
{"point":[1244,2062]},
{"point":[1244,2025]},
{"point":[1243,2024]},
{"point":[1243,1983]},
{"point":[1242,1982]},
{"point":[1242,1945]},
{"point":[1241,1944]},
{"point":[1241,1905]},
{"point":[1240,1904]},
{"point":[1240,1866]},
{"point":[1239,1865]},
{"point":[1239,1829]},
{"point":[1238,1828]},
{"point":[1238,1792]},
{"point":[1237,1791]},
{"point":[1237,1766]},
{"point":[1236,1765]},
{"point":[1236,1763]},
{"point":[1235,1762]},
{"point":[1235,1760]},
{"point":[1234,1759]},
{"point":[1234,1747]},
{"point":[1233,1746]},
{"point":[1233,1724]},
{"point":[1232,1723]},
{"point":[1232,1705]},
{"point":[1231,1704]},
{"point":[1231,1692]},
{"point":[1230,1691]},
{"point":[1230,1671]},
{"point":[1229,1670]},
{"point":[1229,1654]},
{"point":[1228,1653]},
{"point":[1228,1635]},
{"point":[1227,1634]},
{"point":[1227,1623]},
{"point":[1226,1622]},
{"point":[1226,1603]},
{"point":[1225,1602]},
{"point":[1225,1587]},
{"point":[1224,1586]},
{"point":[1224,1566]},
{"point":[1223,1565]},
{"point":[1223,1563]},
{"point":[1225,1561]},
{"point":[1239,1561]},
{"point":[1240,1562]},
{"point":[1247,1562]},
{"point":[1248,1563]},
{"point":[1248,1573]},
{"point":[1249,1574]},
{"point":[1261,1574]},
{"point":[1267,1580]},
{"point":[1268,1580]},
{"point":[1269,1581]},
{"point":[1269,1582]},
{"point":[1270,1582]},
{"point":[1271,1583]},
{"point":[1271,1586]},
{"point":[1272,1587]},
{"point":[1272,1628]},
{"point":[1273,1629]},
{"point":[1273,1758]},
{"point":[1272,1759]},
{"point":[1272,1760]},
{"point":[1271,1761]},
{"point":[1271,1773]},
{"point":[1272,1774]},
{"point":[1272,1782]},
{"point":[1273,1783]},
{"point":[1273,1792]},
{"point":[1274,1793]},
{"point":[1274,1802]},
{"point":[1275,1803]},
{"point":[1275,1811]},
{"point":[1276,1812]},
{"point":[1276,1821]},
{"point":[1277,1822]},
{"point":[1277,1830]},
{"point":[1278,1831]},
{"point":[1278,1839]},
{"point":[1279,1840]},
{"point":[1279,1849]},
{"point":[1280,1850]},
{"point":[1280,1858]},
{"point":[1281,1859]},
{"point":[1281,1867]},
{"point":[1282,1868]},
{"point":[1282,1877]},
{"point":[1283,1878]},
{"point":[1283,1886]},
{"point":[1284,1887]},
{"point":[1284,1896]},
{"point":[1285,1897]},
{"point":[1285,1905]},
{"point":[1286,1906]},
{"point":[1286,1914]},
{"point":[1287,1915]},
{"point":[1287,1924]},
{"point":[1288,1925]},
{"point":[1288,1933]},
{"point":[1289,1934]},
{"point":[1289,1943]},
{"point":[1290,1944]},
{"point":[1290,1952]},
{"point":[1291,1953]},
{"point":[1291,1962]},
{"point":[1292,1963]},
{"point":[1292,1971]},
{"point":[1293,1972]},
{"point":[1293,1980]},
{"point":[1294,1981]},
{"point":[1294,1990]},
{"point":[1295,1991]},
{"point":[1295,1999]},
{"point":[1296,2000]},
{"point":[1296,2008]},
{"point":[1297,2009]},
{"point":[1297,2018]},
{"point":[1298,2019]},
{"point":[1298,2027]},
{"point":[1299,2028]},
{"point":[1299,2037]},
{"point":[1300,2038]},
{"point":[1300,2046]},
{"point":[1301,2047]},
{"point":[1301,2055]},
{"point":[1302,2056]},
{"point":[1302,2065]},
{"point":[1303,2066]},
{"point":[1303,2074]},
{"point":[1304,2075]},
{"point":[1304,2084]},
{"point":[1305,2085]},
{"point":[1305,2093]},
{"point":[1348,2093]},
{"point":[1349,2092]},
{"point":[1390,2092]},
{"point":[1391,2091]},
{"point":[1432,2091]},
{"point":[1433,2090]},
{"point":[1472,2090]},
{"point":[1473,2089]},
{"point":[1512,2089]},
{"point":[1513,2088]},
{"point":[1555,2088]},
{"point":[1556,2087]},
{"point":[1596,2087]},
{"point":[1597,2086]},
{"point":[1637,2086]},
{"point":[1638,2085]},
{"point":[1679,2085]},
{"point":[1680,2084]},
{"point":[1720,2084]},
{"point":[1721,2083]},
{"point":[1760,2083]},
{"point":[1761,2082]},
{"point":[1803,2082]},
{"point":[1804,2081]},
{"point":[1844,2081]},
{"point":[1845,2080]},
{"point":[1884,2080]},
{"point":[1885,2079]},
{"point":[1925,2079]},
{"point":[1926,2078]},
{"point":[1966,2078]},
{"point":[1967,2077]},
{"point":[1967,2074]},
{"point":[1966,2073]},
{"point":[1962,2073]},
{"point":[1961,2072]},
{"point":[1961,2058]},
{"point":[1960,2057]},
{"point":[1960,2042]},
{"point":[1959,2041]},
{"point":[1959,2025]},
{"point":[1958,2024]},
{"point":[1958,2010]},
{"point":[1957,2009]},
{"point":[1957,1994]},
{"point":[1956,1993]},
{"point":[1956,1977]},
{"point":[1955,1976]},
{"point":[1955,1961]},
{"point":[1954,1960]},
{"point":[1954,1945]},
{"point":[1953,1944]},
{"point":[1953,1929]},
{"point":[1952,1928]},
{"point":[1952,1913]},
{"point":[1951,1912]},
{"point":[1951,1896]},
{"point":[1950,1895]},
{"point":[1950,1880]},
{"point":[1949,1879]},
{"point":[1949,1865]},
{"point":[1948,1864]},
{"point":[1948,1848]},
{"point":[1947,1847]},
{"point":[1947,1832]},
{"point":[1946,1831]},
{"point":[1946,1816]},
{"point":[1945,1815]},
{"point":[1945,1799]},
{"point":[1944,1798]},
{"point":[1944,1783]},
{"point":[1943,1782]},
{"point":[1943,1767]},
{"point":[1942,1766]},
{"point":[1942,1751]},
{"point":[1941,1750]},
{"point":[1941,1735]},
{"point":[1940,1734]},
{"point":[1940,1719]},
{"point":[1939,1718]},
{"point":[1939,1703]},
{"point":[1938,1702]},
{"point":[1938,1687]},
{"point":[1937,1686]},
{"point":[1937,1671]},
{"point":[1936,1670]},
{"point":[1936,1658]},
{"point":[1935,1657]},
{"point":[1935,1656]},
{"point":[1933,1654]},
{"point":[1933,1649]},
{"point":[1932,1648]},
{"point":[1932,1645]},
{"point":[1933,1644]},
{"point":[1933,1642]},
{"point":[1932,1641]},
{"point":[1932,1640]},
{"point":[1931,1639]},
{"point":[1931,1627]},
{"point":[1930,1626]},
{"point":[1930,1617]},
{"point":[1929,1616]},
{"point":[1929,1605]},
{"point":[1928,1604]},
{"point":[1928,1588]},
{"point":[1927,1587]},
{"point":[1927,1578]},
{"point":[1926,1577]},
{"point":[1926,1558]},
{"point":[1925,1557]},
{"point":[1925,1547]},
{"point":[1924,1546]},
{"point":[1924,1535]},
{"point":[1927,1532]},
{"point":[1927,1531]},
{"point":[1929,1529]},
{"point":[1930,1529]},
{"point":[1930,1528]},
{"point":[1931,1527]},
{"point":[1931,1526]},
{"point":[1934,1523]},
{"point":[1935,1523]},
{"point":[1936,1522]},
{"point":[1937,1522]},
{"point":[1937,1521]},
{"point":[1938,1520]},
{"point":[1944,1520]},
{"point":[1946,1518]},
{"point":[1949,1518]},
{"point":[1950,1517]},
{"point":[1950,1507]},
{"point":[1949,1506]},
{"point":[1939,1506]},
{"point":[1938,1505]},
{"point":[1937,1505]},
{"point":[1936,1504]},
{"point":[1935,1504]},
{"point":[1934,1503]},
{"point":[1934,1502]},
{"point":[1933,1501]},
{"point":[1933,1494]},
{"point":[1932,1493]},
{"point":[1932,1479]},
{"point":[1933,1478]},
{"point":[1933,1477]},
{"point":[1935,1475]},
{"point":[1937,1475]},
{"point":[1937,1469]},
{"point":[1935,1469]},
{"point":[1932,1466]},
{"point":[1932,1464]},
{"point":[1931,1463]},
{"point":[1931,1448]},
{"point":[1930,1447]},
{"point":[1930,1436]},
{"point":[1929,1435]},
{"point":[1930,1434]},
{"point":[1931,1434]},
{"point":[1933,1432]},
{"point":[1936,1432]},
{"point":[1937,1431]},
{"point":[1937,1430]},
{"point":[1938,1429]},
{"point":[1939,1429]},
{"point":[1940,1428]},
{"point":[1940,1427]},
{"point":[1942,1425]},
{"point":[1942,1424]},
{"point":[1943,1423]},
{"point":[1947,1423]},
{"point":[1948,1422]},
{"point":[1953,1422]},
{"point":[1955,1420]},
{"point":[1960,1420]},
{"point":[1962,1418]},
{"point":[1965,1418]},
{"point":[1966,1417]},
{"point":[1967,1417]},
{"point":[1968,1416]},
{"point":[1970,1416]},
{"point":[1971,1415]},
{"point":[1972,1415]},
{"point":[1975,1412]},
{"point":[1975,1401]},
{"point":[1977,1399]},
{"point":[1978,1399]},
{"point":[1981,1396]},
{"point":[1981,1395]},
{"point":[1985,1391]},
{"point":[1986,1391]},
{"point":[1987,1390]},
{"point":[1989,1390]},
{"point":[1990,1389]},
{"point":[1991,1389]},
{"point":[1994,1386]},
{"point":[1994,1385]},
{"point":[1997,1382]},
{"point":[1997,1378]},
{"point":[1996,1377]},
{"point":[1991,1377]},
{"point":[1990,1378]},
{"point":[1982,1378]},
{"point":[1981,1377]},
{"point":[1977,1377]},
{"point":[1976,1376]},
{"point":[1974,1376]},
{"point":[1970,1372]},
{"point":[1964,1372]},
{"point":[1963,1371]},
{"point":[1948,1371]},
{"point":[1947,1370]},
{"point":[1941,1370]},
{"point":[1940,1369]},
{"point":[1927,1369]},
{"point":[1925,1367]},
{"point":[1925,1366]},
{"point":[1924,1365]},
{"point":[1924,1356]},
{"point":[1923,1355]},
{"point":[1912,1355]},
{"point":[1911,1354]},
{"point":[1904,1354]},
{"point":[1903,1353]},
{"point":[1901,1353]},
{"point":[1898,1350]},
{"point":[1892,1350]},
{"point":[1891,1349]},
{"point":[1882,1349]},
{"point":[1879,1346]},
{"point":[1879,1342]},
{"point":[1878,1341]},
{"point":[1878,1323]},
{"point":[1877,1322]},
{"point":[1877,1308]},
{"point":[1876,1307]},
{"point":[1876,1298]},
{"point":[1881,1293]},
{"point":[1883,1293]},
{"point":[1884,1292]},
{"point":[1886,1292]},
{"point":[1887,1291]},
{"point":[1887,1289]},
{"point":[1888,1288]},
{"point":[1888,1287]},
{"point":[1891,1284]},
{"point":[1893,1284]},
{"point":[1894,1283]},
{"point":[1895,1283]},
{"point":[1896,1282]},
{"point":[1898,1282]},
{"point":[1902,1278]},
{"point":[1902,1268]},
{"point":[1895,1268]},
{"point":[1894,1267]},
{"point":[1889,1267]},
{"point":[1888,1266]},
{"point":[1880,1266]},
{"point":[1879,1265]},
{"point":[1874,1265]},
{"point":[1873,1264]},
{"point":[1861,1264]},
{"point":[1860,1263]},
{"point":[1848,1263]},
{"point":[1847,1262]},
{"point":[1845,1262]},
{"point":[1844,1261]},
{"point":[1830,1261]},
{"point":[1829,1260]},
{"point":[1818,1260]},
{"point":[1817,1259]},
{"point":[1815,1259]},
{"point":[1814,1258]},
{"point":[1810,1258]},
{"point":[1809,1259]},
{"point":[1808,1259]},
{"point":[1807,1258]},
{"point":[1803,1258]},
{"point":[1802,1257]},
{"point":[1789,1257]},
{"point":[1788,1256]},
{"point":[1783,1256]},
{"point":[1782,1255]},
{"point":[1774,1255]},
{"point":[1773,1254]},
{"point":[1761,1254]},
{"point":[1760,1253]},
{"point":[1751,1253]},
{"point":[1750,1252]},
{"point":[1745,1252]},
{"point":[1744,1251]},
{"point":[1732,1251]},
{"point":[1731,1250]},
{"point":[1728,1250]},
{"point":[1727,1249]},
{"point":[1716,1249]},
{"point":[1715,1248]},
{"point":[1713,1248]},
{"point":[1712,1247]},
{"point":[1700,1247]},
{"point":[1699,1246]},
{"point":[1689,1246]},
{"point":[1688,1245]},
{"point":[1684,1245]},
{"point":[1683,1244]},
{"point":[1671,1244]},
{"point":[1670,1243]},
{"point":[1660,1243]},
{"point":[1659,1242]},
{"point":[1655,1242]},
{"point":[1654,1241]},
{"point":[1642,1241]},
{"point":[1641,1240]},
{"point":[1633,1240]},
{"point":[1632,1239]},
{"point":[1625,1239]},
{"point":[1624,1238]},
{"point":[1614,1238]},
{"point":[1613,1237]},
{"point":[1608,1237]},
{"point":[1607,1236]},
{"point":[1595,1236]},
{"point":[1594,1235]},
{"point":[1586,1235]},
{"point":[1585,1234]},
{"point":[1579,1234]},
{"point":[1578,1233]},
{"point":[1566,1233]},
{"point":[1565,1232]},
{"point":[1564,1232]},
{"point":[1563,1231]},
{"point":[1548,1231]},
{"point":[1547,1230]},
{"point":[1544,1230]},
{"point":[1543,1229]},
{"point":[1541,1229]},
{"point":[1540,1230]},
{"point":[1538,1230]},
{"point":[1537,1229]},
{"point":[1536,1229]},
{"point":[1535,1228]},
{"point":[1536,1227]},
{"point":[1537,1227]},
{"point":[1538,1226]},
{"point":[1539,1226]},
{"point":[1540,1225]},
{"point":[1541,1225]},
{"point":[1545,1221]},
{"point":[1545,1220]},
{"point":[1546,1219]},
{"point":[1546,1212]},
{"point":[1547,1211]},
{"point":[1547,1208]},
{"point":[1537,1208]},
{"point":[1536,1207]},
{"point":[1526,1207]},
{"point":[1525,1206]},
{"point":[1522,1206]},
{"point":[1521,1205]},
{"point":[1520,1205]},
{"point":[1518,1203]},
{"point":[1518,1195]},
{"point":[1519,1194]},
{"point":[1519,1190]},
{"point":[1510,1190]},
{"point":[1509,1189]},
{"point":[1501,1189]},
{"point":[1500,1188]},
{"point":[1496,1188]},
{"point":[1495,1187]},
{"point":[1486,1187]},
{"point":[1485,1186]},
{"point":[1481,1186]},
{"point":[1480,1185]},
{"point":[1469,1185]},
{"point":[1468,1184]},
{"point":[1463,1184]},
{"point":[1462,1183]},
{"point":[1450,1183]},
{"point":[1448,1181]},
{"point":[1447,1181]},
{"point":[1446,1180]},
{"point":[1446,1175]},
{"point":[1443,1172]},
{"point":[1443,1171]},
{"point":[1442,1170]},
{"point":[1437,1170]},
{"point":[1436,1171]},
{"point":[1435,1171]},
{"point":[1434,1172]},
{"point":[1433,1172]},
{"point":[1432,1173]},
{"point":[1428,1173]},
{"point":[1427,1172]},
{"point":[1427,1167]},
{"point":[1428,1166]},
{"point":[1428,1163]},
{"point":[1429,1162]},
{"point":[1429,1161]},
{"point":[1430,1160]},
{"point":[1430,1159]},
{"point":[1432,1157]},
{"point":[1432,1155]},
{"point":[1431,1154]},
{"point":[1431,1147]},
{"point":[1432,1146]},
{"point":[1432,1145]},
{"point":[1433,1144]},
{"point":[1435,1144]},
{"point":[1436,1143]},
{"point":[1436,1142]},
{"point":[1442,1136]},
{"point":[1443,1137]},
{"point":[1444,1137]},
{"point":[1445,1138]},
{"point":[1445,1139]},
{"point":[1447,1141]},
{"point":[1451,1141]},
{"point":[1452,1140]},
{"point":[1458,1140]},
{"point":[1459,1141]},
{"point":[1461,1141]},
{"point":[1462,1140]},
{"point":[1466,1140]},
{"point":[1469,1143]},
{"point":[1469,1147]},
{"point":[1468,1148]},
{"point":[1468,1149]},
{"point":[1467,1150]},
{"point":[1467,1152]},
{"point":[1465,1154]},
{"point":[1465,1159]},
{"point":[1463,1161]},
{"point":[1462,1161]},
{"point":[1461,1162]},
{"point":[1460,1162]},
{"point":[1458,1164]},
{"point":[1458,1166]},
{"point":[1457,1167]},
{"point":[1457,1169]},
{"point":[1456,1170]},
{"point":[1456,1174]},
{"point":[1457,1174]},
{"point":[1458,1175]},
{"point":[1458,1176]},
{"point":[1460,1176]},
{"point":[1461,1175]},
{"point":[1464,1175]},
{"point":[1468,1171]},
{"point":[1468,1169]},
{"point":[1470,1167]},
{"point":[1470,1166]},
{"point":[1473,1163]},
{"point":[1473,1161]},
{"point":[1474,1160]},
{"point":[1474,1155]},
{"point":[1475,1154]},
{"point":[1475,1147]},
{"point":[1476,1146]},
{"point":[1476,1143]},
{"point":[1477,1142]},
{"point":[1477,1134]},
{"point":[1472,1129]},
{"point":[1469,1129]},
{"point":[1468,1128]},
{"point":[1467,1128]},
{"point":[1465,1126]},
{"point":[1464,1126]},
{"point":[1463,1125]},
{"point":[1463,1122]},
{"point":[1465,1120]},
{"point":[1465,1114]},
{"point":[1466,1113]},
{"point":[1466,1112]},
{"point":[1467,1111]},
{"point":[1467,1105]},
{"point":[1465,1103]},
{"point":[1465,1102]},
{"point":[1464,1101]},
{"point":[1464,1100]},
{"point":[1463,1099]},
{"point":[1463,1097]},
{"point":[1461,1095]},
{"point":[1461,1094]},
{"point":[1460,1093]},
{"point":[1460,1092]},
{"point":[1461,1091]},
{"point":[1461,1089]},
{"point":[1462,1088]},
{"point":[1463,1088]},
{"point":[1465,1086]},
{"point":[1466,1086]},
{"point":[1467,1085]},
{"point":[1467,1084]},
{"point":[1469,1082]},
{"point":[1469,1081]},
{"point":[1471,1079]},
{"point":[1472,1079]},
{"point":[1473,1080]},
{"point":[1476,1080]},
{"point":[1476,1079]},
{"point":[1477,1078]},
{"point":[1477,1077]},
{"point":[1479,1075]},
{"point":[1479,1063]},
{"point":[1478,1062]},
{"point":[1478,1058]},
{"point":[1477,1057]},
{"point":[1477,1051]},
{"point":[1476,1050]},
{"point":[1476,1047]},
{"point":[1477,1046]},
{"point":[1477,1045]},
{"point":[1478,1044]},
{"point":[1479,1044]},
{"point":[1479,1039]},
{"point":[1475,1039]},
{"point":[1474,1038]},
{"point":[1474,1033]},
{"point":[1470,1033]},
{"point":[1469,1034]},
{"point":[1468,1034]},
{"point":[1467,1035]},
{"point":[1466,1035]},
{"point":[1465,1036]},
{"point":[1457,1036]},
{"point":[1456,1037]},
{"point":[1453,1037]},
{"point":[1451,1039]},
{"point":[1449,1039]},
{"point":[1448,1040]},
{"point":[1447,1040]},
{"point":[1446,1041]},
{"point":[1445,1041]},
{"point":[1443,1043]},
{"point":[1443,1044]},
{"point":[1441,1046]},
{"point":[1440,1046]},
{"point":[1434,1052]},
{"point":[1434,1055]},
{"point":[1432,1057]},
{"point":[1432,1058]},
{"point":[1431,1059]},
{"point":[1431,1060]},
{"point":[1430,1061]},
{"point":[1430,1064]},
{"point":[1427,1067]},
{"point":[1427,1069]},
{"point":[1426,1070]},
{"point":[1426,1076]},
{"point":[1425,1077]},
{"point":[1425,1080]},
{"point":[1424,1081]},
{"point":[1424,1086]},
{"point":[1421,1089]},
{"point":[1416,1089]},
{"point":[1416,1092]},
{"point":[1415,1093]},
{"point":[1414,1093]},
{"point":[1412,1095]},
{"point":[1410,1095]},
{"point":[1409,1094]},
{"point":[1402,1094]},
{"point":[1401,1095]},
{"point":[1396,1095]},
{"point":[1395,1096]},
{"point":[1394,1096]},
{"point":[1393,1095]},
{"point":[1393,1090]},
{"point":[1394,1089]},
{"point":[1394,1084]},
{"point":[1391,1081]},
{"point":[1391,1080]},
{"point":[1390,1079]},
{"point":[1390,1078]},
{"point":[1388,1076]},
{"point":[1388,1075]},
{"point":[1387,1074]},
{"point":[1387,1072]},
{"point":[1389,1070]},
{"point":[1390,1070]},
{"point":[1391,1069]},
{"point":[1392,1069]},
{"point":[1394,1067]},
{"point":[1394,1064]},
{"point":[1388,1064]},
{"point":[1388,1065]},
{"point":[1387,1066]},
{"point":[1385,1066]},
{"point":[1384,1065]},
{"point":[1384,1062]},
{"point":[1385,1061]},
{"point":[1385,1060]},
{"point":[1387,1058]},
{"point":[1388,1058]},
{"point":[1391,1055]},
{"point":[1392,1055]},
{"point":[1393,1054]},
{"point":[1393,1053]},
{"point":[1394,1052]},
{"point":[1396,1054]},
{"point":[1396,1057]},
{"point":[1397,1057]},
{"point":[1398,1058]},
{"point":[1400,1058]},
{"point":[1402,1056]},
{"point":[1402,1055]},
{"point":[1403,1054]},
{"point":[1404,1054]},
{"point":[1405,1053]},
{"point":[1406,1053]},
{"point":[1407,1052]},
{"point":[1407,1051]},
{"point":[1408,1050]},
{"point":[1408,1042]},
{"point":[1406,1040]},
{"point":[1406,1039]},
{"point":[1404,1037]},
{"point":[1404,1034]},
{"point":[1402,1032]},
{"point":[1402,1031]},
{"point":[1400,1029]},
{"point":[1400,1025]},
{"point":[1397,1022]},
{"point":[1397,1021]},
{"point":[1398,1020]},
{"point":[1398,1018]},
{"point":[1399,1017]},
{"point":[1399,1015]},
{"point":[1392,1015]},
{"point":[1390,1013]},
{"point":[1383,1013]},
{"point":[1381,1015]},
{"point":[1380,1015]},
{"point":[1375,1020]},
{"point":[1375,1021]},
{"point":[1373,1023]},
{"point":[1373,1024]},
{"point":[1372,1025]},
{"point":[1372,1026]},
{"point":[1371,1027]},
{"point":[1371,1028]},
{"point":[1369,1030]},
{"point":[1368,1030]},
{"point":[1368,1031]},
{"point":[1367,1032]},
{"point":[1367,1033]},
{"point":[1365,1035]},
{"point":[1365,1036]},
{"point":[1364,1037]},
{"point":[1364,1038]},
{"point":[1363,1039]},
{"point":[1363,1040]},
{"point":[1361,1042]},
{"point":[1361,1044]},
{"point":[1360,1045]},
{"point":[1360,1049]},
{"point":[1359,1050]},
{"point":[1359,1053]},
{"point":[1358,1054]},
{"point":[1358,1056]},
{"point":[1357,1057]},
{"point":[1357,1060]},
{"point":[1356,1061]},
{"point":[1356,1064]},
{"point":[1354,1066]},
{"point":[1354,1071]},
{"point":[1350,1075]},
{"point":[1350,1079]},
{"point":[1348,1081]},
{"point":[1347,1081]},
{"point":[1344,1084]},
{"point":[1342,1082]},
{"point":[1340,1082]},
{"point":[1339,1081]},
{"point":[1333,1081]},
{"point":[1332,1080]},
{"point":[1329,1080]},
{"point":[1328,1079]},
{"point":[1325,1079]},
{"point":[1324,1078]},
{"point":[1319,1078]},
{"point":[1318,1079]},
{"point":[1318,1082]},
{"point":[1322,1082]},
{"point":[1323,1083]},
{"point":[1326,1083]},
{"point":[1328,1085]},
{"point":[1328,1086]},
{"point":[1327,1087]},
{"point":[1323,1087]},
{"point":[1322,1088]},
{"point":[1321,1088]},
{"point":[1320,1089]},
{"point":[1319,1089]},
{"point":[1318,1090]},
{"point":[1318,1091]},
{"point":[1317,1092]},
{"point":[1316,1092]},
{"point":[1314,1094]},
{"point":[1314,1095]},
{"point":[1310,1099]},
{"point":[1308,1097]},
{"point":[1307,1097]},
{"point":[1304,1094]},
{"point":[1303,1094]},
{"point":[1301,1092]},
{"point":[1300,1092]},
{"point":[1298,1090]},
{"point":[1297,1090]},
{"point":[1296,1089]},
{"point":[1295,1089]},
{"point":[1294,1088]},
{"point":[1294,1083]},
{"point":[1293,1082]},
{"point":[1293,1079]},
{"point":[1292,1078]},
{"point":[1292,1076]},
{"point":[1293,1075]},
{"point":[1293,1071]},
{"point":[1292,1070]},
{"point":[1290,1070]},
{"point":[1286,1066]},
{"point":[1286,1060]},
{"point":[1287,1059]},
{"point":[1288,1059]},
{"point":[1291,1056]},
{"point":[1291,1055]},
{"point":[1296,1050]},
{"point":[1296,1048]},
{"point":[1297,1047]},
{"point":[1297,1039]},
{"point":[1296,1038]},
{"point":[1296,1037]},
{"point":[1297,1036]},
{"point":[1297,1031]},
{"point":[1296,1030]},
{"point":[1296,1029]},
{"point":[1297,1028]},
{"point":[1297,1025]},
{"point":[1298,1024]},
{"point":[1298,1021]},
{"point":[1297,1020]},
{"point":[1297,1018]},
{"point":[1296,1017]},
{"point":[1296,1016]},
{"point":[1297,1015]},
{"point":[1298,1015]},
{"point":[1300,1013]},
{"point":[1300,1009]},
{"point":[1299,1008]},
{"point":[1295,1008]},
{"point":[1293,1010]},
{"point":[1290,1007]},
{"point":[1283,1007]},
{"point":[1281,1009]},
{"point":[1280,1009]},
{"point":[1279,1010]},
{"point":[1278,1010]},
{"point":[1277,1011]},
{"point":[1277,1012]},
{"point":[1276,1013]},
{"point":[1276,1014]},
{"point":[1275,1015]},
{"point":[1275,1016]},
{"point":[1273,1018]},
{"point":[1273,1024]},
{"point":[1272,1025]},
{"point":[1272,1026]},
{"point":[1271,1027]},
{"point":[1271,1028]},
{"point":[1270,1029]},
{"point":[1270,1031]},
{"point":[1269,1032]},
{"point":[1269,1034]},
{"point":[1268,1035]},
{"point":[1268,1037]},
{"point":[1267,1038]},
{"point":[1267,1041]},
{"point":[1266,1042]},
{"point":[1266,1043]},
{"point":[1265,1044]},
{"point":[1265,1046]},
{"point":[1264,1047]},
{"point":[1264,1049]},
{"point":[1263,1050]},
{"point":[1263,1053]},
{"point":[1262,1054]},
{"point":[1262,1056]},
{"point":[1259,1059]},
{"point":[1258,1059]},
{"point":[1256,1057]},
{"point":[1254,1057]},
{"point":[1252,1055]},
{"point":[1252,1054]},
{"point":[1251,1053]},
{"point":[1251,1044]},
{"point":[1250,1043]},
{"point":[1250,1039]},
{"point":[1249,1038]},
{"point":[1249,1036]},
{"point":[1248,1035]},
{"point":[1248,1032]},
{"point":[1246,1030]},
{"point":[1246,1027]},
{"point":[1245,1026]},
{"point":[1245,1024]},
{"point":[1244,1023]},
{"point":[1244,1022]},
{"point":[1243,1021]},
{"point":[1243,1018]},
{"point":[1242,1017]},
{"point":[1243,1016]},
{"point":[1243,1010]},
{"point":[1242,1009]},
{"point":[1242,1005]},
{"point":[1241,1005]},
{"point":[1240,1004]},
{"point":[1240,1003]},
{"point":[1239,1003]},
{"point":[1236,1000]},
{"point":[1236,999]},
{"point":[1237,998]},
{"point":[1237,997]},
{"point":[1238,996]},
{"point":[1238,995]},
{"point":[1239,994]},
{"point":[1240,994]},
{"point":[1240,992]},
{"point":[1241,991]},
{"point":[1241,983]},
{"point":[1240,982]},
{"point":[1240,967]},
{"point":[1241,966]},
{"point":[1241,957]},
{"point":[1242,956]},
{"point":[1242,955]},
{"point":[1243,954]},
{"point":[1243,953]},
{"point":[1244,952]},
{"point":[1244,948]},
{"point":[1246,946]},
{"point":[1248,946]},
{"point":[1250,944]},
{"point":[1251,944]},
{"point":[1252,943]},
{"point":[1254,943]},
{"point":[1257,940]},
{"point":[1257,939]},
{"point":[1258,938]},
{"point":[1258,936]},
{"point":[1259,935]},
{"point":[1259,934]},
{"point":[1260,933]},
{"point":[1260,930]},
{"point":[1261,929]},
{"point":[1261,922]},
{"point":[1260,921]},
{"point":[1260,918]},
{"point":[1259,918]},
{"point":[1258,917]},
{"point":[1258,915]},
{"point":[1257,914]},
{"point":[1257,913]},
{"point":[1256,912]},
{"point":[1256,910]},
{"point":[1254,908]},
{"point":[1254,903]},
{"point":[1253,903]},
{"point":[1250,900]},
{"point":[1251,899]},
{"point":[1253,899]},
{"point":[1255,897]},
{"point":[1257,897]},
{"point":[1260,894]},
{"point":[1260,891]},
{"point":[1262,889]},
{"point":[1264,889]},
{"point":[1266,887]},
{"point":[1266,886]},
{"point":[1267,885]},
{"point":[1267,884]},
{"point":[1268,883]},
{"point":[1268,882]},
{"point":[1269,881]},
{"point":[1269,880]},
{"point":[1270,879]},
{"point":[1270,878]},
{"point":[1272,876]},
{"point":[1272,874]},
{"point":[1274,872]},
{"point":[1274,870]},
{"point":[1277,867]},
{"point":[1277,865]},
{"point":[1279,863]},
{"point":[1279,859]},
{"point":[1275,859]},
{"point":[1271,863]},
{"point":[1270,863]},
{"point":[1268,865]},
{"point":[1267,865]},
{"point":[1265,867]},
{"point":[1263,867]},
{"point":[1261,869]},
{"point":[1258,869]},
{"point":[1257,870]},
{"point":[1256,870]},
{"point":[1254,872]},
{"point":[1253,872]},
{"point":[1251,874]},
{"point":[1251,879]},
{"point":[1250,880]},
{"point":[1249,879]},
{"point":[1249,866]},
{"point":[1248,865]},
{"point":[1244,865]},
{"point":[1243,866]},
{"point":[1243,871]},
{"point":[1242,872]},
{"point":[1242,874]},
{"point":[1243,875]},
{"point":[1243,880]},
{"point":[1242,881]},
{"point":[1241,881]},
{"point":[1240,882]},
{"point":[1239,882]},
{"point":[1238,881]},
{"point":[1237,881]},
{"point":[1236,880]},
{"point":[1236,872]},
{"point":[1235,872]},
{"point":[1232,869]},
{"point":[1232,868]},
{"point":[1231,868]},
{"point":[1229,866]},
{"point":[1229,865]},
{"point":[1228,865]},
{"point":[1226,863]},
{"point":[1224,863]},
{"point":[1223,862]},
{"point":[1223,861]},
{"point":[1222,860]},
{"point":[1221,860]},
{"point":[1213,852]}
],
"xScale" : 2448,"yScale" : 3264}