{"matchingPoints" : [{"point":[1144,682]},
{"point":[1193.13,1707.37]},
{"point":[41,682]},
{"point":[2296,682]},
{"point":[41,2479]},
{"point":[2296,2479]},
{"point":[1151.63,1675.36]},
{"point":[-96,745]},
{"point":[2400,745]},
{"point":[-96,2607]},
{"point":[2400,2607]},
{"point":[1159.38,1568.63]},
{"point":[-3,654]},
{"point":[2322,654]},
{"point":[-3,2485]},
{"point":[2322,2485]},
{"point":[1153.85,1803.88]}
],
"matchingPointsDescriptions" : [{"point":[0.46732,0.208946]},
{"point":[0.487388,0.523092]},
{"point":[0.0167484,0.208946]},
{"point":[0.937908,0.208946]},
{"point":[0.0167484,0.759498]},
{"point":[0.937908,0.759498]},
{"point":[0.470438,0.513285]},
{"point":[-0.0392157,0.228248]},
{"point":[0.980392,0.228248]},
{"point":[-0.0392157,0.798713]},
{"point":[0.980392,0.798713]},
{"point":[0.473601,0.480585]},
{"point":[-0.00122549,0.200368]},
{"point":[0.948529,0.200368]},
{"point":[-0.00122549,0.761336]},
{"point":[0.948529,0.761336]},
{"point":[0.471344,0.55266]}
],
"contour": [{"point":[1144,682]},
{"point":[1144,687]},
{"point":[1145,688]},
{"point":[1144,689]},
{"point":[1144,694]},
{"point":[1145,695]},
{"point":[1145,696]},
{"point":[1146,697]},
{"point":[1146,702]},
{"point":[1147,703]},
{"point":[1147,704]},
{"point":[1148,705]},
{"point":[1148,710]},
{"point":[1150,712]},
{"point":[1150,716]},
{"point":[1151,716]},
{"point":[1153,718]},
{"point":[1153,721]},
{"point":[1154,722]},
{"point":[1155,722]},
{"point":[1156,723]},
{"point":[1156,724]},
{"point":[1158,726]},
{"point":[1158,727]},
{"point":[1159,727]},
{"point":[1163,731]},
{"point":[1164,731]},
{"point":[1166,733]},
{"point":[1166,739]},
{"point":[1168,741]},
{"point":[1168,743]},
{"point":[1170,745]},
{"point":[1173,745]},
{"point":[1174,746]},
{"point":[1175,746]},
{"point":[1176,747]},
{"point":[1181,747]},
{"point":[1182,748]},
{"point":[1181,749]},
{"point":[1180,749]},
{"point":[1178,751]},
{"point":[1178,754]},
{"point":[1177,755]},
{"point":[1176,755]},
{"point":[1175,756]},
{"point":[1174,756]},
{"point":[1170,760]},
{"point":[1170,761]},
{"point":[1169,762]},
{"point":[1168,762]},
{"point":[1166,764]},
{"point":[1166,765]},
{"point":[1165,766]},
{"point":[1165,769]},
{"point":[1164,770]},
{"point":[1164,787]},
{"point":[1165,788]},
{"point":[1165,794]},
{"point":[1169,798]},
{"point":[1169,801]},
{"point":[1170,801]},
{"point":[1175,806]},
{"point":[1175,808]},
{"point":[1177,808]},
{"point":[1178,809]},
{"point":[1179,809]},
{"point":[1180,810]},
{"point":[1181,810]},
{"point":[1182,811]},
{"point":[1184,811]},
{"point":[1185,812]},
{"point":[1184,813]},
{"point":[1183,813]},
{"point":[1183,819]},
{"point":[1185,821]},
{"point":[1185,844]},
{"point":[1184,845]},
{"point":[1184,855]},
{"point":[1180,859]},
{"point":[1179,859]},
{"point":[1170,868]},
{"point":[1169,868]},
{"point":[1161,876]},
{"point":[1160,876]},
{"point":[1153,883]},
{"point":[1153,884]},
{"point":[1151,886]},
{"point":[1151,887]},
{"point":[1149,889]},
{"point":[1149,901]},
{"point":[1150,902]},
{"point":[1150,905]},
{"point":[1151,906]},
{"point":[1151,908]},
{"point":[1152,909]},
{"point":[1152,917]},
{"point":[1151,918]},
{"point":[1150,918]},
{"point":[1149,919]},
{"point":[1145,919]},
{"point":[1142,916]},
{"point":[1142,915]},
{"point":[1141,914]},
{"point":[1141,913]},
{"point":[1140,912]},
{"point":[1140,900]},
{"point":[1139,899]},
{"point":[1139,897]},
{"point":[1136,894]},
{"point":[1135,894]},
{"point":[1134,893]},
{"point":[1124,893]},
{"point":[1122,895]},
{"point":[1120,895]},
{"point":[1117,898]},
{"point":[1117,900]},
{"point":[1116,901]},
{"point":[1116,903]},
{"point":[1115,904]},
{"point":[1115,906]},
{"point":[1114,907]},
{"point":[1114,912]},
{"point":[1113,913]},
{"point":[1113,916]},
{"point":[1112,917]},
{"point":[1112,924]},
{"point":[1111,925]},
{"point":[1108,922]},
{"point":[1108,920]},
{"point":[1105,917]},
{"point":[1105,913]},
{"point":[1104,912]},
{"point":[1104,910]},
{"point":[1103,909]},
{"point":[1103,907]},
{"point":[1102,906]},
{"point":[1102,902]},
{"point":[1101,901]},
{"point":[1101,899]},
{"point":[1100,898]},
{"point":[1100,894]},
{"point":[1099,893]},
{"point":[1099,889]},
{"point":[1098,888]},
{"point":[1098,885]},
{"point":[1097,884]},
{"point":[1097,881]},
{"point":[1096,880]},
{"point":[1096,877]},
{"point":[1095,876]},
{"point":[1095,874]},
{"point":[1094,873]},
{"point":[1094,871]},
{"point":[1093,870]},
{"point":[1093,866]},
{"point":[1092,865]},
{"point":[1092,863]},
{"point":[1091,862]},
{"point":[1091,860]},
{"point":[1090,859]},
{"point":[1090,858]},
{"point":[1089,857]},
{"point":[1089,854]},
{"point":[1088,853]},
{"point":[1088,851]},
{"point":[1087,850]},
{"point":[1087,848]},
{"point":[1086,847]},
{"point":[1086,845]},
{"point":[1084,843]},
{"point":[1084,842]},
{"point":[1081,839]},
{"point":[1081,837]},
{"point":[1080,836]},
{"point":[1080,832]},
{"point":[1079,831]},
{"point":[1079,830]},
{"point":[1078,829]},
{"point":[1074,829]},
{"point":[1074,830]},
{"point":[1072,832]},
{"point":[1071,832]},
{"point":[1070,833]},
{"point":[1067,833]},
{"point":[1066,834]},
{"point":[1065,834]},
{"point":[1064,835]},
{"point":[1062,833]},
{"point":[1057,833]},
{"point":[1057,839]},
{"point":[1058,840]},
{"point":[1058,841]},
{"point":[1060,843]},
{"point":[1060,844]},
{"point":[1061,845]},
{"point":[1061,846]},
{"point":[1059,848]},
{"point":[1059,849]},
{"point":[1058,850]},
{"point":[1058,851]},
{"point":[1057,852]},
{"point":[1057,861]},
{"point":[1059,863]},
{"point":[1059,864]},
{"point":[1060,865]},
{"point":[1060,869]},
{"point":[1061,870]},
{"point":[1061,875]},
{"point":[1062,876]},
{"point":[1062,877]},
{"point":[1063,878]},
{"point":[1063,879]},
{"point":[1062,880]},
{"point":[1062,885]},
{"point":[1063,886]},
{"point":[1063,888]},
{"point":[1064,889]},
{"point":[1064,890]},
{"point":[1063,891]},
{"point":[1063,893]},
{"point":[1062,894]},
{"point":[1062,907]},
{"point":[1063,908]},
{"point":[1063,913]},
{"point":[1064,914]},
{"point":[1064,917]},
{"point":[1065,918]},
{"point":[1065,919]},
{"point":[1064,920]},
{"point":[1064,921]},
{"point":[1063,922]},
{"point":[1063,923]},
{"point":[1062,924]},
{"point":[1062,925]},
{"point":[1060,927]},
{"point":[1060,928]},
{"point":[1058,930]},
{"point":[1058,931]},
{"point":[1057,932]},
{"point":[1057,933]},
{"point":[1053,937]},
{"point":[1048,937]},
{"point":[1047,938]},
{"point":[1047,952]},
{"point":[1048,953]},
{"point":[1045,956]},
{"point":[1045,958]},
{"point":[1044,959]},
{"point":[1044,963]},
{"point":[1045,964]},
{"point":[1045,970]},
{"point":[1046,971]},
{"point":[1045,972]},
{"point":[1045,974]},
{"point":[1044,975]},
{"point":[1044,986]},
{"point":[1045,987]},
{"point":[1045,988]},
{"point":[1046,989]},
{"point":[1046,992]},
{"point":[1047,993]},
{"point":[1047,1012]},
{"point":[1048,1013]},
{"point":[1048,1016]},
{"point":[1049,1017]},
{"point":[1049,1018]},
{"point":[1050,1019]},
{"point":[1050,1022]},
{"point":[1051,1023]},
{"point":[1051,1025]},
{"point":[1052,1026]},
{"point":[1052,1027]},
{"point":[1053,1028]},
{"point":[1052,1029]},
{"point":[1050,1029]},
{"point":[1049,1028]},
{"point":[1043,1028]},
{"point":[1042,1027]},
{"point":[1037,1027]},
{"point":[1036,1026]},
{"point":[1030,1026]},
{"point":[1029,1025]},
{"point":[1028,1025]},
{"point":[1027,1024]},
{"point":[1022,1024]},
{"point":[1021,1025]},
{"point":[1021,1026]},
{"point":[1019,1028]},
{"point":[1019,1029]},
{"point":[1018,1030]},
{"point":[1018,1031]},
{"point":[1016,1033]},
{"point":[1016,1034]},
{"point":[1015,1035]},
{"point":[1015,1036]},
{"point":[1013,1038]},
{"point":[1013,1039]},
{"point":[1011,1041]},
{"point":[1008,1041]},
{"point":[1006,1039]},
{"point":[1001,1039]},
{"point":[1000,1040]},
{"point":[1000,1041]},
{"point":[999,1042]},
{"point":[999,1043]},
{"point":[997,1045]},
{"point":[997,1046]},
{"point":[996,1047]},
{"point":[996,1048]},
{"point":[994,1050]},
{"point":[994,1051]},
{"point":[993,1052]},
{"point":[993,1053]},
{"point":[991,1055]},
{"point":[991,1056]},
{"point":[990,1057]},
{"point":[990,1058]},
{"point":[988,1060]},
{"point":[988,1061]},
{"point":[986,1063]},
{"point":[986,1064]},
{"point":[985,1065]},
{"point":[985,1066]},
{"point":[983,1068]},
{"point":[983,1069]},
{"point":[982,1070]},
{"point":[982,1071]},
{"point":[981,1072]},
{"point":[980,1072]},
{"point":[980,1073]},
{"point":[979,1074]},
{"point":[979,1076]},
{"point":[977,1078]},
{"point":[977,1079]},
{"point":[976,1080]},
{"point":[976,1081]},
{"point":[973,1084]},
{"point":[971,1084]},
{"point":[970,1085]},
{"point":[969,1085]},
{"point":[968,1084]},
{"point":[959,1084]},
{"point":[958,1083]},
{"point":[951,1083]},
{"point":[950,1082]},
{"point":[945,1082]},
{"point":[944,1081]},
{"point":[938,1081]},
{"point":[937,1080]},
{"point":[931,1080]},
{"point":[930,1079]},
{"point":[923,1079]},
{"point":[922,1078]},
{"point":[917,1078]},
{"point":[916,1077]},
{"point":[910,1077]},
{"point":[909,1076]},
{"point":[902,1076]},
{"point":[901,1075]},
{"point":[895,1075]},
{"point":[894,1074]},
{"point":[888,1074]},
{"point":[887,1073]},
{"point":[882,1073]},
{"point":[881,1072]},
{"point":[875,1072]},
{"point":[874,1071]},
{"point":[867,1071]},
{"point":[866,1070]},
{"point":[862,1070]},
{"point":[861,1069]},
{"point":[854,1069]},
{"point":[853,1068]},
{"point":[848,1068]},
{"point":[847,1067]},
{"point":[838,1067]},
{"point":[837,1066]},
{"point":[832,1066]},
{"point":[831,1065]},
{"point":[825,1065]},
{"point":[824,1064]},
{"point":[819,1064]},
{"point":[818,1063]},
{"point":[811,1063]},
{"point":[810,1062]},
{"point":[804,1062]},
{"point":[803,1061]},
{"point":[798,1061]},
{"point":[797,1060]},
{"point":[792,1060]},
{"point":[791,1059]},
{"point":[785,1059]},
{"point":[784,1058]},
{"point":[778,1058]},
{"point":[777,1057]},
{"point":[773,1057]},
{"point":[772,1056]},
{"point":[764,1056]},
{"point":[763,1055]},
{"point":[758,1055]},
{"point":[757,1054]},
{"point":[750,1054]},
{"point":[749,1053]},
{"point":[745,1053]},
{"point":[744,1052]},
{"point":[737,1052]},
{"point":[736,1051]},
{"point":[730,1051]},
{"point":[729,1050]},
{"point":[725,1050]},
{"point":[724,1049]},
{"point":[717,1049]},
{"point":[716,1048]},
{"point":[714,1048]},
{"point":[713,1047]},
{"point":[705,1047]},
{"point":[704,1046]},
{"point":[697,1046]},
{"point":[696,1045]},
{"point":[689,1045]},
{"point":[688,1044]},
{"point":[686,1044]},
{"point":[685,1043]},
{"point":[676,1043]},
{"point":[675,1042]},
{"point":[668,1042]},
{"point":[667,1041]},
{"point":[661,1041]},
{"point":[660,1040]},
{"point":[655,1040]},
{"point":[654,1039]},
{"point":[648,1039]},
{"point":[647,1038]},
{"point":[641,1038]},
{"point":[640,1037]},
{"point":[633,1037]},
{"point":[632,1036]},
{"point":[626,1036]},
{"point":[625,1035]},
{"point":[618,1035]},
{"point":[617,1034]},
{"point":[613,1034]},
{"point":[612,1033]},
{"point":[606,1033]},
{"point":[605,1032]},
{"point":[599,1032]},
{"point":[598,1031]},
{"point":[595,1031]},
{"point":[594,1030]},
{"point":[587,1030]},
{"point":[586,1029]},
{"point":[580,1029]},
{"point":[579,1028]},
{"point":[575,1028]},
{"point":[574,1027]},
{"point":[568,1027]},
{"point":[567,1026]},
{"point":[565,1026]},
{"point":[564,1025]},
{"point":[556,1025]},
{"point":[555,1024]},
{"point":[549,1024]},
{"point":[548,1023]},
{"point":[540,1023]},
{"point":[539,1022]},
{"point":[535,1022]},
{"point":[534,1021]},
{"point":[527,1021]},
{"point":[526,1020]},
{"point":[519,1020]},
{"point":[518,1019]},
{"point":[510,1019]},
{"point":[509,1018]},
{"point":[503,1018]},
{"point":[502,1017]},
{"point":[496,1017]},
{"point":[495,1016]},
{"point":[489,1016]},
{"point":[488,1015]},
{"point":[481,1015]},
{"point":[480,1014]},
{"point":[473,1014]},
{"point":[472,1013]},
{"point":[466,1013]},
{"point":[465,1012]},
{"point":[462,1012]},
{"point":[461,1011]},
{"point":[451,1011]},
{"point":[450,1010]},
{"point":[448,1010]},
{"point":[447,1009]},
{"point":[440,1009]},
{"point":[439,1008]},
{"point":[432,1008]},
{"point":[431,1007]},
{"point":[425,1007]},
{"point":[424,1006]},
{"point":[416,1006]},
{"point":[415,1005]},
{"point":[410,1005]},
{"point":[409,1004]},
{"point":[406,1004]},
{"point":[405,1003]},
{"point":[397,1003]},
{"point":[396,1002]},
{"point":[392,1002]},
{"point":[391,1001]},
{"point":[382,1001]},
{"point":[381,1000]},
{"point":[377,1000]},
{"point":[376,999]},
{"point":[371,999]},
{"point":[370,998]},
{"point":[363,998]},
{"point":[362,997]},
{"point":[355,997]},
{"point":[354,996]},
{"point":[348,996]},
{"point":[347,995]},
{"point":[342,995]},
{"point":[341,994]},
{"point":[335,994]},
{"point":[334,993]},
{"point":[329,993]},
{"point":[328,992]},
{"point":[322,992]},
{"point":[321,991]},
{"point":[315,991]},
{"point":[314,990]},
{"point":[311,990]},
{"point":[310,989]},
{"point":[301,989]},
{"point":[300,988]},
{"point":[294,988]},
{"point":[293,987]},
{"point":[288,987]},
{"point":[287,986]},
{"point":[280,986]},
{"point":[279,985]},
{"point":[275,985]},
{"point":[274,984]},
{"point":[267,984]},
{"point":[266,983]},
{"point":[260,983]},
{"point":[259,982]},
{"point":[253,982]},
{"point":[252,981]},
{"point":[245,981]},
{"point":[244,980]},
{"point":[238,980]},
{"point":[237,979]},
{"point":[232,979]},
{"point":[231,978]},
{"point":[223,978]},
{"point":[222,977]},
{"point":[214,977]},
{"point":[213,976]},
{"point":[211,976]},
{"point":[210,975]},
{"point":[201,975]},
{"point":[200,974]},
{"point":[194,974]},
{"point":[193,973]},
{"point":[185,973]},
{"point":[184,972]},
{"point":[177,972]},
{"point":[176,971]},
{"point":[172,971]},
{"point":[171,970]},
{"point":[170,970]},
{"point":[169,969]},
{"point":[164,969]},
{"point":[164,992]},
{"point":[163,993]},
{"point":[163,997]},
{"point":[164,998]},
{"point":[164,999]},
{"point":[163,1000]},
{"point":[163,1056]},
{"point":[162,1057]},
{"point":[162,1123]},
{"point":[161,1124]},
{"point":[150,1124]},
{"point":[149,1123]},
{"point":[142,1123]},
{"point":[141,1122]},
{"point":[134,1122]},
{"point":[134,1123]},
{"point":[133,1124]},
{"point":[130,1124]},
{"point":[129,1123]},
{"point":[126,1123]},
{"point":[125,1122]},
{"point":[124,1122]},
{"point":[123,1121]},
{"point":[117,1121]},
{"point":[116,1122]},
{"point":[113,1122]},
{"point":[112,1121]},
{"point":[105,1121]},
{"point":[104,1120]},
{"point":[97,1120]},
{"point":[96,1119]},
{"point":[95,1119]},
{"point":[94,1118]},
{"point":[86,1118]},
{"point":[85,1119]},
{"point":[85,1127]},
{"point":[86,1128]},
{"point":[86,1144]},
{"point":[87,1145]},
{"point":[87,1160]},
{"point":[88,1161]},
{"point":[88,1174]},
{"point":[89,1175]},
{"point":[89,1191]},
{"point":[90,1192]},
{"point":[90,1211]},
{"point":[91,1212]},
{"point":[91,1217]},
{"point":[90,1218]},
{"point":[90,1225]},
{"point":[91,1226]},
{"point":[91,1230]},
{"point":[92,1231]},
{"point":[92,1248]},
{"point":[93,1249]},
{"point":[93,1269]},
{"point":[94,1270]},
{"point":[94,1285]},
{"point":[95,1286]},
{"point":[95,1304]},
{"point":[96,1305]},
{"point":[96,1322]},
{"point":[97,1323]},
{"point":[97,1341]},
{"point":[98,1342]},
{"point":[98,1365]},
{"point":[99,1366]},
{"point":[99,1369]},
{"point":[98,1370]},
{"point":[98,1376]},
{"point":[99,1377]},
{"point":[99,1386]},
{"point":[100,1387]},
{"point":[100,1410]},
{"point":[101,1411]},
{"point":[101,1420]},
{"point":[102,1421]},
{"point":[102,1443]},
{"point":[107,1448]},
{"point":[107,1449]},
{"point":[108,1450]},
{"point":[108,1451]},
{"point":[109,1452]},
{"point":[110,1452]},
{"point":[111,1453]},
{"point":[112,1453]},
{"point":[113,1454]},
{"point":[119,1454]},
{"point":[121,1456]},
{"point":[121,1460]},
{"point":[122,1460]},
{"point":[123,1461]},
{"point":[125,1461]},
{"point":[126,1462]},
{"point":[126,1463]},
{"point":[127,1464]},
{"point":[127,1475]},
{"point":[126,1476]},
{"point":[126,1479]},
{"point":[128,1479]},
{"point":[130,1481]},
{"point":[130,1483]},
{"point":[140,1483]},
{"point":[141,1484]},
{"point":[150,1484]},
{"point":[151,1485]},
{"point":[154,1485]},
{"point":[155,1484]},
{"point":[156,1485]},
{"point":[157,1485]},
{"point":[158,1486]},
{"point":[158,1499]},
{"point":[157,1500]},
{"point":[157,1512]},
{"point":[156,1513]},
{"point":[156,1524]},
{"point":[155,1525]},
{"point":[155,1535]},
{"point":[154,1536]},
{"point":[154,1543]},
{"point":[151,1546]},
{"point":[148,1546]},
{"point":[147,1545]},
{"point":[130,1545]},
{"point":[129,1544]},
{"point":[124,1544]},
{"point":[124,1545]},
{"point":[123,1546]},
{"point":[123,1553]},
{"point":[122,1554]},
{"point":[122,1564]},
{"point":[121,1565]},
{"point":[121,1576]},
{"point":[120,1577]},
{"point":[120,1586]},
{"point":[119,1587]},
{"point":[119,1598]},
{"point":[118,1599]},
{"point":[118,1609]},
{"point":[117,1610]},
{"point":[117,1620]},
{"point":[116,1621]},
{"point":[116,1631]},
{"point":[115,1632]},
{"point":[115,1642]},
{"point":[114,1643]},
{"point":[114,1653]},
{"point":[113,1654]},
{"point":[113,1664]},
{"point":[112,1665]},
{"point":[112,1675]},
{"point":[111,1676]},
{"point":[111,1687]},
{"point":[110,1688]},
{"point":[110,1698]},
{"point":[109,1699]},
{"point":[109,1709]},
{"point":[108,1710]},
{"point":[108,1720]},
{"point":[107,1721]},
{"point":[107,1731]},
{"point":[106,1732]},
{"point":[106,1742]},
{"point":[105,1743]},
{"point":[105,1753]},
{"point":[104,1754]},
{"point":[104,1764]},
{"point":[103,1765]},
{"point":[103,1775]},
{"point":[102,1776]},
{"point":[102,1786]},
{"point":[101,1787]},
{"point":[101,1798]},
{"point":[100,1799]},
{"point":[100,1809]},
{"point":[99,1810]},
{"point":[99,1820]},
{"point":[98,1821]},
{"point":[98,1831]},
{"point":[97,1832]},
{"point":[97,1842]},
{"point":[96,1843]},
{"point":[96,1853]},
{"point":[95,1854]},
{"point":[95,1864]},
{"point":[94,1865]},
{"point":[94,1875]},
{"point":[93,1876]},
{"point":[93,1887]},
{"point":[92,1888]},
{"point":[92,1897]},
{"point":[91,1898]},
{"point":[91,1909]},
{"point":[90,1910]},
{"point":[90,1920]},
{"point":[89,1921]},
{"point":[89,1931]},
{"point":[88,1932]},
{"point":[88,1942]},
{"point":[87,1943]},
{"point":[87,1953]},
{"point":[86,1954]},
{"point":[86,1964]},
{"point":[85,1965]},
{"point":[85,1975]},
{"point":[84,1976]},
{"point":[84,1986]},
{"point":[83,1987]},
{"point":[83,1997]},
{"point":[82,1998]},
{"point":[82,2009]},
{"point":[81,2010]},
{"point":[81,2020]},
{"point":[80,2021]},
{"point":[80,2031]},
{"point":[79,2032]},
{"point":[79,2042]},
{"point":[78,2043]},
{"point":[78,2053]},
{"point":[77,2054]},
{"point":[77,2064]},
{"point":[76,2065]},
{"point":[76,2075]},
{"point":[75,2076]},
{"point":[75,2086]},
{"point":[74,2087]},
{"point":[74,2097]},
{"point":[73,2098]},
{"point":[73,2108]},
{"point":[72,2109]},
{"point":[72,2120]},
{"point":[71,2121]},
{"point":[71,2131]},
{"point":[70,2132]},
{"point":[70,2142]},
{"point":[69,2143]},
{"point":[69,2153]},
{"point":[68,2154]},
{"point":[68,2164]},
{"point":[67,2165]},
{"point":[67,2175]},
{"point":[66,2176]},
{"point":[66,2186]},
{"point":[65,2187]},
{"point":[65,2197]},
{"point":[64,2198]},
{"point":[64,2208]},
{"point":[63,2209]},
{"point":[63,2220]},
{"point":[62,2221]},
{"point":[62,2231]},
{"point":[61,2232]},
{"point":[61,2242]},
{"point":[60,2243]},
{"point":[60,2253]},
{"point":[59,2254]},
{"point":[59,2264]},
{"point":[58,2265]},
{"point":[58,2275]},
{"point":[57,2276]},
{"point":[57,2286]},
{"point":[56,2287]},
{"point":[56,2297]},
{"point":[55,2298]},
{"point":[55,2308]},
{"point":[54,2309]},
{"point":[54,2320]},
{"point":[53,2321]},
{"point":[53,2331]},
{"point":[52,2332]},
{"point":[52,2342]},
{"point":[51,2343]},
{"point":[51,2353]},
{"point":[50,2354]},
{"point":[50,2365]},
{"point":[49,2366]},
{"point":[49,2375]},
{"point":[48,2376]},
{"point":[48,2386]},
{"point":[47,2387]},
{"point":[47,2397]},
{"point":[46,2398]},
{"point":[46,2408]},
{"point":[45,2409]},
{"point":[45,2420]},
{"point":[44,2421]},
{"point":[44,2431]},
{"point":[43,2432]},
{"point":[43,2442]},
{"point":[42,2443]},
{"point":[42,2453]},
{"point":[41,2454]},
{"point":[41,2466]},
{"point":[42,2467]},
{"point":[57,2467]},
{"point":[58,2468]},
{"point":[75,2468]},
{"point":[76,2469]},
{"point":[92,2469]},
{"point":[93,2470]},
{"point":[109,2470]},
{"point":[110,2471]},
{"point":[125,2471]},
{"point":[126,2472]},
{"point":[143,2472]},
{"point":[144,2473]},
{"point":[160,2473]},
{"point":[161,2474]},
{"point":[176,2474]},
{"point":[177,2475]},
{"point":[193,2475]},
{"point":[194,2476]},
{"point":[211,2476]},
{"point":[212,2477]},
{"point":[227,2477]},
{"point":[228,2478]},
{"point":[247,2478]},
{"point":[247,2468]},
{"point":[248,2467]},
{"point":[248,2458]},
{"point":[249,2457]},
{"point":[249,2447]},
{"point":[250,2446]},
{"point":[250,2433]},
{"point":[251,2432]},
{"point":[251,2422]},
{"point":[252,2421]},
{"point":[252,2415]},
{"point":[253,2414]},
{"point":[253,2403]},
{"point":[254,2402]},
{"point":[254,2394]},
{"point":[255,2393]},
{"point":[255,2383]},
{"point":[256,2382]},
{"point":[256,2372]},
{"point":[257,2371]},
{"point":[257,2361]},
{"point":[258,2360]},
{"point":[258,2351]},
{"point":[259,2350]},
{"point":[259,2339]},
{"point":[260,2338]},
{"point":[260,2329]},
{"point":[261,2328]},
{"point":[261,2323]},
{"point":[257,2323]},
{"point":[256,2322]},
{"point":[256,2307]},
{"point":[257,2306]},
{"point":[257,2291]},
{"point":[258,2290]},
{"point":[258,2286]},
{"point":[260,2284]},
{"point":[265,2284]},
{"point":[265,2280]},
{"point":[260,2280]},
{"point":[258,2278]},
{"point":[258,2273]},
{"point":[259,2272]},
{"point":[259,2263]},
{"point":[260,2262]},
{"point":[260,2249]},
{"point":[261,2248]},
{"point":[261,2234]},
{"point":[262,2233]},
{"point":[262,2229]},
{"point":[261,2228]},
{"point":[262,2227]},
{"point":[262,2213]},
{"point":[263,2212]},
{"point":[263,2198]},
{"point":[264,2197]},
{"point":[264,2182]},
{"point":[265,2181]},
{"point":[265,2167]},
{"point":[266,2166]},
{"point":[266,2151]},
{"point":[267,2150]},
{"point":[267,2134]},
{"point":[268,2133]},
{"point":[268,2117]},
{"point":[269,2116]},
{"point":[269,2099]},
{"point":[270,2098]},
{"point":[270,2086]},
{"point":[271,2085]},
{"point":[271,2064]},
{"point":[272,2063]},
{"point":[272,2048]},
{"point":[273,2047]},
{"point":[273,2034]},
{"point":[274,2033]},
{"point":[274,2019]},
{"point":[275,2018]},
{"point":[275,2000]},
{"point":[276,1999]},
{"point":[276,1983]},
{"point":[277,1982]},
{"point":[277,1973]},
{"point":[278,1972]},
{"point":[278,1960]},
{"point":[279,1959]},
{"point":[279,1945]},
{"point":[280,1944]},
{"point":[280,1927]},
{"point":[281,1926]},
{"point":[281,1915]},
{"point":[282,1914]},
{"point":[282,1910]},
{"point":[283,1909]},
{"point":[283,1908]},
{"point":[284,1907]},
{"point":[284,1895]},
{"point":[283,1894]},
{"point":[283,1872]},
{"point":[284,1871]},
{"point":[284,1859]},
{"point":[285,1858]},
{"point":[285,1843]},
{"point":[286,1842]},
{"point":[286,1827]},
{"point":[287,1826]},
{"point":[287,1804]},
{"point":[288,1803]},
{"point":[288,1785]},
{"point":[289,1784]},
{"point":[289,1768]},
{"point":[290,1767]},
{"point":[290,1751]},
{"point":[291,1750]},
{"point":[291,1733]},
{"point":[292,1732]},
{"point":[292,1723]},
{"point":[295,1720]},
{"point":[295,1716]},
{"point":[294,1715]},
{"point":[294,1714]},
{"point":[293,1713]},
{"point":[293,1711]},
{"point":[294,1710]},
{"point":[294,1700]},
{"point":[295,1699]},
{"point":[295,1687]},
{"point":[296,1686]},
{"point":[296,1675]},
{"point":[297,1674]},
{"point":[297,1658]},
{"point":[298,1657]},
{"point":[298,1639]},
{"point":[299,1638]},
{"point":[299,1626]},
{"point":[300,1625]},
{"point":[300,1613]},
{"point":[302,1611]},
{"point":[314,1611]},
{"point":[315,1612]},
{"point":[329,1612]},
{"point":[330,1613]},
{"point":[347,1613]},
{"point":[348,1614]},
{"point":[360,1614]},
{"point":[361,1615]},
{"point":[380,1615]},
{"point":[381,1616]},
{"point":[393,1616]},
{"point":[394,1617]},
{"point":[413,1617]},
{"point":[414,1618]},
{"point":[426,1618]},
{"point":[427,1619]},
{"point":[445,1619]},
{"point":[446,1620]},
{"point":[458,1620]},
{"point":[459,1621]},
{"point":[484,1621]},
{"point":[485,1622]},
{"point":[498,1622]},
{"point":[499,1623]},
{"point":[511,1623]},
{"point":[512,1624]},
{"point":[512,1625]},
{"point":[511,1626]},
{"point":[511,1631]},
{"point":[510,1632]},
{"point":[510,1641]},
{"point":[523,1641]},
{"point":[525,1643]},
{"point":[526,1643]},
{"point":[530,1647]},
{"point":[530,1667]},
{"point":[529,1668]},
{"point":[529,1692]},
{"point":[528,1693]},
{"point":[528,1719]},
{"point":[527,1720]},
{"point":[527,1736]},
{"point":[526,1737]},
{"point":[526,1759]},
{"point":[525,1760]},
{"point":[525,1775]},
{"point":[524,1776]},
{"point":[524,1791]},
{"point":[523,1792]},
{"point":[523,1807]},
{"point":[522,1808]},
{"point":[522,1827]},
{"point":[521,1828]},
{"point":[521,1843]},
{"point":[520,1844]},
{"point":[520,1868]},
{"point":[519,1869]},
{"point":[519,1881]},
{"point":[518,1882]},
{"point":[518,1899]},
{"point":[517,1900]},
{"point":[517,1917]},
{"point":[516,1918]},
{"point":[516,1935]},
{"point":[515,1936]},
{"point":[515,1955]},
{"point":[514,1956]},
{"point":[514,1976]},
{"point":[513,1977]},
{"point":[513,1991]},
{"point":[512,1992]},
{"point":[512,2013]},
{"point":[511,2014]},
{"point":[511,2027]},
{"point":[510,2028]},
{"point":[510,2049]},
{"point":[509,2050]},
{"point":[509,2066]},
{"point":[508,2067]},
{"point":[508,2087]},
{"point":[507,2088]},
{"point":[507,2104]},
{"point":[506,2105]},
{"point":[506,2121]},
{"point":[505,2122]},
{"point":[505,2141]},
{"point":[504,2142]},
{"point":[504,2166]},
{"point":[503,2167]},
{"point":[503,2188]},
{"point":[502,2189]},
{"point":[502,2212]},
{"point":[501,2213]},
{"point":[501,2231]},
{"point":[500,2232]},
{"point":[500,2255]},
{"point":[499,2256]},
{"point":[499,2266]},
{"point":[498,2267]},
{"point":[498,2274]},
{"point":[497,2275]},
{"point":[484,2275]},
{"point":[484,2279]},
{"point":[483,2280]},
{"point":[483,2295]},
{"point":[482,2296]},
{"point":[482,2309]},
{"point":[481,2310]},
{"point":[481,2325]},
{"point":[480,2326]},
{"point":[480,2341]},
{"point":[479,2342]},
{"point":[479,2357]},
{"point":[478,2358]},
{"point":[478,2373]},
{"point":[477,2374]},
{"point":[477,2388]},
{"point":[476,2389]},
{"point":[476,2407]},
{"point":[477,2408]},
{"point":[478,2408]},
{"point":[480,2410]},
{"point":[481,2410]},
{"point":[482,2411]},
{"point":[483,2411]},
{"point":[484,2412]},
{"point":[485,2412]},
{"point":[487,2414]},
{"point":[488,2414]},
{"point":[490,2416]},
{"point":[491,2416]},
{"point":[493,2418]},
{"point":[494,2418]},
{"point":[495,2419]},
{"point":[496,2419]},
{"point":[498,2421]},
{"point":[499,2421]},
{"point":[500,2422]},
{"point":[501,2422]},
{"point":[503,2424]},
{"point":[504,2424]},
{"point":[506,2426]},
{"point":[507,2426]},
{"point":[508,2427]},
{"point":[509,2427]},
{"point":[511,2429]},
{"point":[512,2429]},
{"point":[513,2430]},
{"point":[514,2430]},
{"point":[516,2432]},
{"point":[517,2432]},
{"point":[519,2434]},
{"point":[520,2434]},
{"point":[521,2435]},
{"point":[522,2435]},
{"point":[524,2437]},
{"point":[525,2437]},
{"point":[526,2438]},
{"point":[527,2438]},
{"point":[529,2440]},
{"point":[530,2440]},
{"point":[532,2442]},
{"point":[533,2442]},
{"point":[534,2443]},
{"point":[535,2443]},
{"point":[537,2445]},
{"point":[538,2445]},
{"point":[539,2446]},
{"point":[540,2446]},
{"point":[542,2448]},
{"point":[543,2448]},
{"point":[545,2450]},
{"point":[546,2450]},
{"point":[547,2451]},
{"point":[548,2451]},
{"point":[550,2453]},
{"point":[551,2453]},
{"point":[552,2454]},
{"point":[569,2454]},
{"point":[570,2453]},
{"point":[582,2453]},
{"point":[583,2452]},
{"point":[596,2452]},
{"point":[597,2451]},
{"point":[609,2451]},
{"point":[610,2450]},
{"point":[623,2450]},
{"point":[624,2449]},
{"point":[636,2449]},
{"point":[637,2448]},
{"point":[650,2448]},
{"point":[651,2447]},
{"point":[663,2447]},
{"point":[664,2446]},
{"point":[677,2446]},
{"point":[678,2445]},
{"point":[690,2445]},
{"point":[691,2444]},
{"point":[703,2444]},
{"point":[704,2443]},
{"point":[716,2443]},
{"point":[718,2441]},
{"point":[718,2382]},
{"point":[719,2381]},
{"point":[719,2322]},
{"point":[720,2321]},
{"point":[720,2262]},
{"point":[721,2261]},
{"point":[721,2138]},
{"point":[722,2137]},
{"point":[722,2095]},
{"point":[723,2094]},
{"point":[723,2030]},
{"point":[724,2029]},
{"point":[724,1912]},
{"point":[725,1911]},
{"point":[725,1908]},
{"point":[724,1907]},
{"point":[724,1902]},
{"point":[725,1901]},
{"point":[725,1899]},
{"point":[724,1898]},
{"point":[725,1897]},
{"point":[725,1894]},
{"point":[724,1893]},
{"point":[725,1892]},
{"point":[725,1758]},
{"point":[726,1757]},
{"point":[726,1750]},
{"point":[725,1749]},
{"point":[725,1735]},
{"point":[726,1734]},
{"point":[726,1641]},
{"point":[727,1640]},
{"point":[727,1639]},
{"point":[728,1638]},
{"point":[738,1638]},
{"point":[739,1639]},
{"point":[751,1639]},
{"point":[752,1640]},
{"point":[767,1640]},
{"point":[768,1641]},
{"point":[782,1641]},
{"point":[783,1642]},
{"point":[797,1642]},
{"point":[798,1643]},
{"point":[815,1643]},
{"point":[816,1644]},
{"point":[827,1644]},
{"point":[828,1645]},
{"point":[839,1645]},
{"point":[840,1646]},
{"point":[838,1648]},
{"point":[838,1661]},
{"point":[846,1661]},
{"point":[847,1662]},
{"point":[853,1662]},
{"point":[856,1665]},
{"point":[856,1666]},
{"point":[857,1666]},
{"point":[858,1667]},
{"point":[859,1667]},
{"point":[862,1670]},
{"point":[862,1671]},
{"point":[864,1673]},
{"point":[864,1701]},
{"point":[863,1702]},
{"point":[863,1719]},
{"point":[862,1720]},
{"point":[862,1747]},
{"point":[861,1748]},
{"point":[861,1763]},
{"point":[860,1764]},
{"point":[860,1792]},
{"point":[859,1793]},
{"point":[859,1817]},
{"point":[858,1818]},
{"point":[858,1859]},
{"point":[857,1860]},
{"point":[857,1882]},
{"point":[856,1883]},
{"point":[856,1933]},
{"point":[855,1934]},
{"point":[855,1969]},
{"point":[854,1970]},
{"point":[854,2018]},
{"point":[853,2019]},
{"point":[853,2071]},
{"point":[852,2072]},
{"point":[852,2103]},
{"point":[851,2104]},
{"point":[851,2113]},
{"point":[850,2114]},
{"point":[849,2114]},
{"point":[848,2113]},
{"point":[846,2113]},
{"point":[844,2115]},
{"point":[844,2117]},
{"point":[845,2118]},
{"point":[845,2129]},
{"point":[846,2130]},
{"point":[846,2137]},
{"point":[847,2138]},
{"point":[847,2148]},
{"point":[848,2149]},
{"point":[848,2158]},
{"point":[849,2159]},
{"point":[849,2168]},
{"point":[850,2169]},
{"point":[850,2178]},
{"point":[851,2179]},
{"point":[851,2188]},
{"point":[852,2189]},
{"point":[852,2197]},
{"point":[853,2198]},
{"point":[853,2207]},
{"point":[854,2208]},
{"point":[854,2217]},
{"point":[855,2218]},
{"point":[855,2227]},
{"point":[856,2228]},
{"point":[856,2237]},
{"point":[857,2238]},
{"point":[857,2246]},
{"point":[858,2247]},
{"point":[858,2256]},
{"point":[859,2257]},
{"point":[859,2266]},
{"point":[860,2267]},
{"point":[860,2275]},
{"point":[861,2276]},
{"point":[861,2285]},
{"point":[862,2286]},
{"point":[862,2295]},
{"point":[863,2296]},
{"point":[863,2305]},
{"point":[864,2306]},
{"point":[864,2315]},
{"point":[865,2316]},
{"point":[865,2325]},
{"point":[866,2326]},
{"point":[866,2335]},
{"point":[867,2336]},
{"point":[867,2344]},
{"point":[868,2345]},
{"point":[868,2354]},
{"point":[869,2355]},
{"point":[869,2364]},
{"point":[870,2365]},
{"point":[870,2374]},
{"point":[871,2375]},
{"point":[871,2383]},
{"point":[872,2384]},
{"point":[872,2391]},
{"point":[873,2392]},
{"point":[873,2403]},
{"point":[874,2404]},
{"point":[874,2413]},
{"point":[875,2414]},
{"point":[875,2422]},
{"point":[876,2423]},
{"point":[876,2432]},
{"point":[877,2433]},
{"point":[877,2442]},
{"point":[880,2442]},
{"point":[881,2443]},
{"point":[907,2443]},
{"point":[908,2444]},
{"point":[934,2444]},
{"point":[935,2445]},
{"point":[962,2445]},
{"point":[963,2446]},
{"point":[991,2446]},
{"point":[992,2447]},
{"point":[1019,2447]},
{"point":[1020,2448]},
{"point":[1047,2448]},
{"point":[1048,2449]},
{"point":[1078,2449]},
{"point":[1079,2450]},
{"point":[1104,2450]},
{"point":[1105,2451]},
{"point":[1134,2451]},
{"point":[1135,2450]},
{"point":[1135,2448]},
{"point":[1134,2447]},
{"point":[1134,2445]},
{"point":[1135,2444]},
{"point":[1135,2438]},
{"point":[1134,2437]},
{"point":[1135,2436]},
{"point":[1135,2428]},
{"point":[1134,2427]},
{"point":[1135,2426]},
{"point":[1135,2419]},
{"point":[1134,2418]},
{"point":[1135,2417]},
{"point":[1135,2415]},
{"point":[1134,2414]},
{"point":[1134,2388]},
{"point":[1135,2387]},
{"point":[1135,2383]},
{"point":[1134,2382]},
{"point":[1134,2380]},
{"point":[1135,2379]},
{"point":[1135,2370]},
{"point":[1134,2369]},
{"point":[1135,2368]},
{"point":[1135,2351]},
{"point":[1134,2350]},
{"point":[1134,2349]},
{"point":[1135,2348]},
{"point":[1135,2340]},
{"point":[1134,2339]},
{"point":[1134,2337]},
{"point":[1135,2336]},
{"point":[1135,2333]},
{"point":[1134,2332]},
{"point":[1134,2329]},
{"point":[1135,2328]},
{"point":[1135,2326]},
{"point":[1134,2325]},
{"point":[1135,2324]},
{"point":[1135,2322]},
{"point":[1134,2321]},
{"point":[1134,2319]},
{"point":[1135,2318]},
{"point":[1135,2285]},
{"point":[1134,2284]},
{"point":[1134,2254]},
{"point":[1135,2253]},
{"point":[1135,2094]},
{"point":[1134,2093]},
{"point":[1134,2092]},
{"point":[1135,2091]},
{"point":[1135,2084]},
{"point":[1134,2083]},
{"point":[1135,2082]},
{"point":[1135,2079]},
{"point":[1134,2078]},
{"point":[1134,2076]},
{"point":[1135,2075]},
{"point":[1135,2045]},
{"point":[1134,2044]},
{"point":[1134,2037]},
{"point":[1135,2036]},
{"point":[1135,2023]},
{"point":[1134,2023]},
{"point":[1133,2022]},
{"point":[1133,2018]},
{"point":[1131,2016]},
{"point":[1131,2015]},
{"point":[1130,2014]},
{"point":[1130,1958]},
{"point":[1129,1957]},
{"point":[1129,1923]},
{"point":[1128,1922]},
{"point":[1128,1878]},
{"point":[1127,1877]},
{"point":[1127,1850]},
{"point":[1126,1849]},
{"point":[1126,1824]},
{"point":[1125,1823]},
{"point":[1125,1801]},
{"point":[1124,1800]},
{"point":[1124,1777]},
{"point":[1123,1776]},
{"point":[1123,1753]},
{"point":[1122,1752]},
{"point":[1122,1735]},
{"point":[1121,1734]},
{"point":[1121,1714]},
{"point":[1120,1713]},
{"point":[1120,1690]},
{"point":[1119,1689]},
{"point":[1119,1667]},
{"point":[1121,1665]},
{"point":[1126,1665]},
{"point":[1127,1666]},
{"point":[1139,1666]},
{"point":[1140,1667]},
{"point":[1157,1667]},
{"point":[1158,1668]},
{"point":[1168,1668]},
{"point":[1169,1669]},
{"point":[1186,1669]},
{"point":[1187,1670]},
{"point":[1201,1670]},
{"point":[1202,1671]},
{"point":[1218,1671]},
{"point":[1219,1672]},
{"point":[1229,1672]},
{"point":[1230,1673]},
{"point":[1238,1673]},
{"point":[1239,1674]},
{"point":[1236,1677]},
{"point":[1235,1677]},
{"point":[1235,1689]},
{"point":[1236,1690]},
{"point":[1252,1690]},
{"point":[1253,1691]},
{"point":[1254,1691]},
{"point":[1259,1696]},
{"point":[1260,1696]},
{"point":[1261,1697]},
{"point":[1262,1697]},
{"point":[1264,1699]},
{"point":[1264,1700]},
{"point":[1265,1701]},
{"point":[1265,1702]},
{"point":[1266,1703]},
{"point":[1266,1749]},
{"point":[1267,1750]},
{"point":[1267,1977]},
{"point":[1268,1978]},
{"point":[1267,1979]},
{"point":[1267,1981]},
{"point":[1268,1982]},
{"point":[1268,1995]},
{"point":[1267,1996]},
{"point":[1267,2002]},
{"point":[1268,2003]},
{"point":[1268,2023]},
{"point":[1269,2024]},
{"point":[1268,2025]},
{"point":[1268,2047]},
{"point":[1269,2048]},
{"point":[1269,2076]},
{"point":[1270,2077]},
{"point":[1270,2090]},
{"point":[1271,2091]},
{"point":[1271,2103]},
{"point":[1272,2104]},
{"point":[1272,2117]},
{"point":[1273,2118]},
{"point":[1273,2130]},
{"point":[1274,2131]},
{"point":[1274,2143]},
{"point":[1275,2144]},
{"point":[1275,2156]},
{"point":[1276,2157]},
{"point":[1276,2169]},
{"point":[1277,2170]},
{"point":[1277,2183]},
{"point":[1278,2184]},
{"point":[1278,2196]},
{"point":[1279,2197]},
{"point":[1279,2209]},
{"point":[1280,2210]},
{"point":[1280,2223]},
{"point":[1281,2224]},
{"point":[1281,2236]},
{"point":[1282,2237]},
{"point":[1282,2249]},
{"point":[1283,2250]},
{"point":[1283,2263]},
{"point":[1284,2264]},
{"point":[1284,2276]},
{"point":[1285,2277]},
{"point":[1285,2289]},
{"point":[1286,2290]},
{"point":[1286,2302]},
{"point":[1287,2303]},
{"point":[1287,2316]},
{"point":[1288,2317]},
{"point":[1288,2329]},
{"point":[1289,2330]},
{"point":[1289,2342]},
{"point":[1290,2343]},
{"point":[1290,2355]},
{"point":[1291,2356]},
{"point":[1291,2369]},
{"point":[1292,2370]},
{"point":[1292,2382]},
{"point":[1293,2383]},
{"point":[1293,2395]},
{"point":[1294,2396]},
{"point":[1294,2409]},
{"point":[1295,2410]},
{"point":[1295,2421]},
{"point":[1296,2422]},
{"point":[1296,2435]},
{"point":[1297,2436]},
{"point":[1297,2448]},
{"point":[1343,2448]},
{"point":[1344,2447]},
{"point":[1392,2447]},
{"point":[1393,2446]},
{"point":[1437,2446]},
{"point":[1438,2445]},
{"point":[1483,2445]},
{"point":[1484,2444]},
{"point":[1526,2444]},
{"point":[1527,2443]},
{"point":[1528,2444]},
{"point":[1530,2444]},
{"point":[1531,2443]},
{"point":[1574,2443]},
{"point":[1575,2442]},
{"point":[1621,2442]},
{"point":[1622,2441]},
{"point":[1670,2441]},
{"point":[1671,2440]},
{"point":[1714,2440]},
{"point":[1715,2439]},
{"point":[1760,2439]},
{"point":[1761,2438]},
{"point":[1807,2438]},
{"point":[1808,2437]},
{"point":[1853,2437]},
{"point":[1854,2436]},
{"point":[1899,2436]},
{"point":[1900,2435]},
{"point":[1945,2435]},
{"point":[1946,2434]},
{"point":[1992,2434]},
{"point":[1993,2433]},
{"point":[2038,2433]},
{"point":[2039,2432]},
{"point":[2084,2432]},
{"point":[2085,2431]},
{"point":[2129,2431]},
{"point":[2130,2430]},
{"point":[2176,2430]},
{"point":[2177,2429]},
{"point":[2218,2429]},
{"point":[2219,2428]},
{"point":[2267,2428]},
{"point":[2268,2427]},
{"point":[2279,2427]},
{"point":[2280,2428]},
{"point":[2287,2428]},
{"point":[2288,2427]},
{"point":[2289,2427]},
{"point":[2289,2417]},
{"point":[2288,2416]},
{"point":[2288,2409]},
{"point":[2287,2408]},
{"point":[2287,2401]},
{"point":[2286,2400]},
{"point":[2286,2392]},
{"point":[2285,2391]},
{"point":[2285,2384]},
{"point":[2284,2383]},
{"point":[2284,2375]},
{"point":[2283,2374]},
{"point":[2283,2367]},
{"point":[2282,2366]},
{"point":[2282,2358]},
{"point":[2281,2357]},
{"point":[2281,2350]},
{"point":[2280,2349]},
{"point":[2280,2342]},
{"point":[2279,2341]},
{"point":[2279,2333]},
{"point":[2278,2332]},
{"point":[2278,2325]},
{"point":[2277,2324]},
{"point":[2277,2316]},
{"point":[2276,2315]},
{"point":[2276,2308]},
{"point":[2275,2307]},
{"point":[2275,2299]},
{"point":[2274,2298]},
{"point":[2274,2291]},
{"point":[2273,2290]},
{"point":[2273,2282]},
{"point":[2272,2281]},
{"point":[2272,2274]},
{"point":[2271,2273]},
{"point":[2271,2266]},
{"point":[2270,2265]},
{"point":[2270,2257]},
{"point":[2269,2256]},
{"point":[2269,2249]},
{"point":[2268,2248]},
{"point":[2268,2241]},
{"point":[2267,2240]},
{"point":[2267,2232]},
{"point":[2266,2231]},
{"point":[2266,2223]},
{"point":[2265,2222]},
{"point":[2265,2215]},
{"point":[2264,2214]},
{"point":[2264,2206]},
{"point":[2263,2205]},
{"point":[2263,2198]},
{"point":[2262,2197]},
{"point":[2262,2190]},
{"point":[2261,2189]},
{"point":[2261,2181]},
{"point":[2260,2180]},
{"point":[2260,2173]},
{"point":[2259,2172]},
{"point":[2259,2164]},
{"point":[2258,2163]},
{"point":[2258,2156]},
{"point":[2257,2155]},
{"point":[2257,2147]},
{"point":[2256,2146]},
{"point":[2256,2139]},
{"point":[2255,2138]},
{"point":[2255,2130]},
{"point":[2254,2129]},
{"point":[2254,2122]},
{"point":[2253,2121]},
{"point":[2253,2113]},
{"point":[2252,2112]},
{"point":[2252,2105]},
{"point":[2251,2104]},
{"point":[2251,2097]},
{"point":[2250,2096]},
{"point":[2250,2088]},
{"point":[2249,2087]},
{"point":[2249,2080]},
{"point":[2248,2079]},
{"point":[2248,2072]},
{"point":[2247,2071]},
{"point":[2247,2063]},
{"point":[2246,2062]},
{"point":[2246,2054]},
{"point":[2245,2053]},
{"point":[2245,2046]},
{"point":[2244,2045]},
{"point":[2244,2038]},
{"point":[2243,2037]},
{"point":[2243,2029]},
{"point":[2242,2028]},
{"point":[2242,2021]},
{"point":[2241,2020]},
{"point":[2241,2012]},
{"point":[2240,2011]},
{"point":[2240,2004]},
{"point":[2239,2003]},
{"point":[2239,1995]},
{"point":[2238,1994]},
{"point":[2238,1987]},
{"point":[2237,1986]},
{"point":[2237,1978]},
{"point":[2236,1977]},
{"point":[2236,1970]},
{"point":[2235,1969]},
{"point":[2235,1961]},
{"point":[2234,1960]},
{"point":[2234,1953]},
{"point":[2233,1952]},
{"point":[2233,1945]},
{"point":[2232,1944]},
{"point":[2232,1936]},
{"point":[2231,1935]},
{"point":[2231,1928]},
{"point":[2230,1927]},
{"point":[2230,1919]},
{"point":[2229,1918]},
{"point":[2229,1911]},
{"point":[2228,1910]},
{"point":[2228,1902]},
{"point":[2227,1901]},
{"point":[2227,1894]},
{"point":[2226,1893]},
{"point":[2226,1885]},
{"point":[2225,1884]},
{"point":[2225,1877]},
{"point":[2224,1876]},
{"point":[2224,1869]},
{"point":[2223,1868]},
{"point":[2223,1860]},
{"point":[2222,1859]},
{"point":[2222,1851]},
{"point":[2221,1850]},
{"point":[2221,1843]},
{"point":[2220,1842]},
{"point":[2220,1834]},
{"point":[2219,1833]},
{"point":[2219,1825]},
{"point":[2218,1824]},
{"point":[2218,1818]},
{"point":[2217,1817]},
{"point":[2217,1809]},
{"point":[2216,1808]},
{"point":[2216,1802]},
{"point":[2215,1801]},
{"point":[2215,1797]},
{"point":[2214,1796]},
{"point":[2214,1787]},
{"point":[2213,1786]},
{"point":[2213,1777]},
{"point":[2212,1776]},
{"point":[2212,1769]},
{"point":[2211,1768]},
{"point":[2211,1765]},
{"point":[2210,1764]},
{"point":[2210,1755]},
{"point":[2209,1754]},
{"point":[2209,1747]},
{"point":[2208,1746]},
{"point":[2208,1738]},
{"point":[2207,1737]},
{"point":[2207,1732]},
{"point":[2206,1731]},
{"point":[2206,1725]},
{"point":[2205,1724]},
{"point":[2205,1719]},
{"point":[2204,1718]},
{"point":[2204,1710]},
{"point":[2203,1709]},
{"point":[2203,1702]},
{"point":[2202,1701]},
{"point":[2202,1690]},
{"point":[2201,1689]},
{"point":[2201,1684]},
{"point":[2200,1683]},
{"point":[2200,1674]},
{"point":[2199,1673]},
{"point":[2199,1665]},
{"point":[2198,1664]},
{"point":[2198,1657]},
{"point":[2197,1656]},
{"point":[2197,1645]},
{"point":[2196,1644]},
{"point":[2196,1638]},
{"point":[2195,1637]},
{"point":[2195,1629]},
{"point":[2194,1628]},
{"point":[2194,1619]},
{"point":[2193,1618]},
{"point":[2193,1608]},
{"point":[2192,1607]},
{"point":[2193,1606]},
{"point":[2193,1604]},
{"point":[2194,1603]},
{"point":[2194,1602]},
{"point":[2199,1597]},
{"point":[2200,1597]},
{"point":[2200,1596]},
{"point":[2202,1594]},
{"point":[2202,1592]},
{"point":[2203,1591]},
{"point":[2203,1590]},
{"point":[2204,1589]},
{"point":[2204,1588]},
{"point":[2206,1586]},
{"point":[2207,1586]},
{"point":[2208,1585]},
{"point":[2211,1585]},
{"point":[2212,1584]},
{"point":[2213,1584]},
{"point":[2214,1583]},
{"point":[2216,1583]},
{"point":[2217,1582]},
{"point":[2218,1582]},
{"point":[2219,1581]},
{"point":[2222,1581]},
{"point":[2224,1579]},
{"point":[2227,1579]},
{"point":[2228,1578]},
{"point":[2230,1578]},
{"point":[2231,1577]},
{"point":[2231,1573]},
{"point":[2230,1572]},
{"point":[2230,1563]},
{"point":[2229,1562]},
{"point":[2223,1562]},
{"point":[2222,1561]},
{"point":[2210,1561]},
{"point":[2209,1560]},
{"point":[2207,1560]},
{"point":[2204,1557]},
{"point":[2204,1549]},
{"point":[2203,1548]},
{"point":[2203,1540]},
{"point":[2202,1539]},
{"point":[2202,1530]},
{"point":[2201,1529]},
{"point":[2201,1521]},
{"point":[2203,1519]},
{"point":[2205,1519]},
{"point":[2206,1518]},
{"point":[2207,1518]},
{"point":[2209,1516]},
{"point":[2209,1509]},
{"point":[2204,1509]},
{"point":[2203,1508]},
{"point":[2202,1508]},
{"point":[2200,1506]},
{"point":[2200,1501]},
{"point":[2199,1500]},
{"point":[2199,1494]},
{"point":[2198,1493]},
{"point":[2198,1486]},
{"point":[2197,1485]},
{"point":[2197,1478]},
{"point":[2196,1477]},
{"point":[2196,1466]},
{"point":[2195,1465]},
{"point":[2196,1464]},
{"point":[2196,1462]},
{"point":[2197,1461]},
{"point":[2200,1461]},
{"point":[2201,1460]},
{"point":[2203,1460]},
{"point":[2205,1458]},
{"point":[2207,1458]},
{"point":[2210,1455]},
{"point":[2210,1454]},
{"point":[2211,1453]},
{"point":[2211,1452]},
{"point":[2214,1449]},
{"point":[2216,1449]},
{"point":[2217,1448]},
{"point":[2218,1448]},
{"point":[2219,1447]},
{"point":[2220,1447]},
{"point":[2221,1446]},
{"point":[2222,1446]},
{"point":[2223,1445]},
{"point":[2226,1445]},
{"point":[2227,1444]},
{"point":[2228,1444]},
{"point":[2230,1442]},
{"point":[2231,1442]},
{"point":[2232,1441]},
{"point":[2234,1441]},
{"point":[2235,1440]},
{"point":[2236,1440]},
{"point":[2237,1439]},
{"point":[2239,1439]},
{"point":[2240,1438]},
{"point":[2241,1438]},
{"point":[2242,1437]},
{"point":[2243,1437]},
{"point":[2244,1436]},
{"point":[2245,1436]},
{"point":[2246,1435]},
{"point":[2248,1435]},
{"point":[2250,1433]},
{"point":[2253,1433]},
{"point":[2255,1431]},
{"point":[2256,1431]},
{"point":[2260,1427]},
{"point":[2262,1427]},
{"point":[2262,1418]},
{"point":[2261,1417]},
{"point":[2261,1409]},
{"point":[2263,1407]},
{"point":[2264,1407]},
{"point":[2265,1406]},
{"point":[2266,1406]},
{"point":[2267,1405]},
{"point":[2268,1405]},
{"point":[2269,1404]},
{"point":[2269,1402]},
{"point":[2274,1397]},
{"point":[2275,1397]},
{"point":[2277,1395]},
{"point":[2279,1395]},
{"point":[2280,1394]},
{"point":[2281,1394]},
{"point":[2282,1393]},
{"point":[2283,1393]},
{"point":[2287,1389]},
{"point":[2287,1388]},
{"point":[2289,1386]},
{"point":[2289,1385]},
{"point":[2295,1379]},
{"point":[2295,1375]},
{"point":[2293,1375]},
{"point":[2292,1374]},
{"point":[2287,1374]},
{"point":[2286,1375]},
{"point":[2285,1375]},
{"point":[2284,1374]},
{"point":[2277,1374]},
{"point":[2276,1373]},
{"point":[2265,1373]},
{"point":[2264,1372]},
{"point":[2256,1372]},
{"point":[2255,1371]},
{"point":[2255,1370]},
{"point":[2253,1368]},
{"point":[2246,1368]},
{"point":[2245,1367]},
{"point":[2239,1367]},
{"point":[2238,1366]},
{"point":[2225,1366]},
{"point":[2224,1365]},
{"point":[2217,1365]},
{"point":[2216,1364]},
{"point":[2209,1364]},
{"point":[2208,1363]},
{"point":[2201,1363]},
{"point":[2200,1362]},
{"point":[2194,1362]},
{"point":[2193,1361]},
{"point":[2185,1361]},
{"point":[2182,1358]},
{"point":[2182,1355]},
{"point":[2183,1354]},
{"point":[2183,1349]},
{"point":[2182,1349]},
{"point":[2181,1348]},
{"point":[2177,1348]},
{"point":[2176,1349]},
{"point":[2175,1349]},
{"point":[2174,1348]},
{"point":[2170,1348]},
{"point":[2169,1347]},
{"point":[2167,1347]},
{"point":[2166,1348]},
{"point":[2165,1347]},
{"point":[2155,1347]},
{"point":[2154,1346]},
{"point":[2150,1346]},
{"point":[2149,1345]},
{"point":[2146,1345]},
{"point":[2145,1344]},
{"point":[2144,1344]},
{"point":[2143,1343]},
{"point":[2137,1343]},
{"point":[2136,1342]},
{"point":[2127,1342]},
{"point":[2126,1341]},
{"point":[2120,1341]},
{"point":[2119,1340]},
{"point":[2117,1340]},
{"point":[2116,1339]},
{"point":[2116,1335]},
{"point":[2115,1334]},
{"point":[2115,1326]},
{"point":[2114,1325]},
{"point":[2114,1313]},
{"point":[2113,1312]},
{"point":[2113,1308]},
{"point":[2112,1307]},
{"point":[2112,1289]},
{"point":[2111,1288]},
{"point":[2111,1284]},
{"point":[2110,1283]},
{"point":[2114,1279]},
{"point":[2115,1279]},
{"point":[2117,1277]},
{"point":[2119,1277]},
{"point":[2121,1275]},
{"point":[2122,1275]},
{"point":[2123,1274]},
{"point":[2125,1274]},
{"point":[2125,1273]},
{"point":[2126,1272]},
{"point":[2126,1267]},
{"point":[2128,1265]},
{"point":[2130,1265]},
{"point":[2133,1262]},
{"point":[2134,1262]},
{"point":[2136,1260]},
{"point":[2138,1260]},
{"point":[2139,1259]},
{"point":[2140,1259]},
{"point":[2147,1252]},
{"point":[2147,1242]},
{"point":[2148,1241]},
{"point":[2148,1236]},
{"point":[2139,1236]},
{"point":[2138,1235]},
{"point":[2132,1235]},
{"point":[2131,1234]},
{"point":[2126,1234]},
{"point":[2125,1233]},
{"point":[2121,1233]},
{"point":[2120,1232]},
{"point":[2110,1232]},
{"point":[2109,1231]},
{"point":[2103,1231]},
{"point":[2102,1230]},
{"point":[2092,1230]},
{"point":[2091,1229]},
{"point":[2086,1229]},
{"point":[2085,1228]},
{"point":[2081,1228]},
{"point":[2080,1227]},
{"point":[2068,1227]},
{"point":[2067,1226]},
{"point":[2061,1226]},
{"point":[2060,1225]},
{"point":[2051,1225]},
{"point":[2050,1224]},
{"point":[2043,1224]},
{"point":[2042,1223]},
{"point":[2038,1223]},
{"point":[2037,1222]},
{"point":[2027,1222]},
{"point":[2026,1221]},
{"point":[2018,1221]},
{"point":[2017,1220]},
{"point":[2009,1220]},
{"point":[2008,1219]},
{"point":[2000,1219]},
{"point":[1999,1218]},
{"point":[1995,1218]},
{"point":[1994,1217]},
{"point":[1987,1217]},
{"point":[1986,1216]},
{"point":[1977,1216]},
{"point":[1976,1215]},
{"point":[1975,1215]},
{"point":[1974,1214]},
{"point":[1961,1214]},
{"point":[1960,1213]},
{"point":[1954,1213]},
{"point":[1953,1212]},
{"point":[1945,1212]},
{"point":[1944,1211]},
{"point":[1937,1211]},
{"point":[1936,1210]},
{"point":[1932,1210]},
{"point":[1931,1209]},
{"point":[1921,1209]},
{"point":[1920,1208]},
{"point":[1914,1208]},
{"point":[1913,1207]},
{"point":[1910,1207]},
{"point":[1909,1206]},
{"point":[1898,1206]},
{"point":[1897,1205]},
{"point":[1891,1205]},
{"point":[1890,1204]},
{"point":[1888,1204]},
{"point":[1887,1203]},
{"point":[1875,1203]},
{"point":[1874,1202]},
{"point":[1869,1202]},
{"point":[1868,1201]},
{"point":[1859,1201]},
{"point":[1858,1200]},
{"point":[1851,1200]},
{"point":[1850,1199]},
{"point":[1845,1199]},
{"point":[1844,1198]},
{"point":[1835,1198]},
{"point":[1834,1197]},
{"point":[1828,1197]},
{"point":[1827,1196]},
{"point":[1823,1196]},
{"point":[1821,1194]},
{"point":[1817,1194]},
{"point":[1816,1195]},
{"point":[1814,1195]},
{"point":[1813,1194]},
{"point":[1807,1194]},
{"point":[1806,1193]},
{"point":[1801,1193]},
{"point":[1800,1192]},
{"point":[1790,1192]},
{"point":[1789,1191]},
{"point":[1783,1191]},
{"point":[1782,1190]},
{"point":[1778,1190]},
{"point":[1777,1189]},
{"point":[1766,1189]},
{"point":[1765,1188]},
{"point":[1758,1188]},
{"point":[1757,1187]},
{"point":[1755,1187]},
{"point":[1754,1186]},
{"point":[1743,1186]},
{"point":[1742,1185]},
{"point":[1736,1185]},
{"point":[1735,1184]},
{"point":[1729,1184]},
{"point":[1728,1183]},
{"point":[1720,1183]},
{"point":[1719,1182]},
{"point":[1713,1182]},
{"point":[1712,1181]},
{"point":[1710,1181]},
{"point":[1709,1180]},
{"point":[1705,1180]},
{"point":[1704,1181]},
{"point":[1703,1181]},
{"point":[1702,1180]},
{"point":[1696,1180]},
{"point":[1695,1179]},
{"point":[1688,1179]},
{"point":[1686,1177]},
{"point":[1682,1177]},
{"point":[1681,1178]},
{"point":[1679,1178]},
{"point":[1678,1177]},
{"point":[1672,1177]},
{"point":[1671,1176]},
{"point":[1665,1176]},
{"point":[1664,1175]},
{"point":[1657,1175]},
{"point":[1656,1174]},
{"point":[1648,1174]},
{"point":[1647,1173]},
{"point":[1642,1173]},
{"point":[1641,1172]},
{"point":[1631,1172]},
{"point":[1630,1171]},
{"point":[1623,1171]},
{"point":[1622,1170]},
{"point":[1618,1170]},
{"point":[1617,1169]},
{"point":[1609,1169]},
{"point":[1608,1168]},
{"point":[1600,1168]},
{"point":[1599,1167]},
{"point":[1595,1167]},
{"point":[1594,1166]},
{"point":[1591,1166]},
{"point":[1590,1165]},
{"point":[1591,1164]},
{"point":[1591,1160]},
{"point":[1597,1154]},
{"point":[1598,1154]},
{"point":[1602,1150]},
{"point":[1603,1150]},
{"point":[1605,1148]},
{"point":[1606,1148]},
{"point":[1606,1146]},
{"point":[1609,1143]},
{"point":[1610,1143]},
{"point":[1610,1131]},
{"point":[1613,1128]},
{"point":[1613,1124]},
{"point":[1603,1124]},
{"point":[1602,1123]},
{"point":[1596,1123]},
{"point":[1595,1122]},
{"point":[1588,1122]},
{"point":[1587,1121]},
{"point":[1579,1121]},
{"point":[1578,1120]},
{"point":[1576,1120]},
{"point":[1575,1119]},
{"point":[1573,1119]},
{"point":[1571,1117]},
{"point":[1571,1115]},
{"point":[1570,1114]},
{"point":[1570,1110]},
{"point":[1573,1107]},
{"point":[1573,1102]},
{"point":[1563,1102]},
{"point":[1562,1101]},
{"point":[1555,1101]},
{"point":[1554,1100]},
{"point":[1548,1100]},
{"point":[1547,1099]},
{"point":[1540,1099]},
{"point":[1539,1098]},
{"point":[1537,1098]},
{"point":[1536,1097]},
{"point":[1525,1097]},
{"point":[1524,1096]},
{"point":[1520,1096]},
{"point":[1519,1095]},
{"point":[1513,1095]},
{"point":[1512,1094]},
{"point":[1507,1094]},
{"point":[1506,1093]},
{"point":[1499,1093]},
{"point":[1498,1092]},
{"point":[1493,1092]},
{"point":[1492,1091]},
{"point":[1493,1090]},
{"point":[1494,1090]},
{"point":[1495,1089]},
{"point":[1495,1088]},
{"point":[1497,1086]},
{"point":[1497,1085]},
{"point":[1500,1082]},
{"point":[1500,1079]},
{"point":[1501,1078]},
{"point":[1501,1077]},
{"point":[1502,1076]},
{"point":[1502,1074]},
{"point":[1504,1072]},
{"point":[1504,1071]},
{"point":[1506,1069]},
{"point":[1506,1066]},
{"point":[1507,1065]},
{"point":[1507,1056]},
{"point":[1508,1055]},
{"point":[1508,1052]},
{"point":[1509,1051]},
{"point":[1509,1047]},
{"point":[1510,1046]},
{"point":[1510,1045]},
{"point":[1511,1044]},
{"point":[1511,1037]},
{"point":[1512,1036]},
{"point":[1512,1033]},
{"point":[1511,1032]},
{"point":[1511,1031]},
{"point":[1507,1027]},
{"point":[1504,1027]},
{"point":[1503,1026]},
{"point":[1502,1026]},
{"point":[1501,1025]},
{"point":[1497,1025]},
{"point":[1496,1024]},
{"point":[1495,1024]},
{"point":[1493,1022]},
{"point":[1493,1018]},
{"point":[1494,1017]},
{"point":[1494,1014]},
{"point":[1495,1013]},
{"point":[1495,1011]},
{"point":[1496,1010]},
{"point":[1496,1006]},
{"point":[1497,1005]},
{"point":[1497,994]},
{"point":[1496,993]},
{"point":[1496,992]},
{"point":[1494,990]},
{"point":[1494,989]},
{"point":[1492,987]},
{"point":[1492,986]},
{"point":[1491,985]},
{"point":[1491,984]},
{"point":[1490,983]},
{"point":[1490,980]},
{"point":[1489,979]},
{"point":[1489,973]},
{"point":[1495,967]},
{"point":[1495,966]},
{"point":[1496,965]},
{"point":[1496,964]},
{"point":[1498,962]},
{"point":[1498,961]},
{"point":[1499,960]},
{"point":[1499,958]},
{"point":[1502,955]},
{"point":[1503,956]},
{"point":[1507,956]},
{"point":[1509,954]},
{"point":[1510,954]},
{"point":[1510,952]},
{"point":[1513,949]},
{"point":[1513,943]},
{"point":[1512,942]},
{"point":[1512,930]},
{"point":[1511,929]},
{"point":[1511,921]},
{"point":[1510,920]},
{"point":[1510,917]},
{"point":[1509,916]},
{"point":[1509,914]},
{"point":[1512,911]},
{"point":[1512,910]},
{"point":[1514,908]},
{"point":[1514,906]},
{"point":[1515,905]},
{"point":[1515,901]},
{"point":[1511,901]},
{"point":[1509,903]},
{"point":[1508,903]},
{"point":[1507,902]},
{"point":[1507,901]},
{"point":[1505,899]},
{"point":[1505,898]},
{"point":[1506,897]},
{"point":[1506,893]},
{"point":[1501,893]},
{"point":[1499,895]},
{"point":[1496,895]},
{"point":[1492,899]},
{"point":[1490,899]},
{"point":[1489,900]},
{"point":[1486,900]},
{"point":[1485,901]},
{"point":[1482,901]},
{"point":[1481,902]},
{"point":[1479,902]},
{"point":[1476,905]},
{"point":[1474,905]},
{"point":[1472,907]},
{"point":[1471,907]},
{"point":[1470,908]},
{"point":[1468,908]},
{"point":[1465,911]},
{"point":[1465,912]},
{"point":[1464,913]},
{"point":[1464,914]},
{"point":[1460,918]},
{"point":[1459,918]},
{"point":[1457,920]},
{"point":[1457,921]},
{"point":[1452,926]},
{"point":[1452,930]},
{"point":[1451,931]},
{"point":[1451,932]},
{"point":[1449,934]},
{"point":[1449,935]},
{"point":[1448,936]},
{"point":[1448,937]},
{"point":[1447,938]},
{"point":[1447,939]},
{"point":[1446,940]},
{"point":[1446,942]},
{"point":[1445,943]},
{"point":[1445,945]},
{"point":[1444,946]},
{"point":[1444,947]},
{"point":[1443,948]},
{"point":[1443,950]},
{"point":[1442,951]},
{"point":[1442,961]},
{"point":[1441,962]},
{"point":[1441,964]},
{"point":[1440,965]},
{"point":[1440,967]},
{"point":[1439,968]},
{"point":[1439,976]},
{"point":[1437,978]},
{"point":[1436,978]},
{"point":[1435,977]},
{"point":[1423,977]},
{"point":[1422,976]},
{"point":[1417,976]},
{"point":[1416,975]},
{"point":[1411,975]},
{"point":[1410,974]},
{"point":[1408,974]},
{"point":[1407,973]},
{"point":[1404,973]},
{"point":[1403,972]},
{"point":[1401,972]},
{"point":[1400,971]},
{"point":[1395,971]},
{"point":[1393,969]},
{"point":[1389,969]},
{"point":[1388,968]},
{"point":[1387,968]},
{"point":[1385,966]},
{"point":[1385,963]},
{"point":[1384,962]},
{"point":[1384,960]},
{"point":[1383,959]},
{"point":[1383,957]},
{"point":[1382,956]},
{"point":[1382,954]},
{"point":[1381,953]},
{"point":[1381,952]},
{"point":[1380,951]},
{"point":[1380,950]},
{"point":[1378,948]},
{"point":[1378,947]},
{"point":[1376,945]},
{"point":[1376,942]},
{"point":[1377,941]},
{"point":[1377,940]},
{"point":[1381,936]},
{"point":[1381,935]},
{"point":[1382,934]},
{"point":[1382,933]},
{"point":[1383,932]},
{"point":[1383,931]},
{"point":[1384,930]},
{"point":[1384,928]},
{"point":[1385,927]},
{"point":[1386,927]},
{"point":[1386,925]},
{"point":[1388,923]},
{"point":[1388,922]},
{"point":[1389,921]},
{"point":[1389,920]},
{"point":[1390,919]},
{"point":[1390,917]},
{"point":[1391,916]},
{"point":[1391,915]},
{"point":[1395,911]},
{"point":[1395,908]},
{"point":[1396,907]},
{"point":[1397,907]},
{"point":[1398,906]},
{"point":[1400,906]},
{"point":[1401,905]},
{"point":[1401,903]},
{"point":[1402,902]},
{"point":[1402,892]},
{"point":[1401,891]},
{"point":[1400,891]},
{"point":[1398,889]},
{"point":[1398,888]},
{"point":[1397,887]},
{"point":[1397,886]},
{"point":[1396,885]},
{"point":[1396,884]},
{"point":[1395,883]},
{"point":[1395,882]},
{"point":[1393,880]},
{"point":[1393,875]},
{"point":[1392,874]},
{"point":[1392,872]},
{"point":[1389,869]},
{"point":[1388,869]},
{"point":[1387,868]},
{"point":[1388,867]},
{"point":[1388,866]},
{"point":[1389,865]},
{"point":[1389,863]},
{"point":[1390,862]},
{"point":[1390,858]},
{"point":[1385,858]},
{"point":[1384,859]},
{"point":[1383,859]},
{"point":[1382,860]},
{"point":[1380,858]},
{"point":[1378,858]},
{"point":[1377,857]},
{"point":[1375,857]},
{"point":[1374,858]},
{"point":[1372,856]},
{"point":[1372,854]},
{"point":[1368,854]},
{"point":[1367,855]},
{"point":[1367,856]},
{"point":[1365,858]},
{"point":[1365,859]},
{"point":[1363,861]},
{"point":[1363,862]},
{"point":[1361,864]},
{"point":[1361,865]},
{"point":[1360,866]},
{"point":[1360,867]},
{"point":[1359,868]},
{"point":[1359,869]},
{"point":[1358,870]},
{"point":[1358,871]},
{"point":[1355,874]},
{"point":[1355,875]},
{"point":[1354,876]},
{"point":[1354,877]},
{"point":[1353,878]},
{"point":[1353,880]},
{"point":[1351,882]},
{"point":[1351,883]},
{"point":[1350,884]},
{"point":[1350,885]},
{"point":[1349,886]},
{"point":[1349,887]},
{"point":[1348,888]},
{"point":[1348,890]},
{"point":[1347,891]},
{"point":[1347,893]},
{"point":[1346,894]},
{"point":[1346,896]},
{"point":[1345,897]},
{"point":[1345,898]},
{"point":[1343,900]},
{"point":[1343,901]},
{"point":[1341,903]},
{"point":[1341,905]},
{"point":[1340,906]},
{"point":[1340,907]},
{"point":[1339,908]},
{"point":[1339,910]},
{"point":[1338,911]},
{"point":[1338,918]},
{"point":[1337,919]},
{"point":[1337,921]},
{"point":[1336,922]},
{"point":[1336,927]},
{"point":[1335,928]},
{"point":[1335,930]},
{"point":[1334,931]},
{"point":[1334,933]},
{"point":[1333,934]},
{"point":[1333,936]},
{"point":[1332,937]},
{"point":[1332,938]},
{"point":[1331,939]},
{"point":[1331,943]},
{"point":[1330,944]},
{"point":[1330,945]},
{"point":[1329,946]},
{"point":[1329,948]},
{"point":[1328,949]},
{"point":[1328,950]},
{"point":[1327,951]},
{"point":[1327,953]},
{"point":[1326,954]},
{"point":[1326,958]},
{"point":[1319,965]},
{"point":[1318,965]},
{"point":[1317,966]},
{"point":[1313,966]},
{"point":[1312,967]},
{"point":[1311,967]},
{"point":[1310,968]},
{"point":[1309,968]},
{"point":[1309,969]},
{"point":[1308,970]},
{"point":[1308,973]},
{"point":[1304,977]},
{"point":[1303,976]},
{"point":[1303,969]},
{"point":[1302,968]},
{"point":[1302,965]},
{"point":[1291,965]},
{"point":[1290,966]},
{"point":[1289,966]},
{"point":[1288,967]},
{"point":[1288,969]},
{"point":[1286,971]},
{"point":[1286,972]},
{"point":[1284,974]},
{"point":[1281,974]},
{"point":[1280,973]},
{"point":[1274,973]},
{"point":[1273,972]},
{"point":[1269,972]},
{"point":[1268,971]},
{"point":[1263,971]},
{"point":[1262,970]},
{"point":[1258,970]},
{"point":[1257,969]},
{"point":[1252,969]},
{"point":[1251,968]},
{"point":[1246,968]},
{"point":[1245,967]},
{"point":[1243,967]},
{"point":[1241,965]},
{"point":[1240,965]},
{"point":[1239,964]},
{"point":[1238,964]},
{"point":[1236,962]},
{"point":[1236,943]},
{"point":[1235,942]},
{"point":[1235,941]},
{"point":[1233,939]},
{"point":[1233,937]},
{"point":[1231,935]},
{"point":[1231,934]},
{"point":[1229,932]},
{"point":[1229,931]},
{"point":[1226,928]},
{"point":[1226,924]},
{"point":[1227,923]},
{"point":[1227,920]},
{"point":[1228,919]},
{"point":[1228,918]},
{"point":[1229,917]},
{"point":[1229,915]},
{"point":[1230,914]},
{"point":[1230,913]},
{"point":[1231,912]},
{"point":[1231,910]},
{"point":[1232,909]},
{"point":[1232,906]},
{"point":[1233,905]},
{"point":[1233,903]},
{"point":[1235,901]},
{"point":[1235,897]},
{"point":[1236,896]},
{"point":[1236,895]},
{"point":[1238,893]},
{"point":[1238,886]},
{"point":[1237,885]},
{"point":[1237,884]},
{"point":[1236,883]},
{"point":[1237,882]},
{"point":[1237,881]},
{"point":[1238,880]},
{"point":[1238,871]},
{"point":[1239,870]},
{"point":[1239,859]},
{"point":[1236,856]},
{"point":[1240,852]},
{"point":[1240,851]},
{"point":[1241,850]},
{"point":[1241,848]},
{"point":[1242,847]},
{"point":[1242,843]},
{"point":[1237,843]},
{"point":[1233,847]},
{"point":[1232,846]},
{"point":[1231,846]},
{"point":[1229,844]},
{"point":[1224,844]},
{"point":[1222,842]},
{"point":[1222,840]},
{"point":[1218,840]},
{"point":[1218,841]},
{"point":[1217,842]},
{"point":[1217,843]},
{"point":[1216,844]},
{"point":[1216,849]},
{"point":[1214,851]},
{"point":[1214,853]},
{"point":[1213,854]},
{"point":[1213,855]},
{"point":[1211,857]},
{"point":[1211,860]},
{"point":[1210,861]},
{"point":[1210,862]},
{"point":[1209,863]},
{"point":[1209,864]},
{"point":[1208,865]},
{"point":[1208,867]},
{"point":[1207,868]},
{"point":[1207,869]},
{"point":[1206,870]},
{"point":[1206,872]},
{"point":[1205,873]},
{"point":[1205,876]},
{"point":[1204,877]},
{"point":[1204,878]},
{"point":[1203,879]},
{"point":[1203,881]},
{"point":[1202,882]},
{"point":[1202,884]},
{"point":[1201,885]},
{"point":[1201,887]},
{"point":[1200,888]},
{"point":[1200,889]},
{"point":[1199,890]},
{"point":[1199,893]},
{"point":[1198,894]},
{"point":[1198,898]},
{"point":[1197,899]},
{"point":[1197,901]},
{"point":[1194,904]},
{"point":[1193,904]},
{"point":[1192,905]},
{"point":[1192,906]},
{"point":[1191,907]},
{"point":[1191,909]},
{"point":[1190,910]},
{"point":[1189,910]},
{"point":[1188,909]},
{"point":[1188,908]},
{"point":[1186,906]},
{"point":[1187,905]},
{"point":[1187,904]},
{"point":[1190,901]},
{"point":[1190,899]},
{"point":[1191,898]},
{"point":[1191,895]},
{"point":[1192,894]},
{"point":[1192,893]},
{"point":[1193,892]},
{"point":[1193,891]},
{"point":[1195,889]},
{"point":[1195,888]},
{"point":[1196,887]},
{"point":[1196,886]},
{"point":[1197,885]},
{"point":[1197,882]},
{"point":[1198,881]},
{"point":[1198,879]},
{"point":[1197,878]},
{"point":[1197,876]},
{"point":[1196,875]},
{"point":[1196,872]},
{"point":[1192,868]},
{"point":[1192,860]},
{"point":[1191,859]},
{"point":[1191,856]},
{"point":[1189,854]},
{"point":[1189,850]},
{"point":[1190,849]},
{"point":[1190,836]},
{"point":[1191,835]},
{"point":[1191,827]},
{"point":[1192,826]},
{"point":[1192,823]},
{"point":[1193,822]},
{"point":[1193,820]},
{"point":[1194,819]},
{"point":[1194,813]},
{"point":[1195,812]},
{"point":[1196,812]},
{"point":[1197,811]},
{"point":[1202,811]},
{"point":[1205,808]},
{"point":[1206,808]},
{"point":[1208,806]},
{"point":[1209,806]},
{"point":[1210,805]},
{"point":[1211,805]},
{"point":[1214,802]},
{"point":[1214,801]},
{"point":[1215,800]},
{"point":[1215,799]},
{"point":[1216,798]},
{"point":[1216,796]},
{"point":[1217,795]},
{"point":[1217,790]},
{"point":[1218,789]},
{"point":[1218,784]},
{"point":[1219,783]},
{"point":[1219,778]},
{"point":[1218,777]},
{"point":[1218,776]},
{"point":[1217,775]},
{"point":[1217,773]},
{"point":[1216,772]},
{"point":[1216,771]},
{"point":[1215,770]},
{"point":[1215,768]},
{"point":[1214,767]},
{"point":[1214,766]},
{"point":[1212,764]},
{"point":[1212,763]},
{"point":[1208,759]},
{"point":[1209,758]},
{"point":[1209,754]},
{"point":[1207,752]},
{"point":[1206,752]},
{"point":[1205,751]},
{"point":[1204,751]},
{"point":[1203,750]},
{"point":[1203,749]},
{"point":[1205,747]},
{"point":[1208,747]},
{"point":[1209,746]},
{"point":[1211,746]},
{"point":[1212,745]},
{"point":[1214,745]},
{"point":[1216,743]},
{"point":[1216,741]},
{"point":[1217,740]},
{"point":[1217,738]},
{"point":[1218,737]},
{"point":[1218,736]},
{"point":[1221,733]},
{"point":[1222,733]},
{"point":[1228,727]},
{"point":[1228,725]},
{"point":[1230,723]},
{"point":[1230,721]},
{"point":[1231,720]},
{"point":[1231,718]},
{"point":[1234,715]},
{"point":[1234,711]},
{"point":[1236,709]},
{"point":[1236,706]},
{"point":[1238,704]},
{"point":[1238,703]},
{"point":[1239,702]},
{"point":[1239,699]},
{"point":[1240,698]},
{"point":[1240,697]},
{"point":[1242,695]},
{"point":[1242,691]},
{"point":[1238,691]},
{"point":[1231,698]},
{"point":[1230,697]},
{"point":[1228,697]},
{"point":[1225,700]},
{"point":[1224,700]},
{"point":[1222,702]},
{"point":[1221,702]},
{"point":[1220,703]},
{"point":[1218,703]},
{"point":[1217,704]},
{"point":[1216,704]},
{"point":[1215,705]},
{"point":[1214,705]},
{"point":[1213,706]},
{"point":[1212,706]},
{"point":[1211,707]},
{"point":[1209,707]},
{"point":[1207,709]},
{"point":[1206,709]},
{"point":[1206,710]},
{"point":[1204,712]},
{"point":[1204,718]},
{"point":[1205,719]},
{"point":[1204,720]},
{"point":[1204,721]},
{"point":[1203,722]},
{"point":[1201,722]},
{"point":[1200,721]},
{"point":[1200,719]},
{"point":[1199,718]},
{"point":[1199,708]},
{"point":[1200,707]},
{"point":[1200,700]},
{"point":[1199,700]},
{"point":[1198,699]},
{"point":[1198,698]},
{"point":[1194,698]},
{"point":[1192,700]},
{"point":[1191,700]},
{"point":[1191,712]},
{"point":[1192,713]},
{"point":[1192,717]},
{"point":[1191,718]},
{"point":[1191,719]},
{"point":[1189,721]},
{"point":[1189,722]},
{"point":[1188,723]},
{"point":[1185,723]},
{"point":[1183,721]},
{"point":[1182,721]},
{"point":[1180,719]},
{"point":[1182,717]},
{"point":[1182,711]},
{"point":[1181,710]},
{"point":[1181,709]},
{"point":[1173,701]},
{"point":[1172,701]},
{"point":[1170,699]},
{"point":[1169,699]},
{"point":[1168,698]},
{"point":[1167,698]},
{"point":[1164,695]},
{"point":[1163,695]},
{"point":[1161,693]},
{"point":[1160,693]},
{"point":[1156,689]},
{"point":[1156,688]},
{"point":[1155,688]},
{"point":[1154,687]},
{"point":[1153,687]},
{"point":[1150,684]},
{"point":[1150,683]},
{"point":[1149,682]}
],
"xScale" : 2448,"yScale" : 3264}