{"matchingPoints" : [{"point":[1201,934]},
{"point":[1329.65,1525.72]},
{"point":[692,934]},
{"point":[1931,934]},
{"point":[692,1974]},
{"point":[1931,1974]},
{"point":[1333.74,1541.45]},
{"point":[541,803]},
{"point":[2128,803]},
{"point":[541,2281]},
{"point":[2128,2281]},
{"point":[1307.31,1451.75]},
{"point":[676,920]},
{"point":[1939,920]},
{"point":[676,1985]},
{"point":[1939,1985]},
{"point":[1302.77,1529.85]}
],
"matchingPointsDescriptions" : [{"point":[0.490605,0.286152]},
{"point":[0.543158,0.467438]},
{"point":[0.28268,0.286152]},
{"point":[0.788807,0.286152]},
{"point":[0.28268,0.604779]},
{"point":[0.788807,0.604779]},
{"point":[0.544828,0.472257]},
{"point":[0.220997,0.246017]},
{"point":[0.869281,0.246017]},
{"point":[0.220997,0.698836]},
{"point":[0.869281,0.698836]},
{"point":[0.534034,0.444775]},
{"point":[0.276144,0.281863]},
{"point":[0.792075,0.281863]},
{"point":[0.276144,0.60815]},
{"point":[0.792075,0.60815]},
{"point":[0.532176,0.468705]}
],
"contour": [{"point":[1201,934]},
{"point":[1201,935]},
{"point":[1200,936]},
{"point":[1200,939]},
{"point":[1198,941]},
{"point":[1198,945]},
{"point":[1197,946]},
{"point":[1197,950]},
{"point":[1195,952]},
{"point":[1195,958]},
{"point":[1194,959]},
{"point":[1194,961]},
{"point":[1193,962]},
{"point":[1192,962]},
{"point":[1191,963]},
{"point":[1190,963]},
{"point":[1189,964]},
{"point":[1188,963]},
{"point":[1184,963]},
{"point":[1183,962]},
{"point":[1181,962]},
{"point":[1180,961]},
{"point":[1179,961]},
{"point":[1178,960]},
{"point":[1178,959]},
{"point":[1179,958]},
{"point":[1179,950]},
{"point":[1178,949]},
{"point":[1171,949]},
{"point":[1164,956]},
{"point":[1164,957]},
{"point":[1162,959]},
{"point":[1162,960]},
{"point":[1160,962]},
{"point":[1160,964]},
{"point":[1159,965]},
{"point":[1159,966]},
{"point":[1156,969]},
{"point":[1156,970]},
{"point":[1154,972]},
{"point":[1154,975]},
{"point":[1153,976]},
{"point":[1153,977]},
{"point":[1152,978]},
{"point":[1152,981]},
{"point":[1150,983]},
{"point":[1150,984]},
{"point":[1149,985]},
{"point":[1149,987]},
{"point":[1148,988]},
{"point":[1148,991]},
{"point":[1147,992]},
{"point":[1147,995]},
{"point":[1146,996]},
{"point":[1146,1000]},
{"point":[1145,1001]},
{"point":[1145,1004]},
{"point":[1144,1005]},
{"point":[1144,1008]},
{"point":[1143,1009]},
{"point":[1143,1015]},
{"point":[1142,1016]},
{"point":[1142,1022]},
{"point":[1143,1023]},
{"point":[1143,1025]},
{"point":[1144,1025]},
{"point":[1145,1026]},
{"point":[1149,1026]},
{"point":[1150,1025]},
{"point":[1152,1025]},
{"point":[1155,1022]},
{"point":[1156,1022]},
{"point":[1157,1021]},
{"point":[1158,1021]},
{"point":[1159,1020]},
{"point":[1159,1019]},
{"point":[1163,1015]},
{"point":[1163,1014]},
{"point":[1165,1012]},
{"point":[1165,1011]},
{"point":[1166,1010]},
{"point":[1166,1009]},
{"point":[1169,1006]},
{"point":[1170,1006]},
{"point":[1170,1005]},
{"point":[1171,1004]},
{"point":[1175,1004]},
{"point":[1176,1005]},
{"point":[1176,1015]},
{"point":[1175,1016]},
{"point":[1175,1018]},
{"point":[1174,1019]},
{"point":[1174,1039]},
{"point":[1173,1040]},
{"point":[1173,1043]},
{"point":[1170,1046]},
{"point":[1154,1046]},
{"point":[1153,1047]},
{"point":[1151,1047]},
{"point":[1149,1049]},
{"point":[1148,1049]},
{"point":[1148,1050]},
{"point":[1147,1051]},
{"point":[1147,1052]},
{"point":[1142,1057]},
{"point":[1142,1058]},
{"point":[1138,1062]},
{"point":[1137,1062]},
{"point":[1136,1063]},
{"point":[1135,1063]},
{"point":[1134,1064]},
{"point":[1133,1064]},
{"point":[1132,1065]},
{"point":[1131,1065]},
{"point":[1128,1068]},
{"point":[1127,1068]},
{"point":[1125,1070]},
{"point":[1124,1070]},
{"point":[1124,1071]},
{"point":[1123,1072]},
{"point":[1122,1072]},
{"point":[1122,1073]},
{"point":[1119,1076]},
{"point":[1119,1077]},
{"point":[1118,1078]},
{"point":[1118,1079]},
{"point":[1117,1080]},
{"point":[1117,1081]},
{"point":[1116,1082]},
{"point":[1116,1084]},
{"point":[1114,1086]},
{"point":[1114,1090]},
{"point":[1113,1091]},
{"point":[1113,1095]},
{"point":[1112,1096]},
{"point":[1112,1100]},
{"point":[1113,1101]},
{"point":[1113,1104]},
{"point":[1112,1105]},
{"point":[1112,1108]},
{"point":[1113,1109]},
{"point":[1113,1113]},
{"point":[1114,1114]},
{"point":[1114,1119]},
{"point":[1115,1120]},
{"point":[1115,1125]},
{"point":[1116,1125]},
{"point":[1117,1126]},
{"point":[1117,1127]},
{"point":[1114,1130]},
{"point":[1113,1130]},
{"point":[1112,1129]},
{"point":[1112,1127]},
{"point":[1110,1127]},
{"point":[1108,1125]},
{"point":[1104,1125]},
{"point":[1101,1128]},
{"point":[1100,1128]},
{"point":[1100,1129]},
{"point":[1098,1131]},
{"point":[1098,1133]},
{"point":[1096,1135]},
{"point":[1095,1135]},
{"point":[1092,1138]},
{"point":[1091,1138]},
{"point":[1090,1139]},
{"point":[1089,1139]},
{"point":[1087,1141]},
{"point":[1085,1141]},
{"point":[1084,1142]},
{"point":[1082,1142]},
{"point":[1081,1143]},
{"point":[1078,1143]},
{"point":[1076,1145]},
{"point":[1073,1145]},
{"point":[1072,1146]},
{"point":[1070,1146]},
{"point":[1069,1147]},
{"point":[1068,1147]},
{"point":[1067,1148]},
{"point":[1066,1148]},
{"point":[1065,1149]},
{"point":[1064,1149]},
{"point":[1063,1150]},
{"point":[1060,1150]},
{"point":[1058,1152]},
{"point":[1057,1152]},
{"point":[1056,1153]},
{"point":[1054,1153]},
{"point":[1053,1154]},
{"point":[1049,1154]},
{"point":[1046,1157]},
{"point":[1041,1157]},
{"point":[1039,1159]},
{"point":[1038,1159]},
{"point":[1036,1161]},
{"point":[1033,1161]},
{"point":[1032,1162]},
{"point":[1029,1162]},
{"point":[1028,1163]},
{"point":[1027,1163]},
{"point":[1026,1164]},
{"point":[1025,1164]},
{"point":[1024,1165]},
{"point":[1021,1165]},
{"point":[1020,1166]},
{"point":[1019,1166]},
{"point":[1018,1167]},
{"point":[1016,1167]},
{"point":[1015,1168]},
{"point":[1014,1168]},
{"point":[1012,1170]},
{"point":[1011,1169]},
{"point":[1008,1169]},
{"point":[1008,1171]},
{"point":[1007,1172]},
{"point":[1005,1172]},
{"point":[1004,1173]},
{"point":[1000,1173]},
{"point":[998,1175]},
{"point":[992,1175]},
{"point":[990,1177]},
{"point":[988,1177]},
{"point":[985,1180]},
{"point":[983,1180]},
{"point":[982,1181]},
{"point":[979,1181]},
{"point":[978,1182]},
{"point":[977,1182]},
{"point":[976,1183]},
{"point":[975,1183]},
{"point":[973,1185]},
{"point":[971,1185]},
{"point":[970,1186]},
{"point":[968,1186]},
{"point":[967,1187]},
{"point":[964,1187]},
{"point":[962,1189]},
{"point":[961,1189]},
{"point":[959,1191]},
{"point":[959,1195]},
{"point":[960,1196]},
{"point":[959,1197]},
{"point":[959,1199]},
{"point":[957,1201]},
{"point":[955,1201]},
{"point":[953,1203]},
{"point":[951,1203]},
{"point":[950,1204]},
{"point":[949,1204]},
{"point":[948,1205]},
{"point":[947,1205]},
{"point":[946,1206]},
{"point":[943,1206]},
{"point":[942,1207]},
{"point":[941,1207]},
{"point":[940,1208]},
{"point":[939,1208]},
{"point":[938,1209]},
{"point":[936,1209]},
{"point":[934,1211]},
{"point":[934,1215]},
{"point":[935,1216]},
{"point":[935,1219]},
{"point":[936,1220]},
{"point":[936,1222]},
{"point":[938,1224]},
{"point":[941,1224]},
{"point":[943,1226]},
{"point":[946,1226]},
{"point":[949,1229]},
{"point":[949,1230]},
{"point":[948,1231]},
{"point":[947,1231]},
{"point":[946,1232]},
{"point":[943,1232]},
{"point":[941,1234]},
{"point":[938,1234]},
{"point":[936,1236]},
{"point":[934,1236]},
{"point":[933,1237]},
{"point":[930,1237]},
{"point":[928,1239]},
{"point":[925,1239]},
{"point":[924,1240]},
{"point":[922,1240]},
{"point":[921,1241]},
{"point":[920,1241]},
{"point":[919,1242]},
{"point":[916,1242]},
{"point":[914,1244]},
{"point":[910,1244]},
{"point":[909,1245]},
{"point":[908,1245]},
{"point":[906,1247]},
{"point":[904,1247]},
{"point":[903,1248]},
{"point":[901,1248]},
{"point":[900,1249]},
{"point":[897,1249]},
{"point":[896,1250]},
{"point":[894,1250]},
{"point":[893,1251]},
{"point":[892,1251]},
{"point":[891,1252]},
{"point":[889,1252]},
{"point":[887,1254]},
{"point":[883,1254]},
{"point":[882,1255]},
{"point":[881,1255]},
{"point":[879,1257]},
{"point":[876,1257]},
{"point":[875,1258]},
{"point":[873,1258]},
{"point":[872,1259]},
{"point":[870,1259]},
{"point":[869,1260]},
{"point":[867,1260]},
{"point":[865,1262]},
{"point":[863,1262]},
{"point":[862,1263]},
{"point":[859,1263]},
{"point":[858,1264]},
{"point":[857,1264]},
{"point":[856,1265]},
{"point":[854,1265]},
{"point":[853,1266]},
{"point":[850,1266]},
{"point":[848,1268]},
{"point":[843,1268]},
{"point":[840,1271]},
{"point":[836,1271]},
{"point":[835,1272]},
{"point":[833,1272]},
{"point":[832,1273]},
{"point":[830,1273]},
{"point":[828,1275]},
{"point":[826,1275]},
{"point":[825,1276]},
{"point":[823,1276]},
{"point":[822,1277]},
{"point":[821,1277]},
{"point":[820,1278]},
{"point":[818,1278]},
{"point":[817,1279]},
{"point":[816,1279]},
{"point":[815,1280]},
{"point":[812,1280]},
{"point":[811,1281]},
{"point":[809,1281]},
{"point":[808,1282]},
{"point":[807,1282]},
{"point":[806,1283]},
{"point":[805,1283]},
{"point":[804,1284]},
{"point":[802,1284]},
{"point":[801,1285]},
{"point":[797,1285]},
{"point":[795,1287]},
{"point":[792,1287]},
{"point":[789,1290]},
{"point":[784,1290]},
{"point":[782,1292]},
{"point":[779,1292]},
{"point":[778,1293]},
{"point":[776,1293]},
{"point":[775,1294]},
{"point":[773,1294]},
{"point":[773,1295]},
{"point":[771,1297]},
{"point":[771,1302]},
{"point":[772,1303]},
{"point":[772,1307]},
{"point":[774,1309]},
{"point":[777,1309]},
{"point":[778,1310]},
{"point":[779,1310]},
{"point":[781,1312]},
{"point":[782,1312]},
{"point":[783,1313]},
{"point":[785,1313]},
{"point":[786,1314]},
{"point":[787,1314]},
{"point":[788,1315]},
{"point":[788,1316]},
{"point":[789,1316]},
{"point":[792,1319]},
{"point":[792,1320]},
{"point":[793,1321]},
{"point":[793,1322]},
{"point":[794,1323]},
{"point":[794,1353]},
{"point":[793,1354]},
{"point":[793,1355]},
{"point":[791,1357]},
{"point":[790,1357]},
{"point":[786,1361]},
{"point":[781,1361]},
{"point":[780,1362]},
{"point":[777,1362]},
{"point":[776,1363]},
{"point":[772,1363]},
{"point":[771,1364]},
{"point":[770,1364]},
{"point":[769,1365]},
{"point":[768,1365]},
{"point":[767,1366]},
{"point":[766,1366]},
{"point":[765,1367]},
{"point":[763,1367]},
{"point":[762,1368]},
{"point":[761,1368]},
{"point":[760,1369]},
{"point":[759,1369]},
{"point":[758,1370]},
{"point":[756,1370]},
{"point":[755,1371]},
{"point":[754,1370]},
{"point":[754,1369]},
{"point":[753,1368]},
{"point":[753,1354]},
{"point":[752,1353]},
{"point":[752,1352]},
{"point":[748,1352]},
{"point":[746,1354]},
{"point":[746,1363]},
{"point":[745,1364]},
{"point":[744,1364]},
{"point":[744,1365]},
{"point":[743,1366]},
{"point":[743,1372]},
{"point":[745,1374]},
{"point":[744,1375]},
{"point":[744,1377]},
{"point":[743,1378]},
{"point":[743,1381]},
{"point":[739,1385]},
{"point":[737,1385]},
{"point":[736,1386]},
{"point":[735,1386]},
{"point":[734,1387]},
{"point":[733,1387]},
{"point":[732,1388]},
{"point":[730,1388]},
{"point":[729,1389]},
{"point":[728,1389]},
{"point":[727,1390]},
{"point":[723,1390]},
{"point":[722,1391]},
{"point":[719,1391]},
{"point":[717,1393]},
{"point":[714,1393]},
{"point":[713,1394]},
{"point":[711,1394]},
{"point":[710,1395]},
{"point":[709,1395]},
{"point":[707,1397]},
{"point":[706,1397]},
{"point":[705,1398]},
{"point":[702,1398]},
{"point":[700,1400]},
{"point":[698,1400]},
{"point":[697,1401]},
{"point":[696,1401]},
{"point":[695,1402]},
{"point":[693,1402]},
{"point":[693,1403]},
{"point":[692,1404]},
{"point":[692,1406]},
{"point":[694,1408]},
{"point":[694,1409]},
{"point":[704,1419]},
{"point":[704,1420]},
{"point":[713,1429]},
{"point":[714,1429]},
{"point":[715,1430]},
{"point":[717,1430]},
{"point":[718,1431]},
{"point":[720,1431]},
{"point":[721,1432]},
{"point":[723,1432]},
{"point":[724,1433]},
{"point":[726,1433]},
{"point":[727,1434]},
{"point":[728,1434]},
{"point":[729,1435]},
{"point":[731,1435]},
{"point":[732,1436]},
{"point":[734,1436]},
{"point":[735,1437]},
{"point":[737,1437]},
{"point":[738,1438]},
{"point":[740,1438]},
{"point":[742,1440]},
{"point":[742,1443]},
{"point":[743,1444]},
{"point":[743,1457]},
{"point":[742,1458]},
{"point":[742,1469]},
{"point":[743,1470]},
{"point":[743,1471]},
{"point":[742,1472]},
{"point":[742,1498]},
{"point":[743,1499]},
{"point":[743,1509]},
{"point":[742,1510]},
{"point":[742,1512]},
{"point":[743,1513]},
{"point":[743,1520]},
{"point":[742,1521]},
{"point":[742,1525]},
{"point":[743,1526]},
{"point":[743,1535]},
{"point":[742,1536]},
{"point":[742,1540]},
{"point":[743,1541]},
{"point":[743,1546]},
{"point":[742,1547]},
{"point":[742,1549]},
{"point":[743,1550]},
{"point":[743,1551]},
{"point":[742,1552]},
{"point":[742,1558]},
{"point":[743,1559]},
{"point":[743,1563]},
{"point":[742,1564]},
{"point":[742,1566]},
{"point":[743,1567]},
{"point":[743,1609]},
{"point":[742,1610]},
{"point":[742,1631]},
{"point":[743,1632]},
{"point":[743,1640]},
{"point":[742,1641]},
{"point":[742,1644]},
{"point":[743,1645]},
{"point":[742,1646]},
{"point":[742,1648]},
{"point":[743,1649]},
{"point":[743,1660]},
{"point":[742,1661]},
{"point":[742,1666]},
{"point":[743,1667]},
{"point":[743,1691]},
{"point":[742,1692]},
{"point":[742,1694]},
{"point":[743,1695]},
{"point":[743,1709]},
{"point":[742,1710]},
{"point":[742,1712]},
{"point":[743,1713]},
{"point":[743,1743]},
{"point":[742,1744]},
{"point":[742,1746]},
{"point":[743,1747]},
{"point":[743,1751]},
{"point":[742,1752]},
{"point":[742,1757]},
{"point":[743,1758]},
{"point":[743,1777]},
{"point":[742,1778]},
{"point":[742,1783]},
{"point":[743,1784]},
{"point":[743,1789]},
{"point":[742,1790]},
{"point":[742,1793]},
{"point":[743,1794]},
{"point":[743,1800]},
{"point":[742,1801]},
{"point":[742,1805]},
{"point":[743,1806]},
{"point":[743,1808]},
{"point":[742,1809]},
{"point":[742,1814]},
{"point":[743,1815]},
{"point":[743,1828]},
{"point":[742,1829]},
{"point":[742,1831]},
{"point":[743,1832]},
{"point":[743,1844]},
{"point":[742,1845]},
{"point":[742,1847]},
{"point":[743,1848]},
{"point":[743,1876]},
{"point":[742,1877]},
{"point":[742,1879]},
{"point":[743,1880]},
{"point":[742,1881]},
{"point":[742,1883]},
{"point":[743,1884]},
{"point":[742,1885]},
{"point":[742,1896]},
{"point":[743,1897]},
{"point":[743,1934]},
{"point":[742,1935]},
{"point":[742,1944]},
{"point":[743,1945]},
{"point":[743,1950]},
{"point":[744,1951]},
{"point":[778,1951]},
{"point":[779,1952]},
{"point":[814,1952]},
{"point":[815,1953]},
{"point":[849,1953]},
{"point":[850,1954]},
{"point":[887,1954]},
{"point":[888,1955]},
{"point":[923,1955]},
{"point":[924,1956]},
{"point":[955,1956]},
{"point":[956,1957]},
{"point":[995,1957]},
{"point":[996,1958]},
{"point":[1031,1958]},
{"point":[1032,1959]},
{"point":[1067,1959]},
{"point":[1068,1960]},
{"point":[1104,1960]},
{"point":[1105,1961]},
{"point":[1140,1961]},
{"point":[1141,1962]},
{"point":[1177,1962]},
{"point":[1178,1963]},
{"point":[1212,1963]},
{"point":[1213,1964]},
{"point":[1248,1964]},
{"point":[1249,1965]},
{"point":[1285,1965]},
{"point":[1286,1966]},
{"point":[1320,1966]},
{"point":[1321,1967]},
{"point":[1357,1967]},
{"point":[1358,1968]},
{"point":[1392,1968]},
{"point":[1393,1969]},
{"point":[1425,1969]},
{"point":[1426,1970]},
{"point":[1464,1970]},
{"point":[1465,1971]},
{"point":[1499,1971]},
{"point":[1500,1972]},
{"point":[1536,1972]},
{"point":[1537,1973]},
{"point":[1567,1973]},
{"point":[1568,1972]},
{"point":[1574,1972]},
{"point":[1575,1971]},
{"point":[1581,1971]},
{"point":[1582,1970]},
{"point":[1589,1970]},
{"point":[1590,1969]},
{"point":[1596,1969]},
{"point":[1597,1968]},
{"point":[1603,1968]},
{"point":[1604,1967]},
{"point":[1611,1967]},
{"point":[1612,1966]},
{"point":[1618,1966]},
{"point":[1619,1965]},
{"point":[1625,1965]},
{"point":[1626,1964]},
{"point":[1633,1964]},
{"point":[1634,1963]},
{"point":[1640,1963]},
{"point":[1641,1962]},
{"point":[1647,1962]},
{"point":[1648,1961]},
{"point":[1654,1961]},
{"point":[1655,1960]},
{"point":[1662,1960]},
{"point":[1663,1959]},
{"point":[1669,1959]},
{"point":[1670,1958]},
{"point":[1676,1958]},
{"point":[1677,1957]},
{"point":[1683,1957]},
{"point":[1684,1956]},
{"point":[1691,1956]},
{"point":[1692,1955]},
{"point":[1698,1955]},
{"point":[1699,1954]},
{"point":[1706,1954]},
{"point":[1707,1953]},
{"point":[1712,1953]},
{"point":[1713,1952]},
{"point":[1720,1952]},
{"point":[1721,1951]},
{"point":[1727,1951]},
{"point":[1728,1950]},
{"point":[1734,1950]},
{"point":[1735,1949]},
{"point":[1742,1949]},
{"point":[1743,1948]},
{"point":[1748,1948]},
{"point":[1749,1947]},
{"point":[1756,1947]},
{"point":[1757,1946]},
{"point":[1764,1946]},
{"point":[1765,1945]},
{"point":[1771,1945]},
{"point":[1772,1944]},
{"point":[1778,1944]},
{"point":[1779,1943]},
{"point":[1785,1943]},
{"point":[1786,1942]},
{"point":[1793,1942]},
{"point":[1794,1941]},
{"point":[1800,1941]},
{"point":[1801,1940]},
{"point":[1807,1940]},
{"point":[1808,1939]},
{"point":[1814,1939]},
{"point":[1815,1938]},
{"point":[1822,1938]},
{"point":[1823,1937]},
{"point":[1829,1937]},
{"point":[1830,1936]},
{"point":[1836,1936]},
{"point":[1837,1935]},
{"point":[1843,1935]},
{"point":[1844,1934]},
{"point":[1851,1934]},
{"point":[1852,1933]},
{"point":[1858,1933]},
{"point":[1859,1932]},
{"point":[1865,1932]},
{"point":[1866,1931]},
{"point":[1872,1931]},
{"point":[1873,1930]},
{"point":[1877,1930]},
{"point":[1877,1929]},
{"point":[1878,1928]},
{"point":[1878,1921]},
{"point":[1877,1920]},
{"point":[1877,1899]},
{"point":[1876,1898]},
{"point":[1876,1877]},
{"point":[1875,1876]},
{"point":[1875,1854]},
{"point":[1874,1853]},
{"point":[1874,1832]},
{"point":[1873,1831]},
{"point":[1873,1810]},
{"point":[1872,1809]},
{"point":[1872,1788]},
{"point":[1871,1787]},
{"point":[1871,1765]},
{"point":[1870,1764]},
{"point":[1870,1743]},
{"point":[1869,1742]},
{"point":[1869,1721]},
{"point":[1868,1720]},
{"point":[1868,1698]},
{"point":[1867,1697]},
{"point":[1867,1676]},
{"point":[1866,1675]},
{"point":[1866,1654]},
{"point":[1865,1653]},
{"point":[1865,1632]},
{"point":[1864,1631]},
{"point":[1864,1610]},
{"point":[1863,1609]},
{"point":[1863,1587]},
{"point":[1862,1586]},
{"point":[1862,1565]},
{"point":[1861,1564]},
{"point":[1861,1543]},
{"point":[1860,1542]},
{"point":[1860,1521]},
{"point":[1859,1520]},
{"point":[1859,1498]},
{"point":[1858,1497]},
{"point":[1858,1476]},
{"point":[1857,1475]},
{"point":[1857,1454]},
{"point":[1856,1453]},
{"point":[1856,1433]},
{"point":[1855,1432]},
{"point":[1855,1431]},
{"point":[1853,1431]},
{"point":[1852,1430]},
{"point":[1852,1424]},
{"point":[1851,1423]},
{"point":[1851,1419]},
{"point":[1852,1418]},
{"point":[1852,1417]},
{"point":[1853,1416]},
{"point":[1853,1414]},
{"point":[1852,1414]},
{"point":[1851,1413]},
{"point":[1851,1408]},
{"point":[1850,1407]},
{"point":[1850,1396]},
{"point":[1849,1395]},
{"point":[1850,1394]},
{"point":[1850,1393]},
{"point":[1851,1392]},
{"point":[1851,1391]},
{"point":[1852,1390]},
{"point":[1852,1389]},
{"point":[1854,1387]},
{"point":[1855,1387]},
{"point":[1857,1385]},
{"point":[1857,1383]},
{"point":[1858,1382]},
{"point":[1858,1381]},
{"point":[1860,1379]},
{"point":[1861,1379]},
{"point":[1862,1378]},
{"point":[1867,1378]},
{"point":[1868,1377]},
{"point":[1869,1377]},
{"point":[1870,1376]},
{"point":[1872,1376]},
{"point":[1873,1375]},
{"point":[1878,1375]},
{"point":[1879,1374]},
{"point":[1879,1364]},
{"point":[1878,1363]},
{"point":[1878,1361]},
{"point":[1877,1361]},
{"point":[1876,1360]},
{"point":[1875,1360]},
{"point":[1874,1359]},
{"point":[1868,1359]},
{"point":[1867,1358]},
{"point":[1865,1358]},
{"point":[1861,1354]},
{"point":[1861,1353]},
{"point":[1862,1352]},
{"point":[1862,1331]},
{"point":[1865,1328]},
{"point":[1866,1328]},
{"point":[1867,1327]},
{"point":[1867,1323]},
{"point":[1866,1322]},
{"point":[1866,1319]},
{"point":[1864,1319]},
{"point":[1861,1316]},
{"point":[1861,1315]},
{"point":[1862,1314]},
{"point":[1862,1310]},
{"point":[1861,1309]},
{"point":[1861,1291]},
{"point":[1860,1290]},
{"point":[1860,1284]},
{"point":[1862,1282]},
{"point":[1862,1281]},
{"point":[1865,1278]},
{"point":[1865,1277]},
{"point":[1867,1275]},
{"point":[1868,1275]},
{"point":[1869,1274]},
{"point":[1871,1274]},
{"point":[1872,1273]},
{"point":[1875,1273]},
{"point":[1876,1272]},
{"point":[1881,1272]},
{"point":[1882,1271]},
{"point":[1883,1271]},
{"point":[1884,1270]},
{"point":[1888,1270]},
{"point":[1889,1269]},
{"point":[1893,1269]},
{"point":[1894,1268]},
{"point":[1897,1268]},
{"point":[1899,1266]},
{"point":[1901,1266]},
{"point":[1903,1264]},
{"point":[1904,1264]},
{"point":[1904,1263]},
{"point":[1906,1261]},
{"point":[1906,1259]},
{"point":[1907,1258]},
{"point":[1907,1251]},
{"point":[1909,1249]},
{"point":[1911,1249]},
{"point":[1917,1243]},
{"point":[1918,1243]},
{"point":[1919,1242]},
{"point":[1920,1242]},
{"point":[1921,1241]},
{"point":[1922,1241]},
{"point":[1923,1240]},
{"point":[1925,1240]},
{"point":[1925,1239]},
{"point":[1928,1236]},
{"point":[1928,1235]},
{"point":[1930,1233]},
{"point":[1930,1225]},
{"point":[1927,1225]},
{"point":[1926,1224]},
{"point":[1920,1224]},
{"point":[1918,1222]},
{"point":[1915,1222]},
{"point":[1914,1221]},
{"point":[1910,1221]},
{"point":[1908,1219]},
{"point":[1907,1219]},
{"point":[1906,1218]},
{"point":[1906,1217]},
{"point":[1905,1216]},
{"point":[1901,1216]},
{"point":[1900,1215]},
{"point":[1898,1215]},
{"point":[1897,1216]},
{"point":[1896,1215]},
{"point":[1894,1215]},
{"point":[1893,1214]},
{"point":[1891,1214]},
{"point":[1890,1213]},
{"point":[1885,1213]},
{"point":[1884,1212]},
{"point":[1882,1212]},
{"point":[1881,1211]},
{"point":[1875,1211]},
{"point":[1874,1210]},
{"point":[1870,1210]},
{"point":[1869,1209]},
{"point":[1867,1209]},
{"point":[1866,1208]},
{"point":[1858,1208]},
{"point":[1856,1206]},
{"point":[1856,1205]},
{"point":[1855,1204]},
{"point":[1855,1199]},
{"point":[1854,1198]},
{"point":[1854,1196]},
{"point":[1852,1194]},
{"point":[1848,1194]},
{"point":[1847,1193]},
{"point":[1840,1193]},
{"point":[1839,1192]},
{"point":[1834,1192]},
{"point":[1833,1191]},
{"point":[1829,1191]},
{"point":[1828,1190]},
{"point":[1825,1190]},
{"point":[1824,1189]},
{"point":[1821,1189]},
{"point":[1820,1188]},
{"point":[1817,1188]},
{"point":[1816,1187]},
{"point":[1813,1187]},
{"point":[1812,1186]},
{"point":[1811,1186]},
{"point":[1808,1183]},
{"point":[1808,1181]},
{"point":[1807,1180]},
{"point":[1807,1176]},
{"point":[1806,1175]},
{"point":[1806,1153]},
{"point":[1805,1152]},
{"point":[1805,1150]},
{"point":[1806,1149]},
{"point":[1806,1146]},
{"point":[1805,1145]},
{"point":[1805,1131]},
{"point":[1804,1130]},
{"point":[1804,1126]},
{"point":[1805,1125]},
{"point":[1805,1121]},
{"point":[1804,1120]},
{"point":[1804,1116]},
{"point":[1805,1115]},
{"point":[1805,1111]},
{"point":[1804,1110]},
{"point":[1804,1109]},
{"point":[1806,1107]},
{"point":[1806,1106]},
{"point":[1809,1103]},
{"point":[1811,1103]},
{"point":[1813,1101]},
{"point":[1814,1101]},
{"point":[1814,1099]},
{"point":[1815,1098]},
{"point":[1815,1096]},
{"point":[1816,1095]},
{"point":[1819,1095]},
{"point":[1820,1094]},
{"point":[1821,1094]},
{"point":[1822,1093]},
{"point":[1824,1093]},
{"point":[1825,1092]},
{"point":[1826,1092]},
{"point":[1827,1091]},
{"point":[1828,1091]},
{"point":[1829,1090]},
{"point":[1830,1090]},
{"point":[1832,1088]},
{"point":[1832,1087]},
{"point":[1833,1086]},
{"point":[1833,1081]},
{"point":[1835,1079]},
{"point":[1835,1077]},
{"point":[1833,1075]},
{"point":[1833,1073]},
{"point":[1831,1073]},
{"point":[1830,1072]},
{"point":[1827,1072]},
{"point":[1826,1071]},
{"point":[1823,1071]},
{"point":[1822,1070]},
{"point":[1818,1070]},
{"point":[1817,1069]},
{"point":[1814,1069]},
{"point":[1813,1068]},
{"point":[1812,1068]},
{"point":[1811,1067]},
{"point":[1808,1067]},
{"point":[1807,1066]},
{"point":[1803,1066]},
{"point":[1802,1065]},
{"point":[1799,1065]},
{"point":[1798,1064]},
{"point":[1796,1064]},
{"point":[1795,1063]},
{"point":[1792,1063]},
{"point":[1791,1062]},
{"point":[1786,1062]},
{"point":[1785,1061]},
{"point":[1783,1061]},
{"point":[1782,1060]},
{"point":[1777,1060]},
{"point":[1776,1059]},
{"point":[1775,1059]},
{"point":[1774,1058]},
{"point":[1771,1058]},
{"point":[1770,1057]},
{"point":[1767,1057]},
{"point":[1766,1056]},
{"point":[1762,1056]},
{"point":[1761,1055]},
{"point":[1759,1055]},
{"point":[1758,1054]},
{"point":[1756,1054]},
{"point":[1755,1053]},
{"point":[1752,1053]},
{"point":[1751,1052]},
{"point":[1748,1052]},
{"point":[1747,1051]},
{"point":[1740,1051]},
{"point":[1739,1050]},
{"point":[1738,1050]},
{"point":[1737,1049]},
{"point":[1735,1049]},
{"point":[1734,1048]},
{"point":[1729,1048]},
{"point":[1728,1047]},
{"point":[1726,1047]},
{"point":[1725,1046]},
{"point":[1722,1046]},
{"point":[1721,1045]},
{"point":[1719,1045]},
{"point":[1718,1044]},
{"point":[1715,1044]},
{"point":[1714,1043]},
{"point":[1709,1043]},
{"point":[1708,1042]},
{"point":[1706,1042]},
{"point":[1705,1041]},
{"point":[1701,1041]},
{"point":[1700,1040]},
{"point":[1698,1040]},
{"point":[1697,1039]},
{"point":[1694,1039]},
{"point":[1693,1038]},
{"point":[1692,1038]},
{"point":[1691,1037]},
{"point":[1688,1037]},
{"point":[1687,1036]},
{"point":[1684,1036]},
{"point":[1683,1035]},
{"point":[1680,1035]},
{"point":[1679,1034]},
{"point":[1674,1034]},
{"point":[1673,1033]},
{"point":[1671,1033]},
{"point":[1670,1032]},
{"point":[1667,1032]},
{"point":[1666,1031]},
{"point":[1664,1031]},
{"point":[1663,1030]},
{"point":[1659,1030]},
{"point":[1658,1029]},
{"point":[1657,1029]},
{"point":[1653,1025]},
{"point":[1653,1023]},
{"point":[1657,1019]},
{"point":[1657,1017]},
{"point":[1656,1016]},
{"point":[1656,1015]},
{"point":[1655,1014]},
{"point":[1642,1014]},
{"point":[1641,1015]},
{"point":[1640,1015]},
{"point":[1639,1016]},
{"point":[1637,1016]},
{"point":[1637,1021]},
{"point":[1638,1021]},
{"point":[1639,1022]},
{"point":[1641,1022]},
{"point":[1642,1023]},
{"point":[1642,1024]},
{"point":[1641,1025]},
{"point":[1640,1025]},
{"point":[1639,1024]},
{"point":[1638,1024]},
{"point":[1637,1023]},
{"point":[1632,1023]},
{"point":[1631,1022]},
{"point":[1627,1022]},
{"point":[1626,1021]},
{"point":[1623,1021]},
{"point":[1621,1019]},
{"point":[1614,1019]},
{"point":[1613,1018]},
{"point":[1611,1018]},
{"point":[1609,1016]},
{"point":[1604,1016]},
{"point":[1603,1015]},
{"point":[1598,1015]},
{"point":[1597,1014]},
{"point":[1595,1014]},
{"point":[1593,1012]},
{"point":[1588,1012]},
{"point":[1587,1011]},
{"point":[1583,1011]},
{"point":[1581,1009]},
{"point":[1575,1009]},
{"point":[1574,1008]},
{"point":[1571,1008]},
{"point":[1570,1007]},
{"point":[1563,1007]},
{"point":[1562,1006]},
{"point":[1557,1006]},
{"point":[1556,1007]},
{"point":[1554,1007]},
{"point":[1552,1009]},
{"point":[1548,1009]},
{"point":[1547,1010]},
{"point":[1545,1010]},
{"point":[1544,1011]},
{"point":[1542,1011]},
{"point":[1541,1012]},
{"point":[1540,1012]},
{"point":[1538,1014]},
{"point":[1535,1014]},
{"point":[1533,1016]},
{"point":[1527,1016]},
{"point":[1527,1017]},
{"point":[1525,1019]},
{"point":[1522,1019]},
{"point":[1521,1020]},
{"point":[1517,1020]},
{"point":[1516,1021]},
{"point":[1515,1021]},
{"point":[1514,1022]},
{"point":[1513,1022]},
{"point":[1512,1023]},
{"point":[1510,1023]},
{"point":[1508,1025]},
{"point":[1506,1025]},
{"point":[1505,1026]},
{"point":[1503,1026]},
{"point":[1502,1027]},
{"point":[1498,1027]},
{"point":[1497,1028]},
{"point":[1495,1028]},
{"point":[1493,1030]},
{"point":[1490,1030]},
{"point":[1489,1031]},
{"point":[1488,1031]},
{"point":[1487,1032]},
{"point":[1484,1032]},
{"point":[1482,1034]},
{"point":[1481,1034]},
{"point":[1480,1035]},
{"point":[1478,1035]},
{"point":[1477,1036]},
{"point":[1475,1036]},
{"point":[1474,1037]},
{"point":[1473,1037]},
{"point":[1472,1038]},
{"point":[1467,1038]},
{"point":[1467,1039]},
{"point":[1465,1041]},
{"point":[1463,1041]},
{"point":[1462,1042]},
{"point":[1461,1042]},
{"point":[1460,1043]},
{"point":[1455,1043]},
{"point":[1454,1042]},
{"point":[1451,1042]},
{"point":[1449,1040]},
{"point":[1448,1040]},
{"point":[1446,1038]},
{"point":[1441,1038]},
{"point":[1440,1039]},
{"point":[1436,1039]},
{"point":[1435,1038]},
{"point":[1431,1038]},
{"point":[1430,1039]},
{"point":[1428,1039]},
{"point":[1427,1040]},
{"point":[1426,1040]},
{"point":[1425,1041]},
{"point":[1424,1041]},
{"point":[1423,1042]},
{"point":[1422,1042]},
{"point":[1420,1044]},
{"point":[1419,1044]},
{"point":[1418,1045]},
{"point":[1417,1045]},
{"point":[1414,1048]},
{"point":[1413,1048]},
{"point":[1410,1051]},
{"point":[1410,1052]},
{"point":[1409,1053]},
{"point":[1409,1055]},
{"point":[1407,1057]},
{"point":[1407,1058]},
{"point":[1406,1059]},
{"point":[1405,1059]},
{"point":[1405,1060]},
{"point":[1404,1061]},
{"point":[1403,1061]},
{"point":[1402,1062]},
{"point":[1402,1063]},
{"point":[1401,1064]},
{"point":[1399,1064]},
{"point":[1398,1065]},
{"point":[1396,1065]},
{"point":[1395,1066]},
{"point":[1391,1066]},
{"point":[1390,1067]},
{"point":[1387,1067]},
{"point":[1386,1068]},
{"point":[1384,1068]},
{"point":[1383,1067]},
{"point":[1381,1067]},
{"point":[1380,1066]},
{"point":[1378,1066]},
{"point":[1377,1065]},
{"point":[1376,1065]},
{"point":[1375,1064]},
{"point":[1369,1064]},
{"point":[1368,1063]},
{"point":[1361,1063]},
{"point":[1360,1062]},
{"point":[1348,1062]},
{"point":[1347,1063]},
{"point":[1345,1063]},
{"point":[1344,1062]},
{"point":[1343,1062]},
{"point":[1342,1061]},
{"point":[1337,1061]},
{"point":[1336,1060]},
{"point":[1333,1060]},
{"point":[1332,1059]},
{"point":[1328,1059]},
{"point":[1328,1063]},
{"point":[1329,1063]},
{"point":[1330,1064]},
{"point":[1329,1065]},
{"point":[1329,1066]},
{"point":[1328,1067]},
{"point":[1328,1071]},
{"point":[1327,1072]},
{"point":[1327,1073]},
{"point":[1326,1074]},
{"point":[1325,1074]},
{"point":[1324,1075]},
{"point":[1324,1076]},
{"point":[1323,1077]},
{"point":[1321,1077]},
{"point":[1320,1078]},
{"point":[1311,1078]},
{"point":[1310,1079]},
{"point":[1306,1079]},
{"point":[1305,1078]},
{"point":[1303,1078]},
{"point":[1302,1077]},
{"point":[1300,1077]},
{"point":[1299,1076]},
{"point":[1291,1076]},
{"point":[1290,1077]},
{"point":[1287,1077]},
{"point":[1285,1079]},
{"point":[1284,1079]},
{"point":[1282,1081]},
{"point":[1280,1081]},
{"point":[1279,1082]},
{"point":[1276,1082]},
{"point":[1275,1083]},
{"point":[1274,1083]},
{"point":[1273,1082]},
{"point":[1273,1081]},
{"point":[1271,1079]},
{"point":[1271,1075]},
{"point":[1270,1074]},
{"point":[1270,1071]},
{"point":[1269,1070]},
{"point":[1269,1067]},
{"point":[1268,1066]},
{"point":[1268,1064]},
{"point":[1267,1063]},
{"point":[1267,1062]},
{"point":[1266,1061]},
{"point":[1266,1060]},
{"point":[1265,1059]},
{"point":[1265,1055]},
{"point":[1264,1054]},
{"point":[1263,1054]},
{"point":[1262,1053]},
{"point":[1262,1052]},
{"point":[1260,1050]},
{"point":[1260,1049]},
{"point":[1256,1045]},
{"point":[1256,1044]},
{"point":[1250,1038]},
{"point":[1250,1037]},
{"point":[1249,1036]},
{"point":[1249,1035]},
{"point":[1241,1027]},
{"point":[1241,1022]},
{"point":[1240,1022]},
{"point":[1239,1021]},
{"point":[1237,1021]},
{"point":[1236,1020]},
{"point":[1235,1020]},
{"point":[1232,1017]},
{"point":[1232,1014]},
{"point":[1234,1012]},
{"point":[1235,1012]},
{"point":[1235,1008]},
{"point":[1238,1005]},
{"point":[1238,997]},
{"point":[1237,996]},
{"point":[1238,995]},
{"point":[1239,995]},
{"point":[1239,994]},
{"point":[1240,993]},
{"point":[1240,989]},
{"point":[1239,988]},
{"point":[1240,987]},
{"point":[1241,987]},
{"point":[1241,985]},
{"point":[1240,984]},
{"point":[1240,983]},
{"point":[1237,983]},
{"point":[1237,984]},
{"point":[1235,986]},
{"point":[1234,986]},
{"point":[1234,991]},
{"point":[1232,993]},
{"point":[1232,996]},
{"point":[1233,996]},
{"point":[1234,997]},
{"point":[1233,998]},
{"point":[1232,998]},
{"point":[1231,999]},
{"point":[1231,1003]},
{"point":[1230,1004]},
{"point":[1230,1007]},
{"point":[1228,1009]},
{"point":[1228,1012]},
{"point":[1227,1013]},
{"point":[1226,1013]},
{"point":[1223,1010]},
{"point":[1223,1008]},
{"point":[1220,1005]},
{"point":[1220,1004]},
{"point":[1217,1001]},
{"point":[1218,1000]},
{"point":[1219,1000]},
{"point":[1219,997]},
{"point":[1220,996]},
{"point":[1220,989]},
{"point":[1221,988]},
{"point":[1221,985]},
{"point":[1222,984]},
{"point":[1222,978]},
{"point":[1221,977]},
{"point":[1221,976]},
{"point":[1222,975]},
{"point":[1233,975]},
{"point":[1234,976]},
{"point":[1236,976]},
{"point":[1237,975]},
{"point":[1238,976]},
{"point":[1238,980]},
{"point":[1239,981]},
{"point":[1243,981]},
{"point":[1245,979]},
{"point":[1245,976]},
{"point":[1246,975]},
{"point":[1246,974]},
{"point":[1249,971]},
{"point":[1249,969]},
{"point":[1250,968]},
{"point":[1250,959]},
{"point":[1249,958]},
{"point":[1249,957]},
{"point":[1248,956]},
{"point":[1248,954]},
{"point":[1249,953]},
{"point":[1252,953]},
{"point":[1252,950]},
{"point":[1251,949]},
{"point":[1251,948]},
{"point":[1252,947]},
{"point":[1253,947]},
{"point":[1253,943]},
{"point":[1249,943]},
{"point":[1249,946]},
{"point":[1248,947]},
{"point":[1247,947]},
{"point":[1247,951]},
{"point":[1246,952]},
{"point":[1244,952]},
{"point":[1244,957]},
{"point":[1243,958]},
{"point":[1243,959]},
{"point":[1241,961]},
{"point":[1240,961]},
{"point":[1238,963]},
{"point":[1229,963]},
{"point":[1228,962]},
{"point":[1225,962]},
{"point":[1224,961]},
{"point":[1222,961]},
{"point":[1220,959]},
{"point":[1220,957]},
{"point":[1219,956]},
{"point":[1219,955]},
{"point":[1221,953]},
{"point":[1221,945]},
{"point":[1220,945]},
{"point":[1219,944]},
{"point":[1217,944]},
{"point":[1216,943]},
{"point":[1209,943]},
{"point":[1208,942]},
{"point":[1208,937]},
{"point":[1207,936]},
{"point":[1207,934]}
],
"xScale" : 2448,"yScale" : 3264}