{"matchingPoints" : [{"point":[1082,1041]},
{"point":[1093.68,1691.36]},
{"point":[405,1041]},
{"point":[1734,1041]},
{"point":[405,2123]},
{"point":[1734,2123]},
{"point":[1090.45,1683.85]},
{"point":[322,1020]},
{"point":[1860,1020]},
{"point":[322,2348]},
{"point":[1860,2348]},
{"point":[1071.05,1575.42]},
{"point":[394,1026]},
{"point":[1749,1026]},
{"point":[394,2126]},
{"point":[1749,2126]},
{"point":[1071.93,1718.43]}
],
"matchingPointsDescriptions" : [{"point":[0.441993,0.318934]},
{"point":[0.446766,0.518185]},
{"point":[0.165441,0.318934]},
{"point":[0.708333,0.318934]},
{"point":[0.165441,0.650429]},
{"point":[0.708333,0.650429]},
{"point":[0.445447,0.515885]},
{"point":[0.131536,0.3125]},
{"point":[0.759804,0.3125]},
{"point":[0.131536,0.719363]},
{"point":[0.759804,0.719363]},
{"point":[0.437522,0.482666]},
{"point":[0.160948,0.314338]},
{"point":[0.714461,0.314338]},
{"point":[0.160948,0.651348]},
{"point":[0.714461,0.651348]},
{"point":[0.43788,0.526479]}
],
"contour": [{"point":[1082,1041]},
{"point":[1078,1045]},
{"point":[1077,1045]},
{"point":[1071,1051]},
{"point":[1070,1051]},
{"point":[1069,1052]},
{"point":[1068,1052]},
{"point":[1067,1053]},
{"point":[1066,1053]},
{"point":[1065,1054]},
{"point":[1065,1055]},
{"point":[1063,1057]},
{"point":[1063,1059]},
{"point":[1062,1060]},
{"point":[1061,1060]},
{"point":[1060,1059]},
{"point":[1060,1056]},
{"point":[1059,1056]},
{"point":[1058,1055]},
{"point":[1055,1055]},
{"point":[1053,1053]},
{"point":[1048,1053]},
{"point":[1048,1054]},
{"point":[1047,1055]},
{"point":[1047,1058]},
{"point":[1045,1060]},
{"point":[1045,1064]},
{"point":[1046,1065]},
{"point":[1046,1067]},
{"point":[1047,1068]},
{"point":[1047,1070]},
{"point":[1048,1071]},
{"point":[1053,1071]},
{"point":[1055,1073]},
{"point":[1054,1074]},
{"point":[1054,1075]},
{"point":[1052,1077]},
{"point":[1052,1078]},
{"point":[1050,1080]},
{"point":[1050,1081]},
{"point":[1048,1083]},
{"point":[1048,1084]},
{"point":[1046,1086]},
{"point":[1046,1087]},
{"point":[1044,1089]},
{"point":[1044,1090]},
{"point":[1042,1092]},
{"point":[1042,1093]},
{"point":[1041,1094]},
{"point":[1041,1096]},
{"point":[1042,1097]},
{"point":[1042,1104]},
{"point":[1044,1106]},
{"point":[1044,1107]},
{"point":[1045,1108]},
{"point":[1046,1108]},
{"point":[1048,1110]},
{"point":[1048,1111]},
{"point":[1049,1112]},
{"point":[1049,1116]},
{"point":[1048,1117]},
{"point":[1047,1117]},
{"point":[1047,1124]},
{"point":[1045,1126]},
{"point":[1045,1131]},
{"point":[1044,1132]},
{"point":[1043,1132]},
{"point":[1042,1133]},
{"point":[1038,1133]},
{"point":[1037,1132]},
{"point":[1035,1132]},
{"point":[1033,1130]},
{"point":[1028,1130]},
{"point":[1026,1128]},
{"point":[1027,1127]},
{"point":[1027,1126]},
{"point":[1028,1125]},
{"point":[1028,1124]},
{"point":[1029,1123]},
{"point":[1029,1115]},
{"point":[1028,1114]},
{"point":[1028,1109]},
{"point":[1027,1108]},
{"point":[1027,1105]},
{"point":[1026,1105]},
{"point":[1025,1104]},
{"point":[1019,1104]},
{"point":[1016,1107]},
{"point":[1016,1109]},
{"point":[1013,1112]},
{"point":[1013,1113]},
{"point":[1012,1114]},
{"point":[1011,1114]},
{"point":[1008,1117]},
{"point":[1008,1119]},
{"point":[1007,1120]},
{"point":[1007,1123]},
{"point":[1008,1124]},
{"point":[1008,1127]},
{"point":[1007,1128]},
{"point":[1006,1128]},
{"point":[1003,1131]},
{"point":[1002,1131]},
{"point":[1001,1130]},
{"point":[999,1130]},
{"point":[998,1129]},
{"point":[996,1129]},
{"point":[995,1128]},
{"point":[993,1128]},
{"point":[990,1125]},
{"point":[990,1117]},
{"point":[989,1116]},
{"point":[989,1115]},
{"point":[980,1115]},
{"point":[978,1117]},
{"point":[977,1117]},
{"point":[974,1120]},
{"point":[974,1121]},
{"point":[973,1122]},
{"point":[972,1122]},
{"point":[971,1123]},
{"point":[971,1124]},
{"point":[970,1125]},
{"point":[970,1126]},
{"point":[969,1127]},
{"point":[969,1128]},
{"point":[967,1130]},
{"point":[967,1131]},
{"point":[965,1133]},
{"point":[965,1135]},
{"point":[963,1137]},
{"point":[963,1139]},
{"point":[962,1140]},
{"point":[962,1143]},
{"point":[961,1144]},
{"point":[961,1146]},
{"point":[960,1147]},
{"point":[960,1149]},
{"point":[959,1150]},
{"point":[959,1155]},
{"point":[958,1156]},
{"point":[958,1159]},
{"point":[957,1160]},
{"point":[957,1165]},
{"point":[956,1166]},
{"point":[956,1170]},
{"point":[955,1171]},
{"point":[955,1183]},
{"point":[956,1184]},
{"point":[956,1186]},
{"point":[957,1186]},
{"point":[958,1187]},
{"point":[964,1187]},
{"point":[965,1186]},
{"point":[966,1186]},
{"point":[970,1182]},
{"point":[973,1182]},
{"point":[975,1180]},
{"point":[975,1179]},
{"point":[976,1178]},
{"point":[976,1177]},
{"point":[979,1174]},
{"point":[979,1173]},
{"point":[982,1170]},
{"point":[983,1170]},
{"point":[984,1169]},
{"point":[987,1169]},
{"point":[988,1170]},
{"point":[987,1171]},
{"point":[987,1174]},
{"point":[986,1175]},
{"point":[986,1181]},
{"point":[985,1182]},
{"point":[985,1193]},
{"point":[984,1194]},
{"point":[984,1204]},
{"point":[982,1206]},
{"point":[977,1206]},
{"point":[976,1207]},
{"point":[975,1207]},
{"point":[974,1206]},
{"point":[966,1206]},
{"point":[965,1205]},
{"point":[961,1205]},
{"point":[960,1206]},
{"point":[958,1206]},
{"point":[956,1208]},
{"point":[956,1209]},
{"point":[952,1213]},
{"point":[952,1214]},
{"point":[950,1216]},
{"point":[950,1217]},
{"point":[948,1219]},
{"point":[945,1219]},
{"point":[943,1221]},
{"point":[941,1221]},
{"point":[939,1223]},
{"point":[937,1223]},
{"point":[932,1228]},
{"point":[932,1229]},
{"point":[928,1233]},
{"point":[928,1235]},
{"point":[927,1236]},
{"point":[927,1237]},
{"point":[926,1238]},
{"point":[926,1242]},
{"point":[925,1243]},
{"point":[925,1244]},
{"point":[924,1245]},
{"point":[924,1250]},
{"point":[923,1251]},
{"point":[923,1265]},
{"point":[924,1266]},
{"point":[924,1269]},
{"point":[925,1270]},
{"point":[925,1278]},
{"point":[927,1280]},
{"point":[927,1284]},
{"point":[929,1286]},
{"point":[929,1289]},
{"point":[930,1290]},
{"point":[930,1292]},
{"point":[927,1295]},
{"point":[923,1295]},
{"point":[921,1297]},
{"point":[915,1297]},
{"point":[914,1298]},
{"point":[912,1298]},
{"point":[911,1299]},
{"point":[910,1298]},
{"point":[908,1298]},
{"point":[906,1300]},
{"point":[900,1300]},
{"point":[899,1301]},
{"point":[897,1301]},
{"point":[896,1302]},
{"point":[892,1302]},
{"point":[891,1303]},
{"point":[886,1303]},
{"point":[885,1304]},
{"point":[884,1304]},
{"point":[883,1305]},
{"point":[881,1305]},
{"point":[880,1306]},
{"point":[875,1306]},
{"point":[874,1307]},
{"point":[868,1307]},
{"point":[867,1308]},
{"point":[866,1308]},
{"point":[865,1309]},
{"point":[861,1309]},
{"point":[860,1310]},
{"point":[854,1310]},
{"point":[853,1311]},
{"point":[851,1311]},
{"point":[850,1312]},
{"point":[845,1312]},
{"point":[844,1313]},
{"point":[842,1313]},
{"point":[841,1314]},
{"point":[838,1314]},
{"point":[837,1315]},
{"point":[832,1315]},
{"point":[831,1316]},
{"point":[829,1316]},
{"point":[828,1317]},
{"point":[824,1317]},
{"point":[823,1318]},
{"point":[818,1318]},
{"point":[817,1319]},
{"point":[814,1319]},
{"point":[813,1320]},
{"point":[803,1320]},
{"point":[802,1321]},
{"point":[801,1321]},
{"point":[800,1322]},
{"point":[798,1322]},
{"point":[797,1323]},
{"point":[792,1323]},
{"point":[791,1324]},
{"point":[789,1324]},
{"point":[786,1327]},
{"point":[784,1327]},
{"point":[783,1328]},
{"point":[780,1328]},
{"point":[779,1329]},
{"point":[773,1329]},
{"point":[771,1331]},
{"point":[771,1335]},
{"point":[772,1336]},
{"point":[772,1341]},
{"point":[770,1343]},
{"point":[768,1343]},
{"point":[767,1344]},
{"point":[765,1344]},
{"point":[764,1345]},
{"point":[762,1345]},
{"point":[761,1346]},
{"point":[758,1346]},
{"point":[757,1347]},
{"point":[752,1347]},
{"point":[751,1348]},
{"point":[747,1348]},
{"point":[745,1350]},
{"point":[745,1355]},
{"point":[746,1356]},
{"point":[746,1359]},
{"point":[747,1360]},
{"point":[747,1362]},
{"point":[749,1362]},
{"point":[751,1364]},
{"point":[752,1364]},
{"point":[753,1365]},
{"point":[752,1366]},
{"point":[748,1366]},
{"point":[746,1368]},
{"point":[741,1368]},
{"point":[740,1369]},
{"point":[736,1369]},
{"point":[735,1370]},
{"point":[732,1370]},
{"point":[731,1371]},
{"point":[727,1371]},
{"point":[726,1372]},
{"point":[718,1372]},
{"point":[717,1373]},
{"point":[713,1373]},
{"point":[712,1374]},
{"point":[711,1374]},
{"point":[710,1375]},
{"point":[707,1375]},
{"point":[706,1376]},
{"point":[702,1376]},
{"point":[701,1377]},
{"point":[697,1377]},
{"point":[696,1378]},
{"point":[689,1378]},
{"point":[688,1379]},
{"point":[686,1379]},
{"point":[685,1380]},
{"point":[679,1380]},
{"point":[678,1381]},
{"point":[676,1381]},
{"point":[675,1382]},
{"point":[671,1382]},
{"point":[670,1383]},
{"point":[666,1383]},
{"point":[665,1384]},
{"point":[661,1384]},
{"point":[659,1386]},
{"point":[653,1386]},
{"point":[652,1387]},
{"point":[648,1387]},
{"point":[647,1388]},
{"point":[643,1388]},
{"point":[642,1389]},
{"point":[637,1389]},
{"point":[636,1390]},
{"point":[633,1390]},
{"point":[632,1391]},
{"point":[630,1391]},
{"point":[629,1392]},
{"point":[620,1392]},
{"point":[618,1394]},
{"point":[612,1394]},
{"point":[611,1395]},
{"point":[605,1395]},
{"point":[604,1396]},
{"point":[603,1396]},
{"point":[602,1397]},
{"point":[596,1397]},
{"point":[595,1396]},
{"point":[582,1396]},
{"point":[581,1397]},
{"point":[575,1397]},
{"point":[574,1398]},
{"point":[568,1398]},
{"point":[567,1399]},
{"point":[561,1399]},
{"point":[560,1400]},
{"point":[554,1400]},
{"point":[553,1401]},
{"point":[548,1401]},
{"point":[547,1402]},
{"point":[540,1402]},
{"point":[539,1403]},
{"point":[534,1403]},
{"point":[533,1404]},
{"point":[526,1404]},
{"point":[525,1405]},
{"point":[519,1405]},
{"point":[518,1406]},
{"point":[513,1406]},
{"point":[513,1410]},
{"point":[514,1410]},
{"point":[516,1412]},
{"point":[513,1415]},
{"point":[510,1415]},
{"point":[509,1416]},
{"point":[501,1416]},
{"point":[500,1417]},
{"point":[498,1417]},
{"point":[497,1418]},
{"point":[494,1418]},
{"point":[493,1419]},
{"point":[492,1419]},
{"point":[491,1420]},
{"point":[491,1421]},
{"point":[489,1423]},
{"point":[489,1431]},
{"point":[490,1432]},
{"point":[491,1432]},
{"point":[494,1435]},
{"point":[497,1435]},
{"point":[498,1436]},
{"point":[500,1436]},
{"point":[503,1439]},
{"point":[503,1440]},
{"point":[504,1441]},
{"point":[505,1441]},
{"point":[506,1442]},
{"point":[508,1442]},
{"point":[511,1445]},
{"point":[511,1446]},
{"point":[512,1447]},
{"point":[512,1485]},
{"point":[509,1488]},
{"point":[508,1488]},
{"point":[507,1489]},
{"point":[501,1489]},
{"point":[500,1490]},
{"point":[492,1490]},
{"point":[489,1493]},
{"point":[488,1493]},
{"point":[487,1494]},
{"point":[484,1494]},
{"point":[483,1495]},
{"point":[482,1495]},
{"point":[481,1496]},
{"point":[476,1496]},
{"point":[475,1497]},
{"point":[470,1497]},
{"point":[469,1498]},
{"point":[468,1498]},
{"point":[467,1499]},
{"point":[467,1504]},
{"point":[466,1505]},
{"point":[466,1509]},
{"point":[465,1510]},
{"point":[463,1510]},
{"point":[462,1511]},
{"point":[460,1511]},
{"point":[458,1513]},
{"point":[448,1513]},
{"point":[447,1514]},
{"point":[444,1514]},
{"point":[442,1516]},
{"point":[431,1516]},
{"point":[429,1518]},
{"point":[425,1518]},
{"point":[424,1519]},
{"point":[422,1519]},
{"point":[422,1520]},
{"point":[420,1522]},
{"point":[419,1522]},
{"point":[417,1524]},
{"point":[408,1524]},
{"point":[407,1525]},
{"point":[406,1525]},
{"point":[406,1526]},
{"point":[405,1527]},
{"point":[405,1532]},
{"point":[411,1538]},
{"point":[411,1539]},
{"point":[414,1539]},
{"point":[415,1540]},
{"point":[416,1540]},
{"point":[420,1544]},
{"point":[421,1544]},
{"point":[424,1547]},
{"point":[424,1548]},
{"point":[425,1549]},
{"point":[425,1551]},
{"point":[426,1552]},
{"point":[426,1554]},
{"point":[427,1555]},
{"point":[427,1556]},
{"point":[431,1560]},
{"point":[438,1560]},
{"point":[439,1561]},
{"point":[440,1561]},
{"point":[441,1562]},
{"point":[443,1562]},
{"point":[444,1561]},
{"point":[446,1561]},
{"point":[448,1563]},
{"point":[457,1563]},
{"point":[458,1564]},
{"point":[460,1564]},
{"point":[463,1567]},
{"point":[463,1568]},
{"point":[464,1568]},
{"point":[466,1570]},
{"point":[466,1587]},
{"point":[467,1588]},
{"point":[467,1593]},
{"point":[466,1594]},
{"point":[466,1595]},
{"point":[465,1596]},
{"point":[465,1597]},
{"point":[462,1600]},
{"point":[462,1607]},
{"point":[463,1607]},
{"point":[466,1610]},
{"point":[466,1617]},
{"point":[465,1618]},
{"point":[465,1620]},
{"point":[467,1622]},
{"point":[466,1623]},
{"point":[466,1624]},
{"point":[465,1625]},
{"point":[463,1625]},
{"point":[462,1624]},
{"point":[456,1624]},
{"point":[454,1622]},
{"point":[449,1622]},
{"point":[449,1625]},
{"point":[450,1626]},
{"point":[450,1630]},
{"point":[451,1631]},
{"point":[451,1634]},
{"point":[452,1635]},
{"point":[452,1638]},
{"point":[453,1639]},
{"point":[453,1643]},
{"point":[454,1644]},
{"point":[454,1647]},
{"point":[455,1648]},
{"point":[456,1648]},
{"point":[457,1649]},
{"point":[459,1649]},
{"point":[460,1650]},
{"point":[462,1650]},
{"point":[463,1651]},
{"point":[464,1651]},
{"point":[465,1652]},
{"point":[467,1652]},
{"point":[468,1653]},
{"point":[470,1653]},
{"point":[471,1654]},
{"point":[473,1654]},
{"point":[474,1655]},
{"point":[475,1655]},
{"point":[477,1657]},
{"point":[477,1681]},
{"point":[476,1682]},
{"point":[476,1684]},
{"point":[477,1685]},
{"point":[477,1686]},
{"point":[476,1687]},
{"point":[476,1725]},
{"point":[475,1726]},
{"point":[475,1764]},
{"point":[474,1765]},
{"point":[474,1803]},
{"point":[473,1804]},
{"point":[473,1845]},
{"point":[472,1846]},
{"point":[472,1886]},
{"point":[471,1887]},
{"point":[471,1929]},
{"point":[470,1930]},
{"point":[470,1969]},
{"point":[469,1970]},
{"point":[469,2010]},
{"point":[468,2011]},
{"point":[468,2051]},
{"point":[467,2052]},
{"point":[467,2092]},
{"point":[466,2093]},
{"point":[466,2122]},
{"point":[513,2122]},
{"point":[514,2121]},
{"point":[557,2121]},
{"point":[558,2120]},
{"point":[602,2120]},
{"point":[603,2119]},
{"point":[648,2119]},
{"point":[649,2118]},
{"point":[692,2118]},
{"point":[693,2117]},
{"point":[737,2117]},
{"point":[738,2116]},
{"point":[781,2116]},
{"point":[782,2115]},
{"point":[827,2115]},
{"point":[828,2114]},
{"point":[871,2114]},
{"point":[872,2113]},
{"point":[916,2113]},
{"point":[917,2112]},
{"point":[961,2112]},
{"point":[962,2111]},
{"point":[1006,2111]},
{"point":[1007,2110]},
{"point":[1051,2110]},
{"point":[1052,2109]},
{"point":[1096,2109]},
{"point":[1097,2108]},
{"point":[1141,2108]},
{"point":[1142,2107]},
{"point":[1185,2107]},
{"point":[1186,2106]},
{"point":[1231,2106]},
{"point":[1232,2105]},
{"point":[1276,2105]},
{"point":[1277,2104]},
{"point":[1320,2104]},
{"point":[1321,2103]},
{"point":[1364,2103]},
{"point":[1365,2102]},
{"point":[1413,2102]},
{"point":[1414,2101]},
{"point":[1456,2101]},
{"point":[1457,2100]},
{"point":[1501,2100]},
{"point":[1502,2099]},
{"point":[1544,2099]},
{"point":[1545,2098]},
{"point":[1591,2098]},
{"point":[1592,2097]},
{"point":[1635,2097]},
{"point":[1636,2096]},
{"point":[1680,2096]},
{"point":[1681,2095]},
{"point":[1695,2095]},
{"point":[1695,2075]},
{"point":[1694,2074]},
{"point":[1694,2047]},
{"point":[1693,2046]},
{"point":[1693,2019]},
{"point":[1692,2018]},
{"point":[1692,1991]},
{"point":[1691,1990]},
{"point":[1691,1963]},
{"point":[1690,1962]},
{"point":[1690,1934]},
{"point":[1689,1933]},
{"point":[1689,1906]},
{"point":[1688,1905]},
{"point":[1688,1878]},
{"point":[1687,1877]},
{"point":[1687,1850]},
{"point":[1686,1849]},
{"point":[1686,1822]},
{"point":[1685,1821]},
{"point":[1685,1794]},
{"point":[1684,1793]},
{"point":[1684,1766]},
{"point":[1683,1765]},
{"point":[1683,1738]},
{"point":[1682,1737]},
{"point":[1682,1709]},
{"point":[1681,1708]},
{"point":[1681,1681]},
{"point":[1680,1680]},
{"point":[1680,1654]},
{"point":[1679,1653]},
{"point":[1679,1625]},
{"point":[1678,1624]},
{"point":[1678,1613]},
{"point":[1677,1612]},
{"point":[1677,1610]},
{"point":[1675,1610]},
{"point":[1674,1611]},
{"point":[1673,1611]},
{"point":[1672,1610]},
{"point":[1672,1601]},
{"point":[1671,1600]},
{"point":[1671,1599]},
{"point":[1670,1598]},
{"point":[1671,1597]},
{"point":[1672,1597]},
{"point":[1672,1593]},
{"point":[1671,1592]},
{"point":[1671,1591]},
{"point":[1672,1590]},
{"point":[1672,1585]},
{"point":[1670,1585]},
{"point":[1669,1584]},
{"point":[1669,1578]},
{"point":[1670,1577]},
{"point":[1670,1574]},
{"point":[1672,1572]},
{"point":[1673,1572]},
{"point":[1674,1571]},
{"point":[1674,1569]},
{"point":[1678,1565]},
{"point":[1681,1565]},
{"point":[1682,1564]},
{"point":[1685,1564]},
{"point":[1686,1563]},
{"point":[1690,1563]},
{"point":[1690,1559]},
{"point":[1691,1558]},
{"point":[1691,1553]},
{"point":[1690,1552]},
{"point":[1690,1551]},
{"point":[1687,1548]},
{"point":[1687,1547]},
{"point":[1683,1543]},
{"point":[1683,1541]},
{"point":[1679,1541]},
{"point":[1678,1540]},
{"point":[1678,1539]},
{"point":[1677,1538]},
{"point":[1677,1524]},
{"point":[1678,1523]},
{"point":[1678,1522]},
{"point":[1679,1521]},
{"point":[1680,1522]},
{"point":[1682,1522]},
{"point":[1682,1515]},
{"point":[1681,1514]},
{"point":[1681,1513]},
{"point":[1680,1513]},
{"point":[1677,1510]},
{"point":[1677,1505]},
{"point":[1676,1504]},
{"point":[1676,1496]},
{"point":[1675,1495]},
{"point":[1675,1482]},
{"point":[1674,1481]},
{"point":[1675,1480]},
{"point":[1675,1474]},
{"point":[1676,1473]},
{"point":[1677,1473]},
{"point":[1678,1472]},
{"point":[1683,1472]},
{"point":[1684,1471]},
{"point":[1688,1471]},
{"point":[1689,1470]},
{"point":[1696,1470]},
{"point":[1697,1469]},
{"point":[1698,1469]},
{"point":[1699,1468]},
{"point":[1707,1468]},
{"point":[1709,1466]},
{"point":[1710,1466]},
{"point":[1712,1464]},
{"point":[1712,1457]},
{"point":[1722,1447]},
{"point":[1724,1447]},
{"point":[1725,1446]},
{"point":[1727,1446]},
{"point":[1729,1444]},
{"point":[1729,1442]},
{"point":[1730,1441]},
{"point":[1730,1440]},
{"point":[1732,1438]},
{"point":[1733,1438]},
{"point":[1733,1434]},
{"point":[1732,1433]},
{"point":[1732,1432]},
{"point":[1731,1431]},
{"point":[1729,1431]},
{"point":[1727,1429]},
{"point":[1726,1429]},
{"point":[1725,1428]},
{"point":[1723,1428]},
{"point":[1722,1427]},
{"point":[1721,1427]},
{"point":[1720,1426]},
{"point":[1719,1426]},
{"point":[1718,1425]},
{"point":[1717,1425]},
{"point":[1716,1424]},
{"point":[1713,1424]},
{"point":[1711,1422]},
{"point":[1709,1422]},
{"point":[1707,1420]},
{"point":[1705,1420]},
{"point":[1704,1419]},
{"point":[1702,1419]},
{"point":[1700,1417]},
{"point":[1698,1417]},
{"point":[1697,1416]},
{"point":[1695,1416]},
{"point":[1694,1415]},
{"point":[1693,1415]},
{"point":[1692,1414]},
{"point":[1690,1414]},
{"point":[1688,1412]},
{"point":[1686,1412]},
{"point":[1685,1411]},
{"point":[1685,1410]},
{"point":[1682,1410]},
{"point":[1680,1408]},
{"point":[1677,1408]},
{"point":[1675,1406]},
{"point":[1672,1406]},
{"point":[1670,1404]},
{"point":[1670,1402]},
{"point":[1669,1401]},
{"point":[1669,1400]},
{"point":[1668,1400]},
{"point":[1667,1399]},
{"point":[1666,1399]},
{"point":[1665,1398]},
{"point":[1662,1398]},
{"point":[1661,1397]},
{"point":[1660,1397]},
{"point":[1659,1396]},
{"point":[1655,1396]},
{"point":[1654,1395]},
{"point":[1653,1395]},
{"point":[1651,1393]},
{"point":[1648,1393]},
{"point":[1645,1390]},
{"point":[1644,1390]},
{"point":[1641,1387]},
{"point":[1641,1386]},
{"point":[1640,1385]},
{"point":[1640,1384]},
{"point":[1639,1383]},
{"point":[1639,1354]},
{"point":[1638,1353]},
{"point":[1638,1334]},
{"point":[1637,1333]},
{"point":[1637,1331]},
{"point":[1638,1330]},
{"point":[1638,1328]},
{"point":[1637,1327]},
{"point":[1637,1320]},
{"point":[1641,1316]},
{"point":[1642,1316]},
{"point":[1643,1315]},
{"point":[1643,1314]},
{"point":[1645,1312]},
{"point":[1647,1312]},
{"point":[1649,1310]},
{"point":[1650,1310]},
{"point":[1652,1308]},
{"point":[1654,1308]},
{"point":[1655,1307]},
{"point":[1658,1307]},
{"point":[1660,1305]},
{"point":[1660,1304]},
{"point":[1661,1303]},
{"point":[1661,1300]},
{"point":[1662,1299]},
{"point":[1662,1292]},
{"point":[1661,1291]},
{"point":[1660,1291]},
{"point":[1658,1289]},
{"point":[1657,1289]},
{"point":[1656,1288]},
{"point":[1655,1288]},
{"point":[1654,1287]},
{"point":[1652,1287]},
{"point":[1649,1284]},
{"point":[1647,1284]},
{"point":[1646,1283]},
{"point":[1644,1283]},
{"point":[1642,1281]},
{"point":[1640,1281]},
{"point":[1639,1280]},
{"point":[1637,1280]},
{"point":[1635,1278]},
{"point":[1634,1278]},
{"point":[1633,1277]},
{"point":[1631,1277]},
{"point":[1629,1275]},
{"point":[1628,1275]},
{"point":[1627,1274]},
{"point":[1626,1274]},
{"point":[1625,1273]},
{"point":[1623,1273]},
{"point":[1621,1271]},
{"point":[1620,1271]},
{"point":[1619,1270]},
{"point":[1618,1270]},
{"point":[1617,1269]},
{"point":[1616,1269]},
{"point":[1614,1267]},
{"point":[1612,1267]},
{"point":[1611,1266]},
{"point":[1609,1266]},
{"point":[1607,1264]},
{"point":[1606,1264]},
{"point":[1605,1263]},
{"point":[1604,1263]},
{"point":[1603,1262]},
{"point":[1601,1262]},
{"point":[1600,1261]},
{"point":[1599,1261]},
{"point":[1598,1260]},
{"point":[1597,1260]},
{"point":[1595,1258]},
{"point":[1593,1258]},
{"point":[1592,1257]},
{"point":[1591,1257]},
{"point":[1590,1256]},
{"point":[1589,1256]},
{"point":[1588,1255]},
{"point":[1587,1255]},
{"point":[1585,1253]},
{"point":[1583,1253]},
{"point":[1582,1252]},
{"point":[1581,1252]},
{"point":[1580,1251]},
{"point":[1579,1251]},
{"point":[1578,1250]},
{"point":[1577,1250]},
{"point":[1576,1249]},
{"point":[1574,1249]},
{"point":[1572,1247]},
{"point":[1571,1247]},
{"point":[1570,1246]},
{"point":[1568,1246]},
{"point":[1565,1243]},
{"point":[1563,1243]},
{"point":[1562,1242]},
{"point":[1561,1242]},
{"point":[1560,1241]},
{"point":[1559,1241]},
{"point":[1557,1239]},
{"point":[1556,1239]},
{"point":[1555,1238]},
{"point":[1554,1238]},
{"point":[1553,1237]},
{"point":[1550,1237]},
{"point":[1548,1235]},
{"point":[1547,1235]},
{"point":[1546,1234]},
{"point":[1545,1234]},
{"point":[1544,1233]},
{"point":[1542,1233]},
{"point":[1540,1231]},
{"point":[1538,1231]},
{"point":[1535,1228]},
{"point":[1533,1228]},
{"point":[1532,1227]},
{"point":[1530,1227]},
{"point":[1528,1225]},
{"point":[1526,1225]},
{"point":[1524,1223]},
{"point":[1522,1223]},
{"point":[1521,1222]},
{"point":[1520,1222]},
{"point":[1518,1220]},
{"point":[1516,1220]},
{"point":[1514,1218]},
{"point":[1511,1218]},
{"point":[1510,1217]},
{"point":[1509,1217]},
{"point":[1507,1215]},
{"point":[1505,1215]},
{"point":[1504,1214]},
{"point":[1502,1214]},
{"point":[1501,1213]},
{"point":[1496,1213]},
{"point":[1494,1215]},
{"point":[1489,1215]},
{"point":[1488,1216]},
{"point":[1482,1216]},
{"point":[1481,1217]},
{"point":[1475,1217]},
{"point":[1473,1219]},
{"point":[1469,1219]},
{"point":[1468,1220]},
{"point":[1462,1220]},
{"point":[1461,1221]},
{"point":[1456,1221]},
{"point":[1455,1222]},
{"point":[1453,1222]},
{"point":[1452,1223]},
{"point":[1446,1223]},
{"point":[1445,1224]},
{"point":[1442,1224]},
{"point":[1441,1225]},
{"point":[1439,1225]},
{"point":[1438,1226]},
{"point":[1430,1226]},
{"point":[1429,1227]},
{"point":[1426,1227]},
{"point":[1425,1228]},
{"point":[1423,1228]},
{"point":[1422,1229]},
{"point":[1419,1229]},
{"point":[1418,1230]},
{"point":[1415,1230]},
{"point":[1414,1231]},
{"point":[1409,1231]},
{"point":[1408,1232]},
{"point":[1402,1232]},
{"point":[1401,1233]},
{"point":[1398,1233]},
{"point":[1397,1234]},
{"point":[1393,1234]},
{"point":[1392,1235]},
{"point":[1387,1235]},
{"point":[1385,1237]},
{"point":[1379,1237]},
{"point":[1378,1238]},
{"point":[1374,1238]},
{"point":[1373,1239]},
{"point":[1370,1239]},
{"point":[1369,1240]},
{"point":[1366,1240]},
{"point":[1365,1241]},
{"point":[1360,1241]},
{"point":[1359,1242]},
{"point":[1356,1242]},
{"point":[1355,1243]},
{"point":[1350,1243]},
{"point":[1349,1244]},
{"point":[1346,1244]},
{"point":[1345,1245]},
{"point":[1341,1245]},
{"point":[1340,1246]},
{"point":[1338,1246]},
{"point":[1337,1247]},
{"point":[1327,1247]},
{"point":[1326,1248]},
{"point":[1325,1248]},
{"point":[1324,1249]},
{"point":[1321,1249]},
{"point":[1320,1250]},
{"point":[1316,1250]},
{"point":[1315,1251]},
{"point":[1312,1251]},
{"point":[1311,1252]},
{"point":[1309,1252]},
{"point":[1308,1253]},
{"point":[1303,1253]},
{"point":[1302,1254]},
{"point":[1297,1254]},
{"point":[1296,1255]},
{"point":[1292,1255]},
{"point":[1290,1257]},
{"point":[1282,1257]},
{"point":[1281,1258]},
{"point":[1280,1258]},
{"point":[1279,1259]},
{"point":[1275,1259]},
{"point":[1274,1260]},
{"point":[1268,1260]},
{"point":[1267,1261]},
{"point":[1266,1261]},
{"point":[1265,1262]},
{"point":[1261,1262]},
{"point":[1260,1263]},
{"point":[1254,1263]},
{"point":[1253,1264]},
{"point":[1251,1264]},
{"point":[1250,1265]},
{"point":[1243,1265]},
{"point":[1242,1264]},
{"point":[1242,1263]},
{"point":[1243,1262]},
{"point":[1243,1260]},
{"point":[1242,1259]},
{"point":[1243,1258]},
{"point":[1243,1256]},
{"point":[1242,1255]},
{"point":[1242,1252]},
{"point":[1241,1251]},
{"point":[1242,1250]},
{"point":[1242,1239]},
{"point":[1243,1238]},
{"point":[1243,1230]},
{"point":[1242,1230]},
{"point":[1240,1228]},
{"point":[1238,1228]},
{"point":[1236,1226]},
{"point":[1235,1226]},
{"point":[1232,1223]},
{"point":[1224,1223]},
{"point":[1223,1222]},
{"point":[1218,1222]},
{"point":[1217,1223]},
{"point":[1213,1223]},
{"point":[1212,1224]},
{"point":[1211,1224]},
{"point":[1210,1225]},
{"point":[1209,1225]},
{"point":[1205,1229]},
{"point":[1203,1229]},
{"point":[1202,1230]},
{"point":[1202,1231]},
{"point":[1200,1233]},
{"point":[1200,1234]},
{"point":[1198,1236]},
{"point":[1198,1237]},
{"point":[1196,1239]},
{"point":[1196,1242]},
{"point":[1191,1247]},
{"point":[1186,1247]},
{"point":[1185,1246]},
{"point":[1183,1246]},
{"point":[1182,1245]},
{"point":[1181,1245]},
{"point":[1180,1244]},
{"point":[1179,1244]},
{"point":[1178,1243]},
{"point":[1176,1243]},
{"point":[1174,1241]},
{"point":[1171,1241]},
{"point":[1170,1240]},
{"point":[1167,1240]},
{"point":[1166,1239]},
{"point":[1160,1239]},
{"point":[1159,1238]},
{"point":[1155,1238]},
{"point":[1154,1239]},
{"point":[1150,1239]},
{"point":[1148,1237]},
{"point":[1146,1237]},
{"point":[1145,1236]},
{"point":[1137,1236]},
{"point":[1136,1237]},
{"point":[1135,1237]},
{"point":[1135,1238]},
{"point":[1134,1239]},
{"point":[1134,1241]},
{"point":[1133,1242]},
{"point":[1133,1245]},
{"point":[1132,1246]},
{"point":[1132,1248]},
{"point":[1130,1250]},
{"point":[1129,1250]},
{"point":[1128,1251]},
{"point":[1127,1251]},
{"point":[1126,1250]},
{"point":[1121,1250]},
{"point":[1120,1249]},
{"point":[1119,1249]},
{"point":[1118,1248]},
{"point":[1116,1248]},
{"point":[1115,1247]},
{"point":[1106,1247]},
{"point":[1105,1248]},
{"point":[1104,1248]},
{"point":[1103,1249]},
{"point":[1099,1249]},
{"point":[1098,1250]},
{"point":[1096,1250]},
{"point":[1095,1251]},
{"point":[1094,1251]},
{"point":[1093,1252]},
{"point":[1088,1252]},
{"point":[1086,1250]},
{"point":[1086,1247]},
{"point":[1085,1246]},
{"point":[1085,1239]},
{"point":[1084,1238]},
{"point":[1084,1235]},
{"point":[1083,1234]},
{"point":[1083,1232]},
{"point":[1082,1231]},
{"point":[1082,1228]},
{"point":[1081,1227]},
{"point":[1081,1225]},
{"point":[1079,1223]},
{"point":[1079,1221]},
{"point":[1078,1220]},
{"point":[1078,1219]},
{"point":[1077,1218]},
{"point":[1077,1214]},
{"point":[1075,1212]},
{"point":[1075,1211]},
{"point":[1069,1205]},
{"point":[1069,1204]},
{"point":[1067,1202]},
{"point":[1066,1202]},
{"point":[1064,1200]},
{"point":[1064,1199]},
{"point":[1063,1199]},
{"point":[1061,1197]},
{"point":[1059,1197]},
{"point":[1058,1196]},
{"point":[1054,1196]},
{"point":[1051,1193]},
{"point":[1050,1193]},
{"point":[1048,1191]},
{"point":[1047,1191]},
{"point":[1046,1190]},
{"point":[1044,1190]},
{"point":[1043,1189]},
{"point":[1041,1189]},
{"point":[1039,1187]},
{"point":[1039,1180]},
{"point":[1040,1179]},
{"point":[1040,1175]},
{"point":[1041,1174]},
{"point":[1041,1171]},
{"point":[1042,1170]},
{"point":[1042,1167]},
{"point":[1043,1166]},
{"point":[1043,1162]},
{"point":[1045,1160]},
{"point":[1045,1153]},
{"point":[1046,1152]},
{"point":[1046,1149]},
{"point":[1047,1148]},
{"point":[1047,1147]},
{"point":[1048,1146]},
{"point":[1050,1146]},
{"point":[1051,1145]},
{"point":[1052,1145]},
{"point":[1055,1142]},
{"point":[1055,1135]},
{"point":[1050,1130]},
{"point":[1051,1129]},
{"point":[1051,1126]},
{"point":[1052,1125]},
{"point":[1052,1124]},
{"point":[1053,1123]},
{"point":[1053,1121]},
{"point":[1054,1120]},
{"point":[1054,1115]},
{"point":[1055,1114]},
{"point":[1055,1113]},
{"point":[1056,1112]},
{"point":[1056,1111]},
{"point":[1061,1106]},
{"point":[1063,1106]},
{"point":[1066,1103]},
{"point":[1067,1103]},
{"point":[1067,1102]},
{"point":[1068,1101]},
{"point":[1068,1100]},
{"point":[1069,1099]},
{"point":[1069,1098]},
{"point":[1070,1097]},
{"point":[1070,1092]},
{"point":[1071,1091]},
{"point":[1071,1090]},
{"point":[1072,1089]},
{"point":[1072,1086]},
{"point":[1071,1085]},
{"point":[1071,1082]},
{"point":[1070,1081]},
{"point":[1070,1078]},
{"point":[1068,1076]},
{"point":[1068,1075]},
{"point":[1069,1074]},
{"point":[1069,1067]},
{"point":[1070,1066]},
{"point":[1070,1064]},
{"point":[1071,1063]},
{"point":[1071,1062]},
{"point":[1078,1055]},
{"point":[1078,1054]},
{"point":[1087,1045]},
{"point":[1087,1041]}
],
"xScale" : 2448,"yScale" : 3264}