{"matchingPoints" : [{"point":[1206,917]},
{"point":[1168.49,1531.54]},
{"point":[505,917]},
{"point":[1827,917]},
{"point":[505,1934]},
{"point":[1827,1934]},
{"point":[1167.68,1517.45]},
{"point":[433,948]},
{"point":[1903,948]},
{"point":[433,2088]},
{"point":[1903,2088]},
{"point":[1165.5,1425]},
{"point":[505,917]},
{"point":[1827,917]},
{"point":[505,1934]},
{"point":[1827,1934]},
{"point":[1163,1573.65]}
],
"matchingPointsDescriptions" : [{"point":[0.492647,0.280944]},
{"point":[0.477325,0.469221]},
{"point":[0.206291,0.280944]},
{"point":[0.746324,0.280944]},
{"point":[0.206291,0.592525]},
{"point":[0.746324,0.592525]},
{"point":[0.476994,0.464904]},
{"point":[0.176879,0.290441]},
{"point":[0.777369,0.290441]},
{"point":[0.176879,0.639706]},
{"point":[0.777369,0.639706]},
{"point":[0.476103,0.436581]},
{"point":[0.206291,0.280944]},
{"point":[0.746324,0.280944]},
{"point":[0.206291,0.592525]},
{"point":[0.746324,0.592525]},
{"point":[0.475082,0.482124]}
],
"contour": [{"point":[1206,917]},
{"point":[1205,918]},
{"point":[1202,918]},
{"point":[1202,920]},
{"point":[1201,921]},
{"point":[1200,921]},
{"point":[1196,925]},
{"point":[1195,925]},
{"point":[1194,926]},
{"point":[1193,926]},
{"point":[1192,927]},
{"point":[1190,927]},
{"point":[1189,928]},
{"point":[1187,928]},
{"point":[1186,929]},
{"point":[1186,930]},
{"point":[1185,931]},
{"point":[1185,932]},
{"point":[1183,934]},
{"point":[1180,931]},
{"point":[1180,930]},
{"point":[1179,929]},
{"point":[1176,929]},
{"point":[1174,927]},
{"point":[1172,927]},
{"point":[1171,926]},
{"point":[1167,926]},
{"point":[1165,928]},
{"point":[1165,937]},
{"point":[1167,939]},
{"point":[1167,942]},
{"point":[1169,944]},
{"point":[1174,944]},
{"point":[1176,946]},
{"point":[1176,950]},
{"point":[1175,951]},
{"point":[1174,951]},
{"point":[1174,952]},
{"point":[1172,954]},
{"point":[1171,954]},
{"point":[1171,955]},
{"point":[1165,961]},
{"point":[1165,964]},
{"point":[1164,965]},
{"point":[1164,971]},
{"point":[1165,972]},
{"point":[1165,973]},
{"point":[1163,975]},
{"point":[1162,975]},
{"point":[1161,976]},
{"point":[1160,976]},
{"point":[1158,978]},
{"point":[1158,979]},
{"point":[1154,983]},
{"point":[1148,983]},
{"point":[1147,984]},
{"point":[1146,984]},
{"point":[1145,985]},
{"point":[1144,985]},
{"point":[1142,987]},
{"point":[1142,988]},
{"point":[1141,989]},
{"point":[1141,993]},
{"point":[1142,994]},
{"point":[1142,995]},
{"point":[1143,996]},
{"point":[1142,997]},
{"point":[1142,998]},
{"point":[1141,999]},
{"point":[1137,999]},
{"point":[1136,998]},
{"point":[1133,998]},
{"point":[1132,997]},
{"point":[1131,997]},
{"point":[1127,993]},
{"point":[1127,986]},
{"point":[1125,984]},
{"point":[1124,984]},
{"point":[1123,983]},
{"point":[1118,983]},
{"point":[1117,984]},
{"point":[1115,984]},
{"point":[1113,986]},
{"point":[1113,987]},
{"point":[1111,989]},
{"point":[1110,989]},
{"point":[1109,990]},
{"point":[1109,992]},
{"point":[1107,994]},
{"point":[1107,995]},
{"point":[1105,997]},
{"point":[1105,1000]},
{"point":[1104,1001]},
{"point":[1104,1003]},
{"point":[1102,1005]},
{"point":[1102,1011]},
{"point":[1101,1012]},
{"point":[1101,1019]},
{"point":[1099,1021]},
{"point":[1099,1030]},
{"point":[1098,1031]},
{"point":[1098,1038]},
{"point":[1097,1039]},
{"point":[1097,1046]},
{"point":[1098,1047]},
{"point":[1098,1050]},
{"point":[1100,1052]},
{"point":[1105,1052]},
{"point":[1106,1051]},
{"point":[1108,1051]},
{"point":[1109,1050]},
{"point":[1111,1050]},
{"point":[1112,1049]},
{"point":[1113,1049]},
{"point":[1118,1044]},
{"point":[1118,1043]},
{"point":[1123,1038]},
{"point":[1124,1039]},
{"point":[1124,1044]},
{"point":[1123,1045]},
{"point":[1123,1062]},
{"point":[1122,1063]},
{"point":[1122,1069]},
{"point":[1120,1071]},
{"point":[1119,1071]},
{"point":[1118,1072]},
{"point":[1111,1072]},
{"point":[1110,1073]},
{"point":[1107,1073]},
{"point":[1106,1072]},
{"point":[1104,1072]},
{"point":[1103,1071]},
{"point":[1094,1071]},
{"point":[1093,1072]},
{"point":[1093,1073]},
{"point":[1090,1076]},
{"point":[1090,1077]},
{"point":[1089,1078]},
{"point":[1089,1080]},
{"point":[1087,1082]},
{"point":[1086,1082]},
{"point":[1085,1083]},
{"point":[1081,1083]},
{"point":[1079,1085]},
{"point":[1078,1085]},
{"point":[1077,1086]},
{"point":[1076,1086]},
{"point":[1074,1088]},
{"point":[1073,1088]},
{"point":[1073,1090]},
{"point":[1072,1091]},
{"point":[1072,1092]},
{"point":[1070,1094]},
{"point":[1070,1098]},
{"point":[1069,1099]},
{"point":[1069,1101]},
{"point":[1068,1102]},
{"point":[1068,1103]},
{"point":[1067,1104]},
{"point":[1067,1111]},
{"point":[1066,1112]},
{"point":[1066,1126]},
{"point":[1065,1127]},
{"point":[1065,1131]},
{"point":[1067,1133]},
{"point":[1067,1141]},
{"point":[1068,1142]},
{"point":[1068,1146]},
{"point":[1069,1147]},
{"point":[1069,1152]},
{"point":[1070,1153]},
{"point":[1070,1155]},
{"point":[1071,1156]},
{"point":[1071,1157]},
{"point":[1072,1158]},
{"point":[1071,1159]},
{"point":[1071,1160]},
{"point":[1069,1162]},
{"point":[1062,1162]},
{"point":[1061,1163]},
{"point":[1058,1163]},
{"point":[1057,1164]},
{"point":[1055,1164]},
{"point":[1054,1165]},
{"point":[1053,1164]},
{"point":[1048,1164]},
{"point":[1047,1165]},
{"point":[1040,1165]},
{"point":[1039,1166]},
{"point":[1029,1166]},
{"point":[1028,1167]},
{"point":[1023,1167]},
{"point":[1022,1168]},
{"point":[1013,1168]},
{"point":[1012,1169]},
{"point":[1010,1169]},
{"point":[1009,1170]},
{"point":[1001,1170]},
{"point":[1000,1171]},
{"point":[993,1171]},
{"point":[992,1172]},
{"point":[986,1172]},
{"point":[985,1173]},
{"point":[982,1173]},
{"point":[981,1172]},
{"point":[977,1172]},
{"point":[977,1173]},
{"point":[976,1174]},
{"point":[970,1174]},
{"point":[969,1175]},
{"point":[968,1175]},
{"point":[967,1174]},
{"point":[962,1174]},
{"point":[961,1173]},
{"point":[957,1173]},
{"point":[956,1174]},
{"point":[954,1174]},
{"point":[952,1176]},
{"point":[949,1176]},
{"point":[948,1177]},
{"point":[944,1177]},
{"point":[943,1178]},
{"point":[941,1178]},
{"point":[939,1180]},
{"point":[929,1180]},
{"point":[928,1181]},
{"point":[927,1181]},
{"point":[927,1182]},
{"point":[926,1183]},
{"point":[926,1193]},
{"point":[925,1194]},
{"point":[924,1194]},
{"point":[922,1196]},
{"point":[921,1196]},
{"point":[920,1197]},
{"point":[906,1197]},
{"point":[905,1198]},
{"point":[903,1198]},
{"point":[902,1199]},
{"point":[902,1209]},
{"point":[903,1210]},
{"point":[903,1213]},
{"point":[902,1214]},
{"point":[899,1214]},
{"point":[898,1215]},
{"point":[883,1215]},
{"point":[882,1216]},
{"point":[872,1216]},
{"point":[871,1217]},
{"point":[870,1217]},
{"point":[869,1218]},
{"point":[854,1218]},
{"point":[853,1219]},
{"point":[849,1219]},
{"point":[848,1220]},
{"point":[845,1220]},
{"point":[844,1221]},
{"point":[828,1221]},
{"point":[827,1222]},
{"point":[815,1222]},
{"point":[814,1223]},
{"point":[808,1223]},
{"point":[807,1224]},
{"point":[803,1224]},
{"point":[802,1225]},
{"point":[790,1225]},
{"point":[789,1226]},
{"point":[784,1226]},
{"point":[783,1227]},
{"point":[774,1227]},
{"point":[773,1228]},
{"point":[764,1228]},
{"point":[763,1229]},
{"point":[758,1229]},
{"point":[757,1230]},
{"point":[747,1230]},
{"point":[746,1231]},
{"point":[740,1231]},
{"point":[739,1232]},
{"point":[729,1232]},
{"point":[728,1233]},
{"point":[722,1233]},
{"point":[721,1234]},
{"point":[720,1233]},
{"point":[715,1233]},
{"point":[714,1234]},
{"point":[708,1234]},
{"point":[707,1235]},
{"point":[705,1235]},
{"point":[704,1236]},
{"point":[702,1236]},
{"point":[701,1237]},
{"point":[686,1237]},
{"point":[685,1238]},
{"point":[683,1238]},
{"point":[682,1237]},
{"point":[679,1237]},
{"point":[678,1238]},
{"point":[674,1238]},
{"point":[673,1239]},
{"point":[662,1239]},
{"point":[661,1240]},
{"point":[653,1240]},
{"point":[652,1241]},
{"point":[645,1241]},
{"point":[644,1242]},
{"point":[634,1242]},
{"point":[633,1243]},
{"point":[631,1243]},
{"point":[630,1244]},
{"point":[620,1244]},
{"point":[619,1245]},
{"point":[608,1245]},
{"point":[607,1246]},
{"point":[597,1246]},
{"point":[596,1247]},
{"point":[592,1247]},
{"point":[591,1246]},
{"point":[588,1246]},
{"point":[588,1247]},
{"point":[587,1248]},
{"point":[587,1250]},
{"point":[586,1251]},
{"point":[586,1253]},
{"point":[585,1254]},
{"point":[585,1256]},
{"point":[584,1257]},
{"point":[584,1259]},
{"point":[583,1260]},
{"point":[583,1265]},
{"point":[591,1273]},
{"point":[592,1273]},
{"point":[602,1283]},
{"point":[602,1286]},
{"point":[601,1287]},
{"point":[601,1307]},
{"point":[600,1308]},
{"point":[600,1320]},
{"point":[598,1322]},
{"point":[593,1322]},
{"point":[592,1323]},
{"point":[588,1323]},
{"point":[587,1324]},
{"point":[582,1324]},
{"point":[581,1325]},
{"point":[577,1325]},
{"point":[576,1326]},
{"point":[571,1326]},
{"point":[570,1327]},
{"point":[566,1327]},
{"point":[565,1328]},
{"point":[564,1328]},
{"point":[564,1332]},
{"point":[563,1333]},
{"point":[563,1342]},
{"point":[562,1343]},
{"point":[555,1343]},
{"point":[554,1344]},
{"point":[553,1344]},
{"point":[552,1345]},
{"point":[551,1345]},
{"point":[550,1344]},
{"point":[543,1344]},
{"point":[542,1345]},
{"point":[540,1345]},
{"point":[539,1346]},
{"point":[530,1346]},
{"point":[529,1347]},
{"point":[528,1347]},
{"point":[527,1348]},
{"point":[526,1348]},
{"point":[525,1349]},
{"point":[523,1349]},
{"point":[521,1351]},
{"point":[518,1351]},
{"point":[517,1352]},
{"point":[506,1352]},
{"point":[505,1353]},
{"point":[505,1360]},
{"point":[511,1366]},
{"point":[513,1366]},
{"point":[515,1368]},
{"point":[516,1368]},
{"point":[524,1376]},
{"point":[524,1379]},
{"point":[525,1380]},
{"point":[525,1385]},
{"point":[526,1385]},
{"point":[528,1387]},
{"point":[528,1388]},
{"point":[531,1388]},
{"point":[532,1389]},
{"point":[536,1389]},
{"point":[537,1390]},
{"point":[541,1390]},
{"point":[542,1391]},
{"point":[544,1391]},
{"point":[545,1392]},
{"point":[547,1392]},
{"point":[548,1393]},
{"point":[549,1393]},
{"point":[550,1394]},
{"point":[552,1394]},
{"point":[556,1398]},
{"point":[559,1398]},
{"point":[561,1400]},
{"point":[561,1411]},
{"point":[562,1412]},
{"point":[561,1413]},
{"point":[561,1426]},
{"point":[560,1427]},
{"point":[560,1434]},
{"point":[559,1435]},
{"point":[559,1437]},
{"point":[560,1438]},
{"point":[560,1443]},
{"point":[559,1444]},
{"point":[559,1449]},
{"point":[558,1450]},
{"point":[558,1471]},
{"point":[557,1472]},
{"point":[557,1491]},
{"point":[556,1492]},
{"point":[556,1513]},
{"point":[555,1514]},
{"point":[555,1533]},
{"point":[554,1534]},
{"point":[554,1555]},
{"point":[553,1556]},
{"point":[553,1574]},
{"point":[552,1575]},
{"point":[552,1599]},
{"point":[551,1600]},
{"point":[551,1621]},
{"point":[550,1622]},
{"point":[550,1642]},
{"point":[549,1643]},
{"point":[549,1664]},
{"point":[548,1665]},
{"point":[548,1685]},
{"point":[547,1686]},
{"point":[547,1707]},
{"point":[546,1708]},
{"point":[546,1731]},
{"point":[545,1732]},
{"point":[545,1750]},
{"point":[544,1751]},
{"point":[544,1771]},
{"point":[543,1772]},
{"point":[543,1793]},
{"point":[542,1794]},
{"point":[542,1814]},
{"point":[541,1815]},
{"point":[541,1836]},
{"point":[540,1837]},
{"point":[540,1857]},
{"point":[539,1858]},
{"point":[539,1879]},
{"point":[538,1880]},
{"point":[538,1900]},
{"point":[537,1901]},
{"point":[537,1922]},
{"point":[536,1923]},
{"point":[536,1932]},
{"point":[542,1932]},
{"point":[543,1933]},
{"point":[553,1933]},
{"point":[554,1932]},
{"point":[555,1932]},
{"point":[556,1933]},
{"point":[561,1933]},
{"point":[562,1932]},
{"point":[563,1932]},
{"point":[564,1933]},
{"point":[567,1933]},
{"point":[568,1932]},
{"point":[581,1932]},
{"point":[582,1933]},
{"point":[594,1933]},
{"point":[595,1932]},
{"point":[599,1932]},
{"point":[600,1933]},
{"point":[607,1933]},
{"point":[608,1932]},
{"point":[617,1932]},
{"point":[618,1933]},
{"point":[632,1933]},
{"point":[633,1932]},
{"point":[645,1932]},
{"point":[646,1933]},
{"point":[662,1933]},
{"point":[663,1932]},
{"point":[665,1932]},
{"point":[666,1933]},
{"point":[670,1933]},
{"point":[671,1932]},
{"point":[672,1932]},
{"point":[673,1933]},
{"point":[675,1933]},
{"point":[676,1932]},
{"point":[681,1932]},
{"point":[682,1933]},
{"point":[686,1933]},
{"point":[687,1932]},
{"point":[691,1932]},
{"point":[692,1933]},
{"point":[694,1933]},
{"point":[695,1932]},
{"point":[704,1932]},
{"point":[705,1933]},
{"point":[712,1933]},
{"point":[713,1932]},
{"point":[717,1932]},
{"point":[718,1933]},
{"point":[737,1933]},
{"point":[738,1932]},
{"point":[741,1932]},
{"point":[742,1933]},
{"point":[744,1933]},
{"point":[745,1932]},
{"point":[746,1933]},
{"point":[749,1933]},
{"point":[750,1932]},
{"point":[760,1932]},
{"point":[761,1933]},
{"point":[791,1933]},
{"point":[792,1932]},
{"point":[808,1932]},
{"point":[809,1933]},
{"point":[818,1933]},
{"point":[819,1932]},
{"point":[820,1933]},
{"point":[831,1933]},
{"point":[832,1932]},
{"point":[844,1932]},
{"point":[845,1933]},
{"point":[859,1933]},
{"point":[860,1932]},
{"point":[868,1932]},
{"point":[869,1933]},
{"point":[880,1933]},
{"point":[881,1932]},
{"point":[885,1932]},
{"point":[886,1933]},
{"point":[889,1933]},
{"point":[890,1932]},
{"point":[895,1932]},
{"point":[896,1933]},
{"point":[900,1933]},
{"point":[901,1932]},
{"point":[905,1932]},
{"point":[906,1933]},
{"point":[942,1933]},
{"point":[943,1932]},
{"point":[944,1933]},
{"point":[957,1933]},
{"point":[958,1932]},
{"point":[966,1932]},
{"point":[967,1933]},
{"point":[969,1933]},
{"point":[970,1932]},
{"point":[974,1932]},
{"point":[975,1933]},
{"point":[979,1933]},
{"point":[980,1932]},
{"point":[981,1933]},
{"point":[985,1933]},
{"point":[986,1932]},
{"point":[987,1933]},
{"point":[996,1933]},
{"point":[997,1932]},
{"point":[1001,1932]},
{"point":[1002,1933]},
{"point":[1009,1933]},
{"point":[1010,1932]},
{"point":[1012,1932]},
{"point":[1013,1933]},
{"point":[1020,1933]},
{"point":[1021,1932]},
{"point":[1028,1932]},
{"point":[1029,1933]},
{"point":[1031,1933]},
{"point":[1032,1932]},
{"point":[1039,1932]},
{"point":[1040,1933]},
{"point":[1064,1933]},
{"point":[1065,1932]},
{"point":[1066,1933]},
{"point":[1079,1933]},
{"point":[1080,1932]},
{"point":[1083,1932]},
{"point":[1084,1933]},
{"point":[1098,1933]},
{"point":[1099,1932]},
{"point":[1100,1933]},
{"point":[1115,1933]},
{"point":[1116,1932]},
{"point":[1117,1933]},
{"point":[1124,1933]},
{"point":[1125,1932]},
{"point":[1126,1932]},
{"point":[1127,1933]},
{"point":[1131,1933]},
{"point":[1132,1932]},
{"point":[1140,1932]},
{"point":[1140,1900]},
{"point":[1139,1899]},
{"point":[1139,1793]},
{"point":[1138,1792]},
{"point":[1138,1687]},
{"point":[1137,1686]},
{"point":[1137,1583]},
{"point":[1136,1582]},
{"point":[1136,1509]},
{"point":[1138,1507]},
{"point":[1138,1506]},
{"point":[1139,1505]},
{"point":[1139,1504]},
{"point":[1141,1502]},
{"point":[1141,1501]},
{"point":[1142,1500]},
{"point":[1142,1499]},
{"point":[1143,1498]},
{"point":[1143,1497]},
{"point":[1145,1495]},
{"point":[1145,1494]},
{"point":[1147,1492]},
{"point":[1147,1491]},
{"point":[1149,1489]},
{"point":[1149,1488]},
{"point":[1150,1487]},
{"point":[1150,1486]},
{"point":[1153,1483]},
{"point":[1195,1483]},
{"point":[1196,1484]},
{"point":[1196,1540]},
{"point":[1197,1541]},
{"point":[1196,1542]},
{"point":[1196,1599]},
{"point":[1197,1600]},
{"point":[1197,1930]},
{"point":[1198,1931]},
{"point":[1198,1932]},
{"point":[1201,1932]},
{"point":[1202,1933]},
{"point":[1205,1933]},
{"point":[1206,1932]},
{"point":[1215,1932]},
{"point":[1216,1933]},
{"point":[1222,1933]},
{"point":[1223,1932]},
{"point":[1267,1932]},
{"point":[1268,1933]},
{"point":[1340,1933]},
{"point":[1341,1932]},
{"point":[1345,1932]},
{"point":[1346,1933]},
{"point":[1371,1933]},
{"point":[1372,1932]},
{"point":[1374,1932]},
{"point":[1375,1933]},
{"point":[1377,1933]},
{"point":[1378,1932]},
{"point":[1379,1932]},
{"point":[1379,1826]},
{"point":[1378,1825]},
{"point":[1378,1470]},
{"point":[1379,1469]},
{"point":[1394,1469]},
{"point":[1395,1470]},
{"point":[1403,1470]},
{"point":[1404,1469]},
{"point":[1406,1469]},
{"point":[1407,1470]},
{"point":[1407,1560]},
{"point":[1408,1561]},
{"point":[1408,1698]},
{"point":[1409,1699]},
{"point":[1409,1844]},
{"point":[1410,1845]},
{"point":[1410,1932]},
{"point":[1417,1932]},
{"point":[1418,1933]},
{"point":[1426,1933]},
{"point":[1427,1932]},
{"point":[1428,1933]},
{"point":[1430,1933]},
{"point":[1431,1932]},
{"point":[1433,1932]},
{"point":[1434,1933]},
{"point":[1436,1933]},
{"point":[1437,1932]},
{"point":[1442,1932]},
{"point":[1443,1933]},
{"point":[1467,1933]},
{"point":[1468,1932]},
{"point":[1469,1932]},
{"point":[1470,1933]},
{"point":[1549,1933]},
{"point":[1550,1932]},
{"point":[1554,1932]},
{"point":[1555,1933]},
{"point":[1568,1933]},
{"point":[1569,1932]},
{"point":[1577,1932]},
{"point":[1577,1890]},
{"point":[1576,1889]},
{"point":[1576,1796]},
{"point":[1575,1795]},
{"point":[1575,1704]},
{"point":[1574,1703]},
{"point":[1574,1615]},
{"point":[1573,1614]},
{"point":[1573,1518]},
{"point":[1572,1517]},
{"point":[1572,1459]},
{"point":[1573,1458]},
{"point":[1575,1458]},
{"point":[1576,1457]},
{"point":[1586,1457]},
{"point":[1587,1456]},
{"point":[1598,1456]},
{"point":[1599,1455]},
{"point":[1610,1455]},
{"point":[1611,1454]},
{"point":[1622,1454]},
{"point":[1623,1453]},
{"point":[1632,1453]},
{"point":[1633,1454]},
{"point":[1633,1541]},
{"point":[1634,1542]},
{"point":[1634,1632]},
{"point":[1635,1633]},
{"point":[1635,1720]},
{"point":[1636,1721]},
{"point":[1636,1811]},
{"point":[1637,1812]},
{"point":[1637,1902]},
{"point":[1638,1903]},
{"point":[1638,1927]},
{"point":[1636,1929]},
{"point":[1633,1929]},
{"point":[1633,1933]},
{"point":[1640,1933]},
{"point":[1641,1932]},
{"point":[1647,1932]},
{"point":[1648,1933]},
{"point":[1650,1933]},
{"point":[1651,1932]},
{"point":[1658,1932]},
{"point":[1659,1933]},
{"point":[1668,1933]},
{"point":[1669,1932]},
{"point":[1672,1932]},
{"point":[1673,1933]},
{"point":[1686,1933]},
{"point":[1687,1932]},
{"point":[1704,1932]},
{"point":[1705,1933]},
{"point":[1707,1933]},
{"point":[1708,1932]},
{"point":[1709,1932]},
{"point":[1710,1933]},
{"point":[1736,1933]},
{"point":[1737,1932]},
{"point":[1744,1932]},
{"point":[1745,1933]},
{"point":[1747,1933]},
{"point":[1748,1932]},
{"point":[1749,1932]},
{"point":[1750,1933]},
{"point":[1761,1933]},
{"point":[1762,1932]},
{"point":[1769,1932]},
{"point":[1770,1933]},
{"point":[1788,1933]},
{"point":[1789,1932]},
{"point":[1790,1932]},
{"point":[1790,1880]},
{"point":[1789,1879]},
{"point":[1789,1719]},
{"point":[1788,1718]},
{"point":[1788,1560]},
{"point":[1787,1559]},
{"point":[1787,1507]},
{"point":[1785,1505]},
{"point":[1785,1502]},
{"point":[1784,1501]},
{"point":[1784,1500]},
{"point":[1785,1499]},
{"point":[1785,1495]},
{"point":[1784,1494]},
{"point":[1784,1490]},
{"point":[1782,1488]},
{"point":[1783,1487]},
{"point":[1783,1483]},
{"point":[1782,1482]},
{"point":[1782,1479]},
{"point":[1781,1478]},
{"point":[1781,1477]},
{"point":[1780,1476]},
{"point":[1780,1470]},
{"point":[1779,1469]},
{"point":[1779,1463]},
{"point":[1778,1462]},
{"point":[1779,1461]},
{"point":[1779,1460]},
{"point":[1782,1457]},
{"point":[1782,1455]},
{"point":[1784,1453]},
{"point":[1786,1453]},
{"point":[1787,1452]},
{"point":[1788,1452]},
{"point":[1789,1451]},
{"point":[1789,1450]},
{"point":[1790,1449]},
{"point":[1790,1440]},
{"point":[1789,1439]},
{"point":[1789,1438]},
{"point":[1787,1436]},
{"point":[1787,1435]},
{"point":[1786,1435]},
{"point":[1784,1433]},
{"point":[1784,1429]},
{"point":[1782,1427]},
{"point":[1782,1424]},
{"point":[1781,1423]},
{"point":[1781,1418]},
{"point":[1782,1417]},
{"point":[1783,1417]},
{"point":[1783,1414]},
{"point":[1782,1413]},
{"point":[1782,1411]},
{"point":[1783,1410]},
{"point":[1783,1405]},
{"point":[1782,1404]},
{"point":[1782,1402]},
{"point":[1781,1401]},
{"point":[1781,1399]},
{"point":[1780,1398]},
{"point":[1780,1379]},
{"point":[1779,1378]},
{"point":[1780,1377]},
{"point":[1780,1371]},
{"point":[1781,1370]},
{"point":[1781,1369]},
{"point":[1783,1367]},
{"point":[1789,1367]},
{"point":[1790,1366]},
{"point":[1799,1366]},
{"point":[1800,1365]},
{"point":[1805,1365]},
{"point":[1806,1364]},
{"point":[1807,1364]},
{"point":[1808,1363]},
{"point":[1808,1361]},
{"point":[1810,1359]},
{"point":[1810,1355]},
{"point":[1811,1354]},
{"point":[1811,1353]},
{"point":[1813,1351]},
{"point":[1815,1351]},
{"point":[1816,1350]},
{"point":[1816,1349]},
{"point":[1819,1346]},
{"point":[1821,1346]},
{"point":[1822,1345]},
{"point":[1822,1344]},
{"point":[1824,1342]},
{"point":[1824,1341]},
{"point":[1826,1339]},
{"point":[1826,1332]},
{"point":[1825,1331]},
{"point":[1825,1330]},
{"point":[1824,1330]},
{"point":[1823,1329]},
{"point":[1823,1328]},
{"point":[1818,1323]},
{"point":[1817,1323]},
{"point":[1813,1319]},
{"point":[1813,1318]},
{"point":[1803,1308]},
{"point":[1803,1306]},
{"point":[1802,1306]},
{"point":[1801,1305]},
{"point":[1800,1305]},
{"point":[1792,1297]},
{"point":[1792,1296]},
{"point":[1790,1294]},
{"point":[1789,1294]},
{"point":[1784,1289]},
{"point":[1783,1289]},
{"point":[1781,1287]},
{"point":[1781,1286]},
{"point":[1778,1283]},
{"point":[1776,1283]},
{"point":[1774,1281]},
{"point":[1774,1279]},
{"point":[1773,1279]},
{"point":[1769,1275]},
{"point":[1769,1274]},
{"point":[1768,1273]},
{"point":[1766,1273]},
{"point":[1765,1272]},
{"point":[1765,1270]},
{"point":[1764,1269]},
{"point":[1763,1269]},
{"point":[1761,1267]},
{"point":[1761,1263]},
{"point":[1760,1262]},
{"point":[1760,1226]},
{"point":[1761,1225]},
{"point":[1761,1223]},
{"point":[1765,1219]},
{"point":[1767,1219]},
{"point":[1768,1218]},
{"point":[1772,1218]},
{"point":[1772,1217]},
{"point":[1773,1216]},
{"point":[1775,1216]},
{"point":[1779,1212]},
{"point":[1780,1212]},
{"point":[1780,1209]},
{"point":[1781,1208]},
{"point":[1781,1200]},
{"point":[1779,1198]},
{"point":[1779,1197]},
{"point":[1770,1188]},
{"point":[1770,1187]},
{"point":[1765,1182]},
{"point":[1765,1181]},
{"point":[1763,1179]},
{"point":[1762,1179]},
{"point":[1759,1176]},
{"point":[1759,1174]},
{"point":[1755,1170]},
{"point":[1754,1170]},
{"point":[1753,1169]},
{"point":[1753,1167]},
{"point":[1747,1161]},
{"point":[1747,1160]},
{"point":[1742,1155]},
{"point":[1741,1155]},
{"point":[1738,1152]},
{"point":[1738,1151]},
{"point":[1730,1143]},
{"point":[1730,1142]},
{"point":[1725,1137]},
{"point":[1725,1136]},
{"point":[1724,1136]},
{"point":[1720,1132]},
{"point":[1720,1131]},
{"point":[1719,1130]},
{"point":[1718,1130]},
{"point":[1716,1128]},
{"point":[1716,1127]},
{"point":[1711,1122]},
{"point":[1704,1122]},
{"point":[1703,1123]},
{"point":[1694,1123]},
{"point":[1693,1124]},
{"point":[1692,1124]},
{"point":[1691,1125]},
{"point":[1687,1125]},
{"point":[1686,1124]},
{"point":[1683,1124]},
{"point":[1682,1125]},
{"point":[1677,1125]},
{"point":[1676,1126]},
{"point":[1670,1126]},
{"point":[1669,1127]},
{"point":[1665,1127]},
{"point":[1664,1128]},
{"point":[1653,1128]},
{"point":[1652,1127]},
{"point":[1650,1127]},
{"point":[1649,1128]},
{"point":[1648,1128]},
{"point":[1646,1130]},
{"point":[1641,1130]},
{"point":[1640,1129]},
{"point":[1636,1129]},
{"point":[1635,1130]},
{"point":[1630,1130]},
{"point":[1629,1131]},
{"point":[1628,1131]},
{"point":[1627,1132]},
{"point":[1622,1132]},
{"point":[1621,1133]},
{"point":[1620,1133]},
{"point":[1619,1132]},
{"point":[1614,1132]},
{"point":[1613,1133]},
{"point":[1607,1133]},
{"point":[1606,1134]},
{"point":[1598,1134]},
{"point":[1597,1135]},
{"point":[1592,1135]},
{"point":[1591,1136]},
{"point":[1585,1136]},
{"point":[1584,1137]},
{"point":[1575,1137]},
{"point":[1574,1138]},
{"point":[1563,1138]},
{"point":[1562,1139]},
{"point":[1561,1139]},
{"point":[1560,1140]},
{"point":[1547,1140]},
{"point":[1546,1141]},
{"point":[1541,1141]},
{"point":[1540,1142]},
{"point":[1539,1141]},
{"point":[1536,1141]},
{"point":[1535,1142]},
{"point":[1528,1142]},
{"point":[1526,1144]},
{"point":[1513,1144]},
{"point":[1512,1145]},
{"point":[1508,1145]},
{"point":[1507,1146]},
{"point":[1499,1146]},
{"point":[1498,1147]},
{"point":[1496,1147]},
{"point":[1494,1145]},
{"point":[1491,1145]},
{"point":[1491,1146]},
{"point":[1489,1148]},
{"point":[1482,1148]},
{"point":[1481,1149]},
{"point":[1473,1149]},
{"point":[1472,1150]},
{"point":[1465,1150]},
{"point":[1464,1151]},
{"point":[1460,1151]},
{"point":[1459,1152]},
{"point":[1446,1152]},
{"point":[1445,1153]},
{"point":[1439,1153]},
{"point":[1438,1154]},
{"point":[1430,1154]},
{"point":[1429,1155]},
{"point":[1420,1155]},
{"point":[1419,1156]},
{"point":[1417,1156]},
{"point":[1416,1157]},
{"point":[1411,1157]},
{"point":[1410,1158]},
{"point":[1401,1158]},
{"point":[1400,1159]},
{"point":[1390,1159]},
{"point":[1389,1160]},
{"point":[1380,1160]},
{"point":[1379,1161]},
{"point":[1371,1161]},
{"point":[1370,1162]},
{"point":[1359,1162]},
{"point":[1358,1163]},
{"point":[1347,1163]},
{"point":[1346,1164]},
{"point":[1339,1164]},
{"point":[1337,1162]},
{"point":[1337,1159]},
{"point":[1336,1158]},
{"point":[1336,1154]},
{"point":[1335,1153]},
{"point":[1335,1149]},
{"point":[1334,1148]},
{"point":[1334,1145]},
{"point":[1333,1144]},
{"point":[1333,1140]},
{"point":[1332,1139]},
{"point":[1332,1136]},
{"point":[1336,1132]},
{"point":[1337,1132]},
{"point":[1342,1127]},
{"point":[1343,1127]},
{"point":[1344,1126]},
{"point":[1344,1113]},
{"point":[1343,1112]},
{"point":[1343,1111]},
{"point":[1339,1107]},
{"point":[1338,1107]},
{"point":[1337,1106]},
{"point":[1336,1106]},
{"point":[1334,1104]},
{"point":[1319,1104]},
{"point":[1318,1105]},
{"point":[1316,1105]},
{"point":[1311,1110]},
{"point":[1310,1110]},
{"point":[1309,1111]},
{"point":[1309,1112]},
{"point":[1307,1114]},
{"point":[1307,1115]},
{"point":[1306,1116]},
{"point":[1306,1120]},
{"point":[1304,1122]},
{"point":[1303,1122]},
{"point":[1301,1124]},
{"point":[1300,1124]},
{"point":[1299,1123]},
{"point":[1298,1123]},
{"point":[1295,1120]},
{"point":[1294,1120]},
{"point":[1293,1119]},
{"point":[1292,1119]},
{"point":[1291,1118]},
{"point":[1287,1118]},
{"point":[1286,1117]},
{"point":[1285,1117]},
{"point":[1283,1115]},
{"point":[1280,1115]},
{"point":[1279,1114]},
{"point":[1277,1114]},
{"point":[1276,1115]},
{"point":[1274,1115]},
{"point":[1273,1114]},
{"point":[1271,1114]},
{"point":[1270,1113]},
{"point":[1268,1113]},
{"point":[1267,1112]},
{"point":[1263,1112]},
{"point":[1262,1113]},
{"point":[1260,1113]},
{"point":[1259,1114]},
{"point":[1258,1114]},
{"point":[1258,1116]},
{"point":[1257,1117]},
{"point":[1257,1118]},
{"point":[1255,1120]},
{"point":[1255,1121]},
{"point":[1253,1123]},
{"point":[1251,1123]},
{"point":[1250,1122]},
{"point":[1240,1122]},
{"point":[1239,1123]},
{"point":[1230,1123]},
{"point":[1229,1124]},
{"point":[1222,1124]},
{"point":[1221,1123]},
{"point":[1221,1122]},
{"point":[1220,1121]},
{"point":[1220,1114]},
{"point":[1219,1113]},
{"point":[1219,1106]},
{"point":[1218,1105]},
{"point":[1218,1103]},
{"point":[1217,1102]},
{"point":[1217,1098]},
{"point":[1216,1097]},
{"point":[1216,1094]},
{"point":[1215,1093]},
{"point":[1215,1090]},
{"point":[1214,1089]},
{"point":[1214,1087]},
{"point":[1211,1084]},
{"point":[1211,1083]},
{"point":[1209,1081]},
{"point":[1209,1079]},
{"point":[1207,1077]},
{"point":[1207,1076]},
{"point":[1204,1073]},
{"point":[1204,1072]},
{"point":[1203,1072]},
{"point":[1201,1070]},
{"point":[1200,1070]},
{"point":[1199,1069]},
{"point":[1190,1069]},
{"point":[1189,1070]},
{"point":[1188,1070]},
{"point":[1187,1069]},
{"point":[1187,1067]},
{"point":[1186,1066]},
{"point":[1186,1064]},
{"point":[1185,1063]},
{"point":[1185,1061]},
{"point":[1184,1060]},
{"point":[1177,1060]},
{"point":[1176,1061]},
{"point":[1172,1061]},
{"point":[1171,1060]},
{"point":[1170,1060]},
{"point":[1168,1058]},
{"point":[1168,1057]},
{"point":[1167,1056]},
{"point":[1167,1055]},
{"point":[1168,1054]},
{"point":[1169,1054]},
{"point":[1169,1045]},
{"point":[1164,1045]},
{"point":[1162,1043]},
{"point":[1162,1039]},
{"point":[1163,1038]},
{"point":[1163,1026]},
{"point":[1164,1025]},
{"point":[1164,1020]},
{"point":[1166,1018]},
{"point":[1168,1018]},
{"point":[1169,1019]},
{"point":[1169,1020]},
{"point":[1167,1022]},
{"point":[1167,1025]},
{"point":[1169,1025]},
{"point":[1170,1026]},
{"point":[1170,1029]},
{"point":[1174,1029]},
{"point":[1174,1024]},
{"point":[1172,1024]},
{"point":[1171,1023]},
{"point":[1172,1022]},
{"point":[1173,1022]},
{"point":[1173,1020]},
{"point":[1174,1019]},
{"point":[1179,1019]},
{"point":[1180,1018]},
{"point":[1181,1018]},
{"point":[1182,1017]},
{"point":[1183,1017]},
{"point":[1184,1016]},
{"point":[1184,1015]},
{"point":[1186,1013]},
{"point":[1186,1009]},
{"point":[1185,1009]},
{"point":[1181,1005]},
{"point":[1180,1005]},
{"point":[1178,1003]},
{"point":[1178,1002]},
{"point":[1177,1001]},
{"point":[1176,1001]},
{"point":[1175,1000]},
{"point":[1175,999]},
{"point":[1176,998]},
{"point":[1176,994]},
{"point":[1172,994]},
{"point":[1171,993]},
{"point":[1171,987]},
{"point":[1172,986]},
{"point":[1174,988]},
{"point":[1174,989]},
{"point":[1179,989]},
{"point":[1179,987]},
{"point":[1181,985]},
{"point":[1181,983]},
{"point":[1183,981]},
{"point":[1184,981]},
{"point":[1187,978]},
{"point":[1188,978]},
{"point":[1189,977]},
{"point":[1189,976]},
{"point":[1194,971]},
{"point":[1195,971]},
{"point":[1195,970]},
{"point":[1196,969]},
{"point":[1196,968]},
{"point":[1197,967]},
{"point":[1197,965]},
{"point":[1196,964]},
{"point":[1196,956]},
{"point":[1195,955]},
{"point":[1195,954]},
{"point":[1191,950]},
{"point":[1191,944]},
{"point":[1192,943]},
{"point":[1192,942]},
{"point":[1195,939]},
{"point":[1195,937]},
{"point":[1197,935]},
{"point":[1198,935]},
{"point":[1202,931]},
{"point":[1204,931]},
{"point":[1204,929]},
{"point":[1209,924]},
{"point":[1209,923]},
{"point":[1210,922]},
{"point":[1210,917]}
],
"xScale" : 2448,"yScale" : 3264}