{"matchingPoints" : [{"point":[1308,1113]},
{"point":[1325.81,1762.9]},
{"point":[663,1113]},
{"point":[2016,1113]},
{"point":[663,2192]},
{"point":[2016,2192]},
{"point":[1334.18,1771.56]},
{"point":[534,1082]},
{"point":[2136,1082]},
{"point":[534,2462]},
{"point":[2136,2462]},
{"point":[1338.42,1650.71]},
{"point":[659,1109]},
{"point":[2019,1109]},
{"point":[659,2193]},
{"point":[2019,2193]},
{"point":[1348,1788]}
],
"matchingPointsDescriptions" : [{"point":[0.534314,0.340993]},
{"point":[0.541589,0.540103]},
{"point":[0.270833,0.340993]},
{"point":[0.823529,0.340993]},
{"point":[0.270833,0.671569]},
{"point":[0.823529,0.671569]},
{"point":[0.545007,0.542758]},
{"point":[0.218137,0.331495]},
{"point":[0.872549,0.331495]},
{"point":[0.218137,0.754289]},
{"point":[0.872549,0.754289]},
{"point":[0.546738,0.505731]},
{"point":[0.269199,0.339767]},
{"point":[0.824755,0.339767]},
{"point":[0.269199,0.671875]},
{"point":[0.824755,0.671875]},
{"point":[0.550654,0.547794]}
],
"contour": [{"point":[1308,1113]},
{"point":[1308,1117]},
{"point":[1309,1117]},
{"point":[1312,1120]},
{"point":[1312,1122]},
{"point":[1314,1124]},
{"point":[1315,1124]},
{"point":[1316,1125]},
{"point":[1317,1125]},
{"point":[1318,1126]},
{"point":[1319,1126]},
{"point":[1321,1128]},
{"point":[1321,1129]},
{"point":[1322,1130]},
{"point":[1323,1130]},
{"point":[1327,1134]},
{"point":[1327,1137]},
{"point":[1326,1138]},
{"point":[1326,1141]},
{"point":[1324,1143]},
{"point":[1324,1144]},
{"point":[1323,1145]},
{"point":[1323,1148]},
{"point":[1321,1150]},
{"point":[1321,1154]},
{"point":[1322,1155]},
{"point":[1322,1160]},
{"point":[1323,1161]},
{"point":[1323,1164]},
{"point":[1327,1168]},
{"point":[1329,1168]},
{"point":[1332,1171]},
{"point":[1333,1171]},
{"point":[1337,1175]},
{"point":[1337,1177]},
{"point":[1338,1178]},
{"point":[1338,1179]},
{"point":[1340,1181]},
{"point":[1340,1184]},
{"point":[1341,1185]},
{"point":[1341,1187]},
{"point":[1342,1188]},
{"point":[1342,1193]},
{"point":[1341,1194]},
{"point":[1341,1208]},
{"point":[1340,1209]},
{"point":[1340,1211]},
{"point":[1339,1212]},
{"point":[1339,1218]},
{"point":[1338,1219]},
{"point":[1338,1222]},
{"point":[1337,1223]},
{"point":[1337,1227]},
{"point":[1336,1228]},
{"point":[1336,1241]},
{"point":[1335,1242]},
{"point":[1335,1247]},
{"point":[1334,1248]},
{"point":[1333,1248]},
{"point":[1332,1249]},
{"point":[1331,1249]},
{"point":[1326,1254]},
{"point":[1325,1254]},
{"point":[1324,1255]},
{"point":[1322,1255]},
{"point":[1321,1256]},
{"point":[1319,1256]},
{"point":[1318,1257]},
{"point":[1317,1257]},
{"point":[1316,1258]},
{"point":[1315,1258]},
{"point":[1307,1266]},
{"point":[1307,1268]},
{"point":[1306,1269]},
{"point":[1306,1270]},
{"point":[1304,1272]},
{"point":[1304,1273]},
{"point":[1303,1274]},
{"point":[1303,1275]},
{"point":[1302,1276]},
{"point":[1302,1277]},
{"point":[1301,1278]},
{"point":[1301,1279]},
{"point":[1300,1280]},
{"point":[1300,1281]},
{"point":[1298,1283]},
{"point":[1298,1284]},
{"point":[1297,1285]},
{"point":[1297,1292]},
{"point":[1296,1293]},
{"point":[1296,1295]},
{"point":[1295,1296]},
{"point":[1295,1298]},
{"point":[1294,1299]},
{"point":[1294,1300]},
{"point":[1293,1301]},
{"point":[1293,1310]},
{"point":[1290,1313]},
{"point":[1288,1311]},
{"point":[1283,1311]},
{"point":[1282,1312]},
{"point":[1281,1311]},
{"point":[1279,1311]},
{"point":[1278,1310]},
{"point":[1276,1310]},
{"point":[1275,1309]},
{"point":[1272,1309]},
{"point":[1271,1308]},
{"point":[1269,1308]},
{"point":[1268,1307]},
{"point":[1265,1307]},
{"point":[1264,1308]},
{"point":[1263,1308]},
{"point":[1262,1309]},
{"point":[1260,1309]},
{"point":[1257,1312]},
{"point":[1256,1312]},
{"point":[1255,1313]},
{"point":[1252,1313]},
{"point":[1251,1314]},
{"point":[1248,1314]},
{"point":[1247,1313]},
{"point":[1247,1311]},
{"point":[1246,1310]},
{"point":[1245,1310]},
{"point":[1242,1307]},
{"point":[1237,1307]},
{"point":[1236,1306]},
{"point":[1234,1306]},
{"point":[1233,1307]},
{"point":[1228,1307]},
{"point":[1227,1308]},
{"point":[1226,1307]},
{"point":[1219,1307]},
{"point":[1218,1308]},
{"point":[1217,1308]},
{"point":[1215,1310]},
{"point":[1214,1310]},
{"point":[1213,1311]},
{"point":[1209,1311]},
{"point":[1208,1312]},
{"point":[1207,1312]},
{"point":[1206,1313]},
{"point":[1204,1313]},
{"point":[1202,1315]},
{"point":[1200,1315]},
{"point":[1198,1317]},
{"point":[1196,1317]},
{"point":[1194,1319]},
{"point":[1193,1319]},
{"point":[1192,1320]},
{"point":[1190,1320]},
{"point":[1188,1318]},
{"point":[1188,1316]},
{"point":[1187,1315]},
{"point":[1187,1312]},
{"point":[1186,1311]},
{"point":[1186,1309]},
{"point":[1184,1307]},
{"point":[1184,1305]},
{"point":[1182,1303]},
{"point":[1182,1302]},
{"point":[1178,1298]},
{"point":[1178,1297]},
{"point":[1177,1296]},
{"point":[1176,1296]},
{"point":[1175,1295]},
{"point":[1174,1295]},
{"point":[1172,1293]},
{"point":[1171,1293]},
{"point":[1170,1292]},
{"point":[1167,1292]},
{"point":[1166,1291]},
{"point":[1155,1291]},
{"point":[1153,1293]},
{"point":[1151,1293]},
{"point":[1150,1294]},
{"point":[1149,1294]},
{"point":[1148,1295]},
{"point":[1146,1295]},
{"point":[1145,1296]},
{"point":[1145,1297]},
{"point":[1144,1298]},
{"point":[1144,1306]},
{"point":[1143,1307]},
{"point":[1143,1329]},
{"point":[1144,1330]},
{"point":[1144,1332]},
{"point":[1147,1335]},
{"point":[1154,1335]},
{"point":[1155,1336]},
{"point":[1156,1336]},
{"point":[1157,1337]},
{"point":[1156,1338]},
{"point":[1156,1340]},
{"point":[1155,1341]},
{"point":[1154,1341]},
{"point":[1153,1340]},
{"point":[1148,1340]},
{"point":[1147,1341]},
{"point":[1144,1341]},
{"point":[1143,1340]},
{"point":[1136,1340]},
{"point":[1135,1339]},
{"point":[1128,1339]},
{"point":[1127,1338]},
{"point":[1124,1338]},
{"point":[1123,1337]},
{"point":[1116,1337]},
{"point":[1115,1336]},
{"point":[1109,1336]},
{"point":[1108,1335]},
{"point":[1098,1335]},
{"point":[1097,1334]},
{"point":[1094,1334]},
{"point":[1093,1333]},
{"point":[1086,1333]},
{"point":[1085,1332]},
{"point":[1079,1332]},
{"point":[1078,1331]},
{"point":[1069,1331]},
{"point":[1068,1330]},
{"point":[1063,1330]},
{"point":[1062,1329]},
{"point":[1056,1329]},
{"point":[1055,1328]},
{"point":[1050,1328]},
{"point":[1049,1327]},
{"point":[1045,1327]},
{"point":[1044,1326]},
{"point":[1035,1326]},
{"point":[1034,1325]},
{"point":[1029,1325]},
{"point":[1028,1324]},
{"point":[1020,1324]},
{"point":[1019,1323]},
{"point":[1012,1323]},
{"point":[1011,1322]},
{"point":[1009,1322]},
{"point":[1008,1321]},
{"point":[999,1321]},
{"point":[998,1320]},
{"point":[995,1320]},
{"point":[994,1319]},
{"point":[985,1319]},
{"point":[984,1318]},
{"point":[979,1318]},
{"point":[978,1317]},
{"point":[973,1317]},
{"point":[972,1316]},
{"point":[964,1316]},
{"point":[963,1315]},
{"point":[958,1315]},
{"point":[957,1314]},
{"point":[950,1314]},
{"point":[949,1313]},
{"point":[945,1313]},
{"point":[944,1312]},
{"point":[934,1312]},
{"point":[933,1311]},
{"point":[931,1311]},
{"point":[930,1310]},
{"point":[922,1310]},
{"point":[921,1309]},
{"point":[915,1309]},
{"point":[914,1308]},
{"point":[909,1308]},
{"point":[908,1307]},
{"point":[899,1307]},
{"point":[898,1306]},
{"point":[893,1306]},
{"point":[892,1305]},
{"point":[884,1305]},
{"point":[883,1304]},
{"point":[878,1304]},
{"point":[877,1303]},
{"point":[875,1303]},
{"point":[874,1302]},
{"point":[863,1302]},
{"point":[862,1301]},
{"point":[855,1301]},
{"point":[854,1300]},
{"point":[847,1300]},
{"point":[846,1301]},
{"point":[845,1301]},
{"point":[843,1303]},
{"point":[842,1303]},
{"point":[840,1305]},
{"point":[839,1305]},
{"point":[836,1308]},
{"point":[835,1308]},
{"point":[832,1311]},
{"point":[831,1311]},
{"point":[829,1313]},
{"point":[827,1313]},
{"point":[824,1316]},
{"point":[823,1316]},
{"point":[820,1319]},
{"point":[819,1319]},
{"point":[818,1320]},
{"point":[817,1320]},
{"point":[814,1323]},
{"point":[813,1323]},
{"point":[811,1325]},
{"point":[810,1325]},
{"point":[808,1327]},
{"point":[807,1327]},
{"point":[805,1329]},
{"point":[804,1329]},
{"point":[802,1331]},
{"point":[801,1331]},
{"point":[800,1332]},
{"point":[799,1332]},
{"point":[795,1336]},
{"point":[794,1336]},
{"point":[793,1337]},
{"point":[792,1337]},
{"point":[790,1339]},
{"point":[789,1339]},
{"point":[787,1341]},
{"point":[786,1341]},
{"point":[782,1345]},
{"point":[781,1345]},
{"point":[778,1348]},
{"point":[776,1348]},
{"point":[776,1349]},
{"point":[775,1350]},
{"point":[774,1350]},
{"point":[772,1352]},
{"point":[771,1352]},
{"point":[770,1353]},
{"point":[769,1353]},
{"point":[765,1357]},
{"point":[764,1357]},
{"point":[762,1359]},
{"point":[761,1359]},
{"point":[758,1362]},
{"point":[757,1362]},
{"point":[755,1364]},
{"point":[754,1364]},
{"point":[753,1365]},
{"point":[752,1365]},
{"point":[748,1369]},
{"point":[746,1369]},
{"point":[745,1370]},
{"point":[744,1370]},
{"point":[744,1371]},
{"point":[742,1373]},
{"point":[740,1373]},
{"point":[736,1377]},
{"point":[734,1377]},
{"point":[731,1380]},
{"point":[730,1380]},
{"point":[728,1382]},
{"point":[727,1382]},
{"point":[725,1384]},
{"point":[724,1384]},
{"point":[723,1385]},
{"point":[723,1394]},
{"point":[724,1395]},
{"point":[724,1396]},
{"point":[725,1397]},
{"point":[725,1398]},
{"point":[727,1400]},
{"point":[728,1400]},
{"point":[729,1401]},
{"point":[730,1401]},
{"point":[731,1402]},
{"point":[732,1402]},
{"point":[733,1403]},
{"point":[734,1403]},
{"point":[735,1404]},
{"point":[737,1404]},
{"point":[738,1405]},
{"point":[739,1405]},
{"point":[744,1410]},
{"point":[744,1411]},
{"point":[747,1414]},
{"point":[747,1431]},
{"point":[746,1432]},
{"point":[746,1443]},
{"point":[745,1444]},
{"point":[745,1446]},
{"point":[746,1447]},
{"point":[746,1448]},
{"point":[745,1449]},
{"point":[745,1476]},
{"point":[743,1478]},
{"point":[742,1478]},
{"point":[739,1481]},
{"point":[738,1481]},
{"point":[737,1482]},
{"point":[736,1482]},
{"point":[734,1484]},
{"point":[733,1484]},
{"point":[732,1485]},
{"point":[731,1485]},
{"point":[728,1488]},
{"point":[726,1488]},
{"point":[724,1490]},
{"point":[722,1490]},
{"point":[720,1492]},
{"point":[719,1492]},
{"point":[717,1494]},
{"point":[715,1494]},
{"point":[712,1497]},
{"point":[710,1497]},
{"point":[708,1499]},
{"point":[707,1499]},
{"point":[705,1501]},
{"point":[704,1501]},
{"point":[702,1503]},
{"point":[701,1503]},
{"point":[699,1505]},
{"point":[698,1505]},
{"point":[696,1507]},
{"point":[695,1507]},
{"point":[694,1508]},
{"point":[693,1508]},
{"point":[691,1510]},
{"point":[690,1510]},
{"point":[688,1512]},
{"point":[687,1512]},
{"point":[684,1515]},
{"point":[682,1515]},
{"point":[679,1518]},
{"point":[678,1518]},
{"point":[676,1520]},
{"point":[674,1520]},
{"point":[672,1522]},
{"point":[671,1522]},
{"point":[670,1523]},
{"point":[669,1523]},
{"point":[667,1525]},
{"point":[666,1525]},
{"point":[665,1526]},
{"point":[664,1526]},
{"point":[663,1527]},
{"point":[663,1529]},
{"point":[664,1530]},
{"point":[664,1532]},
{"point":[666,1534]},
{"point":[666,1535]},
{"point":[669,1538]},
{"point":[671,1538]},
{"point":[672,1539]},
{"point":[673,1539]},
{"point":[676,1542]},
{"point":[677,1542]},
{"point":[681,1546]},
{"point":[681,1547]},
{"point":[682,1548]},
{"point":[682,1549]},
{"point":[683,1550]},
{"point":[682,1551]},
{"point":[682,1554]},
{"point":[683,1555]},
{"point":[683,1556]},
{"point":[686,1559]},
{"point":[687,1559]},
{"point":[688,1560]},
{"point":[695,1560]},
{"point":[696,1561]},
{"point":[703,1561]},
{"point":[704,1562]},
{"point":[711,1562]},
{"point":[712,1563]},
{"point":[718,1563]},
{"point":[721,1566]},
{"point":[721,1591]},
{"point":[720,1592]},
{"point":[720,1600]},
{"point":[719,1601]},
{"point":[718,1601]},
{"point":[716,1603]},
{"point":[716,1608]},
{"point":[717,1609]},
{"point":[717,1610]},
{"point":[719,1610]},
{"point":[720,1611]},
{"point":[720,1618]},
{"point":[719,1619]},
{"point":[719,1621]},
{"point":[720,1622]},
{"point":[720,1629]},
{"point":[719,1630]},
{"point":[719,1631]},
{"point":[715,1635]},
{"point":[714,1635]},
{"point":[713,1636]},
{"point":[710,1636]},
{"point":[706,1640]},
{"point":[706,1645]},
{"point":[705,1646]},
{"point":[705,1650]},
{"point":[707,1652]},
{"point":[714,1652]},
{"point":[715,1653]},
{"point":[717,1653]},
{"point":[719,1655]},
{"point":[719,1656]},
{"point":[720,1657]},
{"point":[721,1657]},
{"point":[725,1661]},
{"point":[725,1670]},
{"point":[726,1671]},
{"point":[726,1682]},
{"point":[725,1683]},
{"point":[725,1773]},
{"point":[726,1774]},
{"point":[726,1846]},
{"point":[727,1847]},
{"point":[727,1918]},
{"point":[728,1919]},
{"point":[728,1990]},
{"point":[729,1991]},
{"point":[729,2062]},
{"point":[730,2063]},
{"point":[730,2136]},
{"point":[731,2137]},
{"point":[731,2184]},
{"point":[732,2184]},
{"point":[733,2185]},
{"point":[912,2185]},
{"point":[913,2186]},
{"point":[1104,2186]},
{"point":[1105,2187]},
{"point":[1293,2187]},
{"point":[1294,2188]},
{"point":[1479,2188]},
{"point":[1480,2189]},
{"point":[1656,2189]},
{"point":[1657,2190]},
{"point":[1661,2190]},
{"point":[1662,2189]},
{"point":[1663,2190]},
{"point":[1847,2190]},
{"point":[1848,2191]},
{"point":[1850,2191]},
{"point":[1851,2190]},
{"point":[1852,2191]},
{"point":[1973,2191]},
{"point":[1973,2177]},
{"point":[1972,2176]},
{"point":[1972,2156]},
{"point":[1971,2155]},
{"point":[1971,2136]},
{"point":[1970,2135]},
{"point":[1970,2116]},
{"point":[1969,2115]},
{"point":[1969,2096]},
{"point":[1968,2095]},
{"point":[1968,2076]},
{"point":[1967,2075]},
{"point":[1967,2055]},
{"point":[1966,2054]},
{"point":[1966,2036]},
{"point":[1965,2035]},
{"point":[1965,2016]},
{"point":[1964,2015]},
{"point":[1964,1995]},
{"point":[1963,1994]},
{"point":[1963,1975]},
{"point":[1962,1974]},
{"point":[1962,1955]},
{"point":[1961,1954]},
{"point":[1961,1935]},
{"point":[1960,1934]},
{"point":[1960,1915]},
{"point":[1959,1914]},
{"point":[1959,1895]},
{"point":[1958,1894]},
{"point":[1958,1875]},
{"point":[1957,1874]},
{"point":[1957,1855]},
{"point":[1956,1854]},
{"point":[1956,1834]},
{"point":[1955,1833]},
{"point":[1955,1815]},
{"point":[1954,1814]},
{"point":[1954,1795]},
{"point":[1953,1794]},
{"point":[1953,1776]},
{"point":[1952,1775]},
{"point":[1952,1755]},
{"point":[1951,1754]},
{"point":[1951,1735]},
{"point":[1950,1734]},
{"point":[1950,1715]},
{"point":[1949,1714]},
{"point":[1949,1695]},
{"point":[1959,1685]},
{"point":[1959,1684]},
{"point":[1970,1673]},
{"point":[1970,1663]},
{"point":[1969,1662]},
{"point":[1963,1662]},
{"point":[1962,1661]},
{"point":[1960,1661]},
{"point":[1958,1659]},
{"point":[1958,1657]},
{"point":[1957,1656]},
{"point":[1957,1654]},
{"point":[1958,1653]},
{"point":[1958,1650]},
{"point":[1959,1649]},
{"point":[1959,1647]},
{"point":[1958,1646]},
{"point":[1958,1644]},
{"point":[1957,1643]},
{"point":[1957,1639]},
{"point":[1959,1637]},
{"point":[1961,1637]},
{"point":[1961,1636]},
{"point":[1962,1635]},
{"point":[1962,1631]},
{"point":[1961,1630]},
{"point":[1961,1629]},
{"point":[1959,1629]},
{"point":[1956,1626]},
{"point":[1956,1619]},
{"point":[1955,1618]},
{"point":[1955,1616]},
{"point":[1956,1615]},
{"point":[1956,1610]},
{"point":[1955,1609]},
{"point":[1955,1600]},
{"point":[1956,1599]},
{"point":[1957,1599]},
{"point":[1959,1597]},
{"point":[1961,1597]},
{"point":[1961,1595]},
{"point":[1962,1594]},
{"point":[1963,1594]},
{"point":[1965,1592]},
{"point":[1969,1592]},
{"point":[1970,1591]},
{"point":[1974,1591]},
{"point":[1975,1590]},
{"point":[1980,1590]},
{"point":[1981,1589]},
{"point":[1984,1589]},
{"point":[1985,1588]},
{"point":[1988,1588]},
{"point":[1990,1586]},
{"point":[1992,1586]},
{"point":[1992,1585]},
{"point":[1993,1584]},
{"point":[1994,1584]},
{"point":[1994,1580]},
{"point":[1995,1579]},
{"point":[1995,1574]},
{"point":[1996,1573]},
{"point":[1997,1573]},
{"point":[1997,1572]},
{"point":[1999,1570]},
{"point":[1999,1569]},
{"point":[2001,1567]},
{"point":[2002,1567]},
{"point":[2003,1566]},
{"point":[2004,1566]},
{"point":[2005,1565]},
{"point":[2007,1565]},
{"point":[2015,1557]},
{"point":[2015,1553]},
{"point":[2014,1552]},
{"point":[2013,1552]},
{"point":[2012,1551]},
{"point":[2002,1551]},
{"point":[2001,1550]},
{"point":[1999,1550]},
{"point":[1998,1549]},
{"point":[1997,1549]},
{"point":[1995,1547]},
{"point":[1995,1546]},
{"point":[1994,1545]},
{"point":[1984,1545]},
{"point":[1983,1544]},
{"point":[1967,1544]},
{"point":[1966,1543]},
{"point":[1961,1543]},
{"point":[1960,1542]},
{"point":[1958,1542]},
{"point":[1957,1541]},
{"point":[1954,1541]},
{"point":[1952,1539]},
{"point":[1952,1532]},
{"point":[1951,1531]},
{"point":[1951,1530]},
{"point":[1950,1529]},
{"point":[1950,1528]},
{"point":[1947,1528]},
{"point":[1946,1527]},
{"point":[1944,1527]},
{"point":[1943,1526]},
{"point":[1941,1526]},
{"point":[1940,1527]},
{"point":[1939,1526]},
{"point":[1934,1526]},
{"point":[1933,1525]},
{"point":[1930,1525]},
{"point":[1928,1523]},
{"point":[1926,1523]},
{"point":[1925,1522]},
{"point":[1919,1522]},
{"point":[1918,1521]},
{"point":[1911,1521]},
{"point":[1910,1520]},
{"point":[1909,1520]},
{"point":[1908,1519]},
{"point":[1908,1518]},
{"point":[1907,1517]},
{"point":[1907,1504]},
{"point":[1906,1503]},
{"point":[1906,1485]},
{"point":[1905,1484]},
{"point":[1906,1483]},
{"point":[1906,1478]},
{"point":[1907,1477]},
{"point":[1907,1476]},
{"point":[1909,1474]},
{"point":[1910,1474]},
{"point":[1911,1473]},
{"point":[1912,1473]},
{"point":[1915,1470]},
{"point":[1915,1469]},
{"point":[1918,1466]},
{"point":[1920,1466]},
{"point":[1921,1465]},
{"point":[1923,1465]},
{"point":[1924,1464]},
{"point":[1925,1464]},
{"point":[1928,1461]},
{"point":[1928,1460]},
{"point":[1929,1459]},
{"point":[1929,1451]},
{"point":[1928,1450]},
{"point":[1926,1450]},
{"point":[1925,1449]},
{"point":[1923,1449]},
{"point":[1922,1448]},
{"point":[1916,1448]},
{"point":[1915,1447]},
{"point":[1906,1447]},
{"point":[1905,1446]},
{"point":[1901,1446]},
{"point":[1900,1445]},
{"point":[1893,1445]},
{"point":[1892,1444]},
{"point":[1885,1444]},
{"point":[1884,1443]},
{"point":[1880,1443]},
{"point":[1879,1442]},
{"point":[1874,1442]},
{"point":[1873,1441]},
{"point":[1870,1441]},
{"point":[1869,1442]},
{"point":[1868,1441]},
{"point":[1867,1441]},
{"point":[1866,1440]},
{"point":[1855,1440]},
{"point":[1854,1439]},
{"point":[1848,1439]},
{"point":[1847,1438]},
{"point":[1841,1438]},
{"point":[1840,1437]},
{"point":[1837,1437]},
{"point":[1836,1436]},
{"point":[1824,1436]},
{"point":[1823,1435]},
{"point":[1821,1435]},
{"point":[1820,1434]},
{"point":[1812,1434]},
{"point":[1811,1433]},
{"point":[1806,1433]},
{"point":[1805,1432]},
{"point":[1798,1432]},
{"point":[1797,1431]},
{"point":[1792,1431]},
{"point":[1791,1430]},
{"point":[1787,1430]},
{"point":[1786,1431]},
{"point":[1785,1430]},
{"point":[1783,1430]},
{"point":[1782,1429]},
{"point":[1774,1429]},
{"point":[1773,1428]},
{"point":[1772,1428]},
{"point":[1771,1427]},
{"point":[1762,1427]},
{"point":[1761,1426]},
{"point":[1758,1426]},
{"point":[1757,1425]},
{"point":[1753,1425]},
{"point":[1752,1426]},
{"point":[1751,1425]},
{"point":[1747,1425]},
{"point":[1746,1424]},
{"point":[1740,1424]},
{"point":[1739,1423]},
{"point":[1737,1423]},
{"point":[1736,1422]},
{"point":[1728,1422]},
{"point":[1727,1421]},
{"point":[1720,1421]},
{"point":[1719,1420]},
{"point":[1711,1420]},
{"point":[1710,1419]},
{"point":[1704,1419]},
{"point":[1703,1418]},
{"point":[1697,1418]},
{"point":[1696,1417]},
{"point":[1689,1417]},
{"point":[1688,1416]},
{"point":[1682,1416]},
{"point":[1681,1415]},
{"point":[1675,1415]},
{"point":[1674,1414]},
{"point":[1672,1414]},
{"point":[1671,1413]},
{"point":[1661,1413]},
{"point":[1660,1412]},
{"point":[1656,1412]},
{"point":[1655,1411]},
{"point":[1653,1411]},
{"point":[1652,1410]},
{"point":[1652,1409]},
{"point":[1649,1406]},
{"point":[1648,1406]},
{"point":[1647,1405]},
{"point":[1643,1405]},
{"point":[1642,1404]},
{"point":[1642,1402]},
{"point":[1643,1401]},
{"point":[1643,1399]},
{"point":[1642,1398]},
{"point":[1642,1392]},
{"point":[1641,1391]},
{"point":[1636,1391]},
{"point":[1635,1390]},
{"point":[1634,1390]},
{"point":[1630,1386]},
{"point":[1630,1385]},
{"point":[1626,1381]},
{"point":[1626,1379]},
{"point":[1622,1379]},
{"point":[1621,1378]},
{"point":[1619,1378]},
{"point":[1618,1377]},
{"point":[1614,1377]},
{"point":[1613,1376]},
{"point":[1611,1376]},
{"point":[1610,1375]},
{"point":[1606,1375]},
{"point":[1605,1374]},
{"point":[1603,1374]},
{"point":[1602,1373]},
{"point":[1599,1373]},
{"point":[1598,1372]},
{"point":[1595,1372]},
{"point":[1594,1371]},
{"point":[1591,1371]},
{"point":[1590,1370]},
{"point":[1587,1370]},
{"point":[1586,1369]},
{"point":[1583,1369]},
{"point":[1582,1368]},
{"point":[1579,1368]},
{"point":[1578,1367]},
{"point":[1575,1367]},
{"point":[1574,1366]},
{"point":[1570,1366]},
{"point":[1569,1365]},
{"point":[1567,1365]},
{"point":[1566,1364]},
{"point":[1562,1364]},
{"point":[1561,1363]},
{"point":[1559,1363]},
{"point":[1558,1362]},
{"point":[1555,1362]},
{"point":[1554,1361]},
{"point":[1550,1361]},
{"point":[1549,1360]},
{"point":[1547,1360]},
{"point":[1546,1359]},
{"point":[1543,1359]},
{"point":[1542,1358]},
{"point":[1539,1358]},
{"point":[1538,1357]},
{"point":[1533,1357]},
{"point":[1530,1360]},
{"point":[1529,1359]},
{"point":[1519,1359]},
{"point":[1518,1358]},
{"point":[1515,1358]},
{"point":[1514,1357]},
{"point":[1510,1357]},
{"point":[1509,1356]},
{"point":[1500,1356]},
{"point":[1499,1355]},
{"point":[1491,1355]},
{"point":[1490,1354]},
{"point":[1488,1354]},
{"point":[1487,1353]},
{"point":[1479,1353]},
{"point":[1478,1352]},
{"point":[1475,1352]},
{"point":[1474,1351]},
{"point":[1468,1351]},
{"point":[1467,1350]},
{"point":[1461,1350]},
{"point":[1460,1349]},
{"point":[1454,1349]},
{"point":[1450,1345]},
{"point":[1450,1344]},
{"point":[1451,1343]},
{"point":[1451,1342]},
{"point":[1452,1341]},
{"point":[1452,1339]},
{"point":[1453,1338]},
{"point":[1453,1337]},
{"point":[1454,1336]},
{"point":[1454,1328]},
{"point":[1455,1327]},
{"point":[1455,1324]},
{"point":[1456,1323]},
{"point":[1456,1309]},
{"point":[1455,1308]},
{"point":[1455,1299]},
{"point":[1454,1298]},
{"point":[1454,1294]},
{"point":[1452,1292]},
{"point":[1452,1290]},
{"point":[1451,1289]},
{"point":[1451,1287]},
{"point":[1450,1286]},
{"point":[1450,1285]},
{"point":[1449,1284]},
{"point":[1449,1283]},
{"point":[1448,1282]},
{"point":[1448,1281]},
{"point":[1447,1281]},
{"point":[1445,1279]},
{"point":[1445,1278]},
{"point":[1443,1276]},
{"point":[1441,1276]},
{"point":[1439,1274]},
{"point":[1438,1274]},
{"point":[1437,1273]},
{"point":[1433,1273]},
{"point":[1432,1272]},
{"point":[1430,1272]},
{"point":[1427,1269]},
{"point":[1427,1268]},
{"point":[1424,1265]},
{"point":[1424,1264]},
{"point":[1423,1264]},
{"point":[1422,1263]},
{"point":[1422,1262]},
{"point":[1420,1260]},
{"point":[1411,1260]},
{"point":[1410,1261]},
{"point":[1392,1261]},
{"point":[1391,1260]},
{"point":[1388,1260]},
{"point":[1386,1258]},
{"point":[1386,1256]},
{"point":[1387,1255]},
{"point":[1387,1253]},
{"point":[1388,1252]},
{"point":[1388,1247]},
{"point":[1389,1246]},
{"point":[1389,1239]},
{"point":[1388,1238]},
{"point":[1388,1234]},
{"point":[1387,1233]},
{"point":[1387,1228]},
{"point":[1388,1227]},
{"point":[1389,1227]},
{"point":[1391,1229]},
{"point":[1392,1229]},
{"point":[1393,1230]},
{"point":[1394,1230]},
{"point":[1397,1233]},
{"point":[1397,1234]},
{"point":[1398,1235]},
{"point":[1398,1236]},
{"point":[1399,1237]},
{"point":[1399,1239]},
{"point":[1402,1242]},
{"point":[1403,1242]},
{"point":[1404,1243]},
{"point":[1406,1243]},
{"point":[1407,1244]},
{"point":[1413,1244]},
{"point":[1414,1243]},
{"point":[1414,1231]},
{"point":[1413,1230]},
{"point":[1413,1224]},
{"point":[1412,1223]},
{"point":[1412,1215]},
{"point":[1411,1214]},
{"point":[1411,1209]},
{"point":[1410,1208]},
{"point":[1410,1204]},
{"point":[1409,1203]},
{"point":[1409,1195]},
{"point":[1408,1194]},
{"point":[1408,1188]},
{"point":[1407,1187]},
{"point":[1407,1184]},
{"point":[1406,1183]},
{"point":[1406,1180]},
{"point":[1404,1178]},
{"point":[1404,1177]},
{"point":[1403,1176]},
{"point":[1403,1175]},
{"point":[1399,1171]},
{"point":[1397,1171]},
{"point":[1396,1170]},
{"point":[1391,1170]},
{"point":[1388,1173]},
{"point":[1388,1182]},
{"point":[1386,1184]},
{"point":[1385,1184]},
{"point":[1383,1186]},
{"point":[1382,1186]},
{"point":[1381,1187]},
{"point":[1371,1187]},
{"point":[1369,1185]},
{"point":[1369,1184]},
{"point":[1370,1183]},
{"point":[1370,1176]},
{"point":[1368,1174]},
{"point":[1368,1173]},
{"point":[1367,1172]},
{"point":[1367,1171]},
{"point":[1361,1171]},
{"point":[1360,1170]},
{"point":[1359,1170]},
{"point":[1358,1169]},
{"point":[1358,1167]},
{"point":[1354,1163]},
{"point":[1354,1155]},
{"point":[1353,1154]},
{"point":[1353,1151]},
{"point":[1351,1149]},
{"point":[1351,1148]},
{"point":[1350,1148]},
{"point":[1347,1145]},
{"point":[1346,1145]},
{"point":[1344,1143]},
{"point":[1344,1141]},
{"point":[1343,1141]},
{"point":[1341,1139]},
{"point":[1341,1138]},
{"point":[1342,1137]},
{"point":[1343,1137]},
{"point":[1344,1136]},
{"point":[1349,1136]},
{"point":[1350,1135]},
{"point":[1351,1135]},
{"point":[1351,1132]},
{"point":[1353,1130]},
{"point":[1355,1130]},
{"point":[1357,1128]},
{"point":[1357,1127]},
{"point":[1358,1126]},
{"point":[1358,1125]},
{"point":[1359,1124]},
{"point":[1359,1121]},
{"point":[1360,1120]},
{"point":[1360,1115]},
{"point":[1359,1114]},
{"point":[1354,1114]},
{"point":[1353,1115]},
{"point":[1351,1115]},
{"point":[1349,1117]},
{"point":[1348,1117]},
{"point":[1347,1118]},
{"point":[1345,1118]},
{"point":[1344,1119]},
{"point":[1342,1119]},
{"point":[1341,1120]},
{"point":[1340,1120]},
{"point":[1339,1121]},
{"point":[1339,1124]},
{"point":[1336,1127]},
{"point":[1334,1125]},
{"point":[1334,1124]},
{"point":[1333,1123]},
{"point":[1333,1119]},
{"point":[1332,1118]},
{"point":[1328,1118]},
{"point":[1328,1119]},
{"point":[1327,1120]},
{"point":[1325,1118]},
{"point":[1324,1118]},
{"point":[1323,1117]},
{"point":[1320,1117]},
{"point":[1318,1115]},
{"point":[1317,1115]},
{"point":[1315,1113]}
],
"xScale" : 2448,"yScale" : 3264}